 
 =================================================================
 
  PARSEC 1.1 - Real-space DFT Program
 
  serial run, no MPI interface
  starting run on 10-OCT-2006 11:09:43 -0400 UTC
 
 =================================================================
 
 Initial Run - starting from atomic potentials
 
 Grid data:
 ----------
 Confined system with zero boundary condition!
 Boundary sphere size is   9.448634 bohrs
 Grid spacing is  0.661404 bohrs
 
 Grid points are shifted from origin! 
 shift vector =   0.5000  0.5000  0.5000   [units of grid spacing]
 Finite-difference expansion of order 12
 
 Eigenvalue data: 
 ---------------- 
 Number of states:            8
Net cluster charge:    0.000
 
 Fermi temperature =   80.0 [K]
 
 Self-consistency data: 
 ----------------------
 Max number of iterations is           50
 Using DIAGLA (block preconditioned Lanczos eigen-problem solver)
 
 Self-consistency convergence criterion is  0.00020 Ry
 Diagonalization tolerance is 0.10000E-03
 Tolerance in initial diagonalization  100.000
 Buffer size in subspace is      1
 
 Mixer data:
 -----------
 Anderson mixer
 Initial Jacobian:  0.300  Mixing memory is  4
 
 Atom data:
 ----------

Total # of atom types is     2

 Atom coordinates input in angstroms
 
 There are   1 Si atoms
 and their initial coordinates are:
 
    x [bohr]          y [bohr]          z [bohr]     movable?
    0.000000000       0.000000000       0.000000000      1
 There are   4 H  atoms
 and their initial coordinates are:
 
    x [bohr]          y [bohr]          z [bohr]     movable?
    1.627432787       1.627432787       1.627432787      1
   -1.627432787      -1.627432787       1.627432787      1
   -1.627432787       1.627432787      -1.627432787      1
    1.627432787      -1.627432787      -1.627432787      1
 
 Total number of atoms =    5
 
 Correlation data:
 -----------------
 Exchange-Correlation functional is ca
 LDA, Ceperley-Alder, Perdew-Zunger parametrization
 
 Other input data:
 -----------------
No spin effects!

 
 Using new (r*V_ps) interpolation of pseudopot. !
 
 No eigenvalue output File!
 OutEvFlag =            0
 
 No minimization!
 
 No molecular dynamics!
 
 No polarizability!
 
 
 
 Pseudopotential messages
 ------------------------
 
 Pseudopotential file for atom type  1 is Si_POTRE.DAT

Si  ca  nrl  nc  
  ATM3      30-JUN- 4 Troullier-Martins
 3s 1.50  r= 2.69/3p 2.50  r= 3.82/

 ion charge =  4.000    
 logarithmic parameters of pseudopot. radial grid
 r(i) = a*[Exp(b(i-1)) - 1)]
 Si:   a = 0.177054E-03  b = 0.100000E-01    nr =     1343

NOTICE: No Core-Correction !

 Occupancy of orbitals : 
   1.500   2.500
 # of pseudopot= 2, Local component is l = 1, Core radius=  3.82
 
 Pseudopotential file for atom type  2 is H_POTRE.DAT

H   ca  nrl  nc  
  ATM3      30-JUN- 4 Troullier-Martins
 1s 1.00  r= 1.99/

 ion charge =  1.000    
 logarithmic parameters of pseudopot. radial grid
 r(i) = a*[Exp(b(i-1)) - 1)]
 H :   a = 0.247875E-02  b = 0.100000E-01    nr =     1079

NOTICE: No Core-Correction !

 Occupancy of orbitals : 
   1.000
 # of pseudopot= 1, Local component is l = 0, Core radius=  1.99
 
 Using order          18 for calculating dV/dr in pseudo
 
 Normalization check and Kleinman-Bylander Integral
 
                                 s                 p                 d
  Si   Normalization        1.00001666        1.00001681
  Si   K-B Integral         0.23676376       -3.29274804
 
  H    Normalization        1.00001673
  H    K-B Integral        -1.76269563
 

 Symmetry Properties:
 --------------------

 The space group of the crystal is symmorphic
 (this usually means that symmetry operations do not
 involve rotations and translations simultaneously)

 Operation number: 
       1  2  3  4  5  6  7  8  9 10 11 12
      37 38 39 40 41 42 43 44 45 46 47 48


    Rotation matrices (r-lattice) and fractional translations (r-lattice)

    1     1  0  0     0  1  0     0  0  1      0.00000  0.00000  0.00000   E  
    2     1  0  0     0 -1  0     0  0 -1      0.00000  0.00000  0.00000   C2 
    3    -1  0  0     0  1  0     0  0 -1      0.00000  0.00000  0.00000   C2 
    4    -1  0  0     0 -1  0     0  0  1      0.00000  0.00000  0.00000   C2 
    5     0  0  1     1  0  0     0  1  0      0.00000  0.00000  0.00000   C3 
    6     0  0 -1     1  0  0     0 -1  0      0.00000  0.00000  0.00000   C3 
    7     0  0 -1    -1  0  0     0  1  0      0.00000  0.00000  0.00000   C3 
    8     0  0  1    -1  0  0     0 -1  0      0.00000  0.00000  0.00000   C3 
    9     0  1  0     0  0  1     1  0  0      0.00000  0.00000  0.00000   C3 
   10     0 -1  0     0  0 -1     1  0  0      0.00000  0.00000  0.00000   C3 
   11     0  1  0     0  0 -1    -1  0  0      0.00000  0.00000  0.00000   C3 
   12     0 -1  0     0  0  1    -1  0  0      0.00000  0.00000  0.00000   C3 
   13     0  1  0     1  0  0     0  0  1      0.00000  0.00000  0.00000   IC2
   14     0 -1  0     1  0  0     0  0 -1      0.00000  0.00000  0.00000   IC4
   15     0  1  0    -1  0  0     0  0 -1      0.00000  0.00000  0.00000   IC4
   16     0 -1  0    -1  0  0     0  0  1      0.00000  0.00000  0.00000   IC2
   17     1  0  0     0  0  1     0  1  0      0.00000  0.00000  0.00000   IC2
   18     1  0  0     0  0 -1     0 -1  0      0.00000  0.00000  0.00000   IC2
   19    -1  0  0     0  0 -1     0  1  0      0.00000  0.00000  0.00000   IC4
   20    -1  0  0     0  0  1     0 -1  0      0.00000  0.00000  0.00000   IC4
   21     0  0  1     0  1  0     1  0  0      0.00000  0.00000  0.00000   IC2
   22     0  0 -1     0 -1  0     1  0  0      0.00000  0.00000  0.00000   IC4
   23     0  0 -1     0  1  0    -1  0  0      0.00000  0.00000  0.00000   IC2
   24     0  0  1     0 -1  0    -1  0  0      0.00000  0.00000  0.00000   IC4
 
  Found Abelian subgroup D_2   with            4  symmetry operations
 
  Character table :
----------------------------------------
 Representation  |     E   C2   C2   C2
     A       1   |     1    1    1    1
     B1      2   |     1    1   -1   -1
     B2      3   |     1   -1    1   -1
     B3      4   |     1   -1   -1    1
----------------------------------------
 Operation number:     1    2    3    4
 
 
 Setup messages:
 ---------------
 The Hamiltonian matrix size is       12160
  reduced size is         3040
  maximum distance between grid points and their images is
   0.000      [bohr]
 
 There are 36 laplacian-related non-diagonal elements per row
 
 Non-local pseudopotential messages:
 -----------------------------------
 Max # of nonlocal points for one atom =          840
 
 Sizes of all non-local blocks 
   840   108   108   108   108
 
 
 Memory usage:
 -------------
 estimated memory usage (no MPI)  :     4.43 MB
 
 total electrons from atomic density is     7.99875
 total electrons from atomic density is     8.00000

 Max and min values of charge density [e/bohr^3]  0.1279E+00  0.1229E-05     
 
Hartree potential time [sec]:       0.15
 
 
Setup time [sec] :       0.25
 
 -----------------------------------------------------------------
 
 Number of converged eigen-pairs per representation: 
     3     3     3     3                          total =     12
 Number of matrix-vector multiplications: 
   105   129   129   140                          total =    503
 
Diagonalization time [sec] :       2.01
 
 Fermi level at    -0.6626 [Ry]
 
   State   Eigenvalue [Ry]      Eigenvalue [eV]    Occup.     Repr.
 
    1        -1.2186797129       -16.5811124378    1.0000        1
    2        -0.8465171929       -11.5175436227    1.0000        4
    3        -0.8465171928       -11.5175436225    1.0000        2
    4        -0.8465171928       -11.5175436224    1.0000        3
    5        -0.1134213271        -1.5431878921    0.0000        3
    6        -0.1134213271        -1.5431878918    0.0000        2
    7        -0.1134213270        -1.5431878912    0.0000        4
    8        -0.1065593124        -1.4498246920    0.0000        1

 Max and min values of charge density [e/bohr^3]  0.1913E+00  0.1574E-08     
 
Hartree potential time [sec]:       0.16
 
 
   Eigenvalue Energy             =          -7.51646258 [Ry]
   Hartree Energy                =          22.94259286 [Ry]
   Integral_{Vxc*rho}            =          -6.68718604 [Ry]
   Exc = Integral{eps_xc*rho}    =          -5.12445615 [Ry]
   Electron-Ion energy           =         -51.98499702 [Ry]
   Ion-Ion Energy                =          13.95931646 [Ry]
   (E(new)-E(old))/atom  =           -71.71064359 [eV]
 
   Total Energy =           -12.39365197 [Ry]
   Energy/atom  =           -33.72511000 [eV]
 
 
  0- 1    SRE of pot. & charge weighted pot =   2.6384858779    0.3370622963

 Number of converged eigen-pairs per representation: 
     2     3     3     3                          total =     11
 Number of matrix-vector multiplications: 
    51    78    86    98                          total =    313
 Number of converged eigen-pairs per representation: 
     4     3     3     3                          total =     13
 Number of matrix-vector multiplications: 
    66     0     0     0                          total =     66
 
Diagonalization time [sec] :       1.48
 
 Fermi level at    -0.5868 [Ry]
 
   State   Eigenvalue [Ry]      Eigenvalue [eV]    Occup.     Repr.
 
    1        -1.1198787309       -15.2368460372    1.0000        1
    2        -0.7532168385       -10.2481176617    1.0000        4
    3        -0.7532168362       -10.2481176295    1.0000        3
    4        -0.7532168233       -10.2481174540    1.0000        2
    5        -0.0564847972        -0.7685208531    0.0000        1
    6        -0.0537597123        -0.7314438936    0.0000        2
    7        -0.0537596977        -0.7314436943    0.0000        4
    8        -0.0537596948        -0.7314436552    0.0000        3

 Max and min values of charge density [e/bohr^3]  0.1864E+00  0.2633E-08     
 
Hartree potential time [sec]:       0.16
 
 
   Eigenvalue Energy             =          -6.75905846 [Ry]
   Hartree Energy                =          22.59900102 [Ry]
   Integral_{Vxc*rho}            =          -6.57848419 [Ry]
   Exc = Integral{eps_xc*rho}    =          -5.04164449 [Ry]
   Electron-Ion energy           =         -51.48419784 [Ry]
   Ion-Ion Energy                =          13.95931646 [Ry]
   (E(new)-E(old))/atom  =            -0.07963499 [eV]
 
   Total Energy =           -12.42291706 [Ry]
   Energy/atom  =           -33.80474499 [eV]
 
 
  0- 2    SRE of pot. & charge weighted pot =   1.5308317979    0.1910322220

 Number of converged eigen-pairs per representation: 
     3     3     2     3                          total =     11
 Number of matrix-vector multiplications: 
    70    92    49    88                          total =    299
 Number of converged eigen-pairs per representation: 
     3     3     4     3                          total =     13
 Number of matrix-vector multiplications: 
     0     0    90     0                          total =     90
 
Diagonalization time [sec] :       1.53
 
 Fermi level at    -0.4842 [Ry]
 
   State   Eigenvalue [Ry]      Eigenvalue [eV]    Occup.     Repr.
 
    1        -0.9899183080       -13.4686305152    1.0000        1
    2        -0.6280495821        -8.5451170043    1.0000        2
    3        -0.6280495426        -8.5451164670    1.0000        4
    4        -0.6280495266        -8.5451162491    1.0000        3
    5         0.0048793229         0.0663870909    0.0000        1
    6         0.0216087812         0.2940047547    0.0000        3
    7         0.0216087893         0.2940048655    0.0000        2
    8         0.0216088145         0.2940052087    0.0000        4

 Max and min values of charge density [e/bohr^3]  0.1769E+00  0.5402E-08     
 
Hartree potential time [sec]:       0.16
 
 
   Eigenvalue Energy             =          -5.74813392 [Ry]
   Hartree Energy                =          22.12669480 [Ry]
   Integral_{Vxc*rho}            =          -6.41672960 [Ry]
   Exc = Integral{eps_xc*rho}    =          -4.91840541 [Ry]
   Electron-Ion energy           =         -50.76267601 [Ry]
   Ion-Ion Energy                =          13.95931646 [Ry]
   (E(new)-E(old))/atom  =            -0.03971844 [eV]
 
   Total Energy =           -12.43751321 [Ry]
   Energy/atom  =           -33.84446344 [eV]
 
 
  0- 3    SRE of pot. & charge weighted pot =   0.0994951481    0.0124816484

 Number of converged eigen-pairs per representation: 
     3     3     3     2                          total =     11
 Number of matrix-vector multiplications: 
    49    65    66    38                          total =    218
 
Diagonalization time [sec] :       0.82
 
 Fermi level at    -0.4882 [Ry]
 
   State   Eigenvalue [Ry]      Eigenvalue [eV]    Occup.     Repr.
 
    1        -0.9960556816       -13.5521343928    1.0000        1
    2        -0.6301211120        -8.5733018256    1.0000        2
    3        -0.6301211076        -8.5733017657    1.0000        3
    4        -0.6301211003        -8.5733016661    1.0000        4
    5         0.0028962916         0.0394063645    0.0000        1
    6         0.0197385863         0.2685592578    0.0000        3
    7         0.0197386030         0.2685594847    0.0000        2
    8         0.0197386050         0.2685595125    0.0000        4

 Max and min values of charge density [e/bohr^3]  0.1748E+00  0.5359E-08     
 
Hartree potential time [sec]:       0.16
 
 
   Eigenvalue Energy             =          -5.77283800 [Ry]
   Hartree Energy                =          22.18046801 [Ry]
   Integral_{Vxc*rho}            =          -6.41908630 [Ry]
   Exc = Integral{eps_xc*rho}    =          -4.92021799 [Ry]
   Electron-Ion energy           =         -50.82216427 [Ry]
   Ion-Ion Energy                =          13.95931646 [Ry]
   (E(new)-E(old))/atom  =            -0.00114470 [eV]
 
   Total Energy =           -12.43793387 [Ry]
   Energy/atom  =           -33.84560813 [eV]
 
 
  0- 4    SRE of pot. & charge weighted pot =   0.0625081102    0.0077405843

 Number of converged eigen-pairs per representation: 
     3     3     3     2                          total =     11
 Number of matrix-vector multiplications: 
    48    50    51    34                          total =    183
 Number of converged eigen-pairs per representation: 
     3     3     3     4                          total =     13
 Number of matrix-vector multiplications: 
     0     0     0    60                          total =     60
 
Diagonalization time [sec] :       0.92
 
 Fermi level at    -0.4796 [Ry]
 
   State   Eigenvalue [Ry]      Eigenvalue [eV]    Occup.     Repr.
 
    1        -0.9849114298       -13.4005079313    1.0000        1
    2        -0.6201093477        -8.4370837635    1.0000        2
    3        -0.6201093412        -8.4370836741    1.0000        3
    4        -0.6201093402        -8.4370836614    1.0000        4
    5         0.0074581810         0.1014745187    0.0000        1
    6         0.0256579546         0.3490969992    0.0000        4
    7         0.0256579808         0.3490973557    0.0000        3
    8         0.0256579909         0.3490974931    0.0000        2

 Max and min values of charge density [e/bohr^3]  0.1744E+00  0.5665E-08     
 
Hartree potential time [sec]:       0.15
 
 
   Eigenvalue Energy             =          -5.69047892 [Ry]
   Hartree Energy                =          22.13181327 [Ry]
   Integral_{Vxc*rho}            =          -6.40542384 [Ry]
   Exc = Integral{eps_xc*rho}    =          -4.90980333 [Ry]
   Electron-Ion energy           =         -50.75188628 [Ry]
   Ion-Ion Energy                =          13.95931646 [Ry]
   (E(new)-E(old))/atom  =             0.00003264 [eV]
 
   Total Energy =           -12.43792187 [Ry]
   Energy/atom  =           -33.84557549 [eV]
 
 
  0- 5    SRE of pot. & charge weighted pot =   0.0766957328    0.0095632238

 Number of converged eigen-pairs per representation: 
     3     2     3     3                          total =     11
 Number of matrix-vector multiplications: 
    43    30    48    50                          total =    171
 
Diagonalization time [sec] :       0.62
 
 Fermi level at    -0.4844 [Ry]
 
   State   Eigenvalue [Ry]      Eigenvalue [eV]    Occup.     Repr.
 
    1        -0.9910703573       -13.4843050672    1.0000        1
    2        -0.6257357315        -8.5136352155    1.0000        3
    3        -0.6257357314        -8.5136352137    1.0000        2
    4        -0.6257357140        -8.5136349769    1.0000        4
    5         0.0045829843         0.0623551671    0.0000        1
    6         0.0222903774         0.3032784166    0.0000        4
    7         0.0222904402         0.3032792717    0.0000        3
    8         0.0222904465         0.3032793564    0.0000        2

 Max and min values of charge density [e/bohr^3]  0.1747E+00  0.5472E-08     
 
Hartree potential time [sec]:       0.15
 
 
   Eigenvalue Energy             =          -5.73655507 [Ry]
   Hartree Energy                =          22.15780500 [Ry]
   Integral_{Vxc*rho}            =          -6.41309425 [Ry]
   Exc = Integral{eps_xc*rho}    =          -4.91564897 [Ry]
   Electron-Ion energy           =         -50.79033151 [Ry]
   Ion-Ion Energy                =          13.95931646 [Ry]
   (E(new)-E(old))/atom  =            -0.00012494 [eV]
 
   Total Energy =           -12.43796779 [Ry]
   Energy/atom  =           -33.84570043 [eV]
 
 
  0- 6    SRE of pot. & charge weighted pot =   0.0010726591    0.0000642153

 
Time for self-consistent field [sec] :       8.34
 
Total charge (user input) [e] =   0.00000000
Total charge (computed) [e] =   0.00000000
 Dipole components [Debye]:
x-component =   0.00000000
y-component =   0.00000000
z-component =   0.00000000
 
 Coordinates, forces, torque
 ============================
 
  symmetrizing forces according to symmetry operations 
             total (net) force [Ry/bohr]:      0.000000    0.000000    0.000000
 
 coordinates and total forces (after setting net force to zero)
-atom-  ----x----   ----y----   ----z-----   ----Fx----  ----Fy----   ----Fz---
                       [bohr]                             [Ry/bohr]            
 
   1     0.000000    0.000000    0.000000      0.000000    0.000000    0.000000
   2     1.627433    1.627433    1.627433     -0.014518   -0.014518   -0.014518
   3    -1.627433   -1.627433    1.627433      0.014518    0.014518   -0.014518
   4    -1.627433    1.627433   -1.627433      0.014518   -0.014518    0.014518
   5     1.627433   -1.627433   -1.627433     -0.014518    0.014518    0.014518
 
total torque [Ry/radian] :     0.000000    0.000000    0.000000
 
 
Time for movement    0 is [sec]:       8.37
 
 =================================================================
 
 
 Total CPU time [sec] :       8.62
Wall-clock time [sec] :       8.62
 Current date/time: 10-OCT-2006 11:09:51 -0400 UTC
 
 =================================================================
 
