 
 =================================================================
 
  PARSEC 1.3 - Real-space DFT Program
  partial support for wire boundary conditions
 
  serial run, no MPI interface

 starting run on 09-APR-2007 17:23:16 -0500 UTC

 =================================================================
 
 Initial Run - starting from atomic potentials
 
 Grid data:
 ----------
 Confined system (cluster) with zero boundary condition!
 Boundary sphere size is  10.000000 bohrs
 Grid spacing is  0.900000 bohrs
 Grid points are shifted from origin! 
 shift vector =   0.5000  0.5000  0.5000   [units of grid spacing]
 WAVEFUNCTIONS ARE REAL!
 Finite-difference expansion of order 10

 Eigenvalue data: 
 ---------------- 
 Number of states:            6
 Net cluster charge = -1.00      [e] 
 
 Fermi temperature =   80.0 [K]
 
 Self-consistency data: 
 ----------------------
 Maximum number of iterations is           30
 Using DIAGLA (block preconditioned Lanczos eigen-problem solver)
 
 
 No Chebyshev subspace filtering
 
 Self-consistency convergence criterion is  0.00020 Ry
 Self-consistency convergence indicator criterion is  0.02000 Ry
 If applicable, Chebyshev polynomial order will decrease to 
 10 after SRE becomes less than the self-consistency 
 convergence indicator.
 Diagonalization tolerance is     0.00010
 Buffer size in subspace is      5

 
 Mixer data:
 -----------
  Generalized Broyden mixer
 Initial Jacobian:  0.300  Mixing memory is  4
 Mixing restarted after           20  iterations
 
 Atom data:
 ----------

 Total # of atom types is     1

 Atom coordinates input in Bohr radii
 

 Chemical element : Na
 martins_wang                                                
  pseudopotential format : Martins-Wang
 There are      5 Na atoms
 and their initial coordinates are:
 
    x [bohr]          y [bohr]          z [bohr]     movable?
   -1.015971000       3.366210500       2.139044000      1
    2.800929000       3.860313500      -4.162935000      1
    5.886940000       1.162583500       0.865330000      1
    0.850492000      -3.860313500       0.480202000      1
   -5.886940000      -2.178173500       4.162935000      1

 Total number of atoms =       5

 Correlation data:
 -----------------
 Exchange-Correlation functional is pb
 GGA, Perdew-Burke-Ernzerhof parametrization
 
 Other input data:
 -----------------
 Writing only wave functions of occupied levels to parsec.dat file
 
 No spin effects!

 
 Using new (r*V_ps) interpolation of pseudopot. !

 output level [1 - 6] =  0

 No eigenvalue output File!
 outevflag =            0
 
 No minimization!
 
 No molecular dynamics!
 Polarizability data:
 --------------------
 Using seven-fields polarizability approach
 Electric field  =  0.00100 [Ry/au]
 


 Pseudopotential messages
 ------------------------

 Pseudopotential file for atom type  1 is Na_POTRW.DAT
Martins-Wang generator

 
 logarithmic parameters of pseudopot. radial grid
 r(i) = a*Exp(b(i-1)) - c
 Na:   a [bohr] = 0.225341E-03  b = 0.100000E-01  c [bohr] = 0.225341E-03

 NOTICE: No Core-Correction !

 Occupancy of orbitals : 
   1.000   0.000   0.000
 # of pseudopot= 3, Local component is l = 1, Core radius [bohr] =  3.10

 Using order          18 for calculating dV/dr in pseudo

 Normalization check and Kleinman-Bylander Integral

                                 s                 p                 d
  Na   Normalization        1.00001667        1.00001667        1.01036503
  Na   K-B Int. [Ry]        0.01109253        0.00000000        0.00000000
 
 K-B Energy Integrals renormalized to unity
 

 Symmetry Properties:
 --------------------

skipping non-trivial symmetry operations
 Abelian subgroup contains only the Identity operation
                     ********************                    
 
  Distributing            1  processors among            1  groups.
  Each group contains            1  processors.
 
                     ********************                    
 
 Setup messages:
 ---------------
 The Hamiltonian matrix size is        5832
  reduced size is         5832
  maximum distance between grid points and their images is
   0.000      [bohr]
 
 There are 30 laplacian-related non-diagonal elements per row
 
  Maximum number of matrix-vector operations =        34998
 
 
 Non-local pseudopotential messages:
 -----------------------------------
 Max # of nonlocal points for one atom =          177
 
 Sizes of all non-local blocks 
   173   177   175   175   168
 
 
 Memory usage:
 -------------
 estimated memory usage (no MPI)  :     7.08 MB
 
 Total electron charge from atomic density [e] =       4.4575    
 Renormalizing charge density
 Total electron charge from atomic density [e] =       6.0000    

 Max and min values of charge density [e/bohr^3]:  0.5528E-02  0.6160E-05     
 
 Hartree potential time [sec]:       0.17
 
 
Setup time [sec] :       0.26
 
 -----------------------------------------------------------------
 
 Number of converged eigen-pairs per representation: 
     11
   total =      11
 Number of matrix-vector multiplications: 
    412
   total =     412
 cumulated number of matrix-vector multiplications =         412
 
 Diagonalization time [sec] :       1.80,      tdiag_sum =        1.80
 
 Fermi level at     0.1745 [Ry]
 
   State   Eigenvalue [Ry]      Eigenvalue [eV]    Occup.     Repr.
 
    1         0.0525605036         0.7151276993    1.0000        1
    2         0.1244235682         1.6928821845    1.0000        1
    3         0.1546172798         2.1036917857    1.0000        1
    4         0.1957243243         2.6629860114    0.0000        1
    5         0.2489800133         3.3875722646    0.0000        1
    6         0.2692702661         3.6636373868    0.0000        1
 

 Max and min values of charge density [e/bohr^3]:  0.8226E-02  0.2902E-06     
 
 Hartree potential time [sec]:       0.18
 
 
   Eigenvalue Energy             =           0.66320270 [Ry]
   Hartree Energy                =           5.81495556 [Ry]
   Integral_{Vxc*rho}            =          -2.16487238 [Ry]
   Exc = Integral{eps_xc*rho}    =          -1.67248798 [Ry]
   Electron-Ion energy           =          -9.46654223 [Ry]
   Ion-Ion Energy                =           2.43242566 [Ry]
 
   Total Energy =            -1.73078959 [Ry]
   Energy/atom  =            -4.70975541 [eV]
 
 
  0-  1    SRE of pot. & charge weighted pot =   5.8414463894    0.1144535648

 Number of converged eigen-pairs per representation: 
     10
   total =      10
 Number of matrix-vector multiplications: 
    323
   total =     323
 cumulated number of matrix-vector multiplications =         735
 
 Diagonalization time [sec] :       1.39,      tdiag_sum =        3.18
 
 Fermi level at     0.1934 [Ry]
 
   State   Eigenvalue [Ry]      Eigenvalue [eV]    Occup.     Repr.
 
    1         0.0713894947         0.9713111868    1.0000        1
    2         0.1490903700         2.0284937561    1.0000        1
    3         0.1800292701         2.4494422433    1.0000        1
    4         0.2068022130         2.8137095491    0.0000        1
    5         0.2674461149         3.6388183499    0.0000        1
    6         0.2908245122         3.9569001486    0.0000        1
 

 Max and min values of charge density [e/bohr^3]:  0.9070E-02  0.3023E-06     
 
 Hartree potential time [sec]:       0.18
 
 
   Eigenvalue Energy             =           0.80101827 [Ry]
   Hartree Energy                =           5.75708646 [Ry]
   Integral_{Vxc*rho}            =          -2.15015691 [Ry]
   Exc = Integral{eps_xc*rho}    =          -1.66113097 [Ry]
   Electron-Ion energy           =          -9.46464952 [Ry]
   Ion-Ion Energy                =           2.43242566 [Ry]
   (E(new)-E(old))/atom  =            -0.08485188 [eV]
 
   Total Energy =            -1.76197184 [Ry]
   Energy/atom  =            -4.79460729 [eV]
 
 
  0-  2    SRE of pot. & charge weighted pot =   3.0094073331    0.0560027920

 Number of converged eigen-pairs per representation: 
     10
   total =      10
 Number of matrix-vector multiplications: 
    302
   total =     302
 cumulated number of matrix-vector multiplications =        1037
 
 Diagonalization time [sec] :       1.22,      tdiag_sum =        4.40
 
 Fermi level at     0.2062 [Ry]
 
   State   Eigenvalue [Ry]      Eigenvalue [eV]    Occup.     Repr.
 
    1         0.0884289295         1.2031463290    1.0000        1
    2         0.1581486784         2.1517392885    1.0000        1
    3         0.1945589717         2.6471304570    1.0000        1
    4         0.2177760521         2.9630174103    0.0000        1
    5         0.2787451782         3.7925511452    0.0000        1
    6         0.3019789626         4.1086653696    0.0000        1
 

 Max and min values of charge density [e/bohr^3]:  0.8377E-02  0.3250E-06     
 
 Hartree potential time [sec]:       0.18
 
 
   Eigenvalue Energy             =           0.88227316 [Ry]
   Hartree Energy                =           5.69776440 [Ry]
   Integral_{Vxc*rho}            =          -2.13651587 [Ry]
   Exc = Integral{eps_xc*rho}    =          -1.65070792 [Ry]
   Electron-Ion energy           =          -9.41812615 [Ry]
   Ion-Ion Energy                =           2.43242566 [Ry]
   (E(new)-E(old))/atom  =            -0.01401117 [eV]
 
   Total Energy =            -1.76712081 [Ry]
   Energy/atom  =            -4.80861846 [eV]
 
 
  0-  3    SRE of pot. & charge weighted pot =   1.7835108526    0.0277266837

 Number of converged eigen-pairs per representation: 
     10
   total =      10
 Number of matrix-vector multiplications: 
    299
   total =     299
 cumulated number of matrix-vector multiplications =        1336
 
 Diagonalization time [sec] :       1.21,      tdiag_sum =        5.62
 
 Fermi level at     0.2189 [Ry]
 
   State   Eigenvalue [Ry]      Eigenvalue [eV]    Occup.     Repr.
 
    1         0.1031891258         1.4039706071    1.0000        1
    2         0.1734694769         2.3601910090    1.0000        1
    3         0.2111475695         2.8728316008    1.0000        1
    4         0.2267130174         3.0846119728    0.0000        1
    5         0.2923607302         3.9778016230    0.0000        1
    6         0.3162137223         4.3023406634    0.0000        1
 

 Max and min values of charge density [e/bohr^3]:  0.8238E-02  0.3941E-06     
 
 Hartree potential time [sec]:       0.19
 
 
   Eigenvalue Energy             =           0.97561235 [Ry]
   Hartree Energy                =           5.65478381 [Ry]
   Integral_{Vxc*rho}            =          -2.12554008 [Ry]
   Exc = Integral{eps_xc*rho}    =          -1.64232084 [Ry]
   Electron-Ion energy           =          -9.39251125 [Ry]
   Ion-Ion Energy                =           2.43242566 [Ry]
   (E(new)-E(old))/atom  =            -0.00436101 [eV]
 
   Total Energy =            -1.76872344 [Ry]
   Energy/atom  =            -4.81297947 [eV]
 
 
  0-  4    SRE of pot. & charge weighted pot =   0.5695420535    0.0077098298

 Number of converged eigen-pairs per representation: 
     10
   total =      10
 Number of matrix-vector multiplications: 
    259
   total =     259
 cumulated number of matrix-vector multiplications =        1595
 
 Diagonalization time [sec] :       1.04,      tdiag_sum =        6.65
 
 Fermi level at     0.2190 [Ry]
 
   State   Eigenvalue [Ry]      Eigenvalue [eV]    Occup.     Repr.
 
    1         0.1037581948         1.4117132472    1.0000        1
    2         0.1738445296         2.3652939006    1.0000        1
    3         0.2110876240         2.8720159946    1.0000        1
    4         0.2268685587         3.0867282358    0.0000        1
    5         0.2931020542         3.9878879295    0.0000        1
    6         0.3163521982         4.3042247381    0.0000        1
 

 Max and min values of charge density [e/bohr^3]:  0.8085E-02  0.3520E-06     
 
 Hartree potential time [sec]:       0.18
 
 
   Eigenvalue Energy             =           0.97738070 [Ry]
   Hartree Energy                =           5.65521903 [Ry]
   Integral_{Vxc*rho}            =          -2.12366372 [Ry]
   Exc = Integral{eps_xc*rho}    =          -1.64087779 [Ry]
   Electron-Ion energy           =          -9.38826152 [Ry]
   Ion-Ion Energy                =           2.43242566 [Ry]
   (E(new)-E(old))/atom  =             0.00006729 [eV]
 
   Total Energy =            -1.76869871 [Ry]
   Energy/atom  =            -4.81291217 [eV]
 
 
  0-  5    SRE of pot. & charge weighted pot =   0.3916862688    0.0073294771

 Number of converged eigen-pairs per representation: 
     10
   total =      10
 Number of matrix-vector multiplications: 
    221
   total =     221
 cumulated number of matrix-vector multiplications =        1816
 
 Diagonalization time [sec] :       0.87,      tdiag_sum =        7.52
 
 Fermi level at     0.2188 [Ry]
 
   State   Eigenvalue [Ry]      Eigenvalue [eV]    Occup.     Repr.
 
    1         0.1033519610         1.4061861109    1.0000        1
    2         0.1743673944         2.3724078951    1.0000        1
    3         0.2112289639         2.8739390375    1.0000        1
    4         0.2264703926         3.0813108676    0.0000        1
    5         0.2933277781         3.9909590838    0.0000        1
    6         0.3166528530         4.3083153872    0.0000        1
 

 Max and min values of charge density [e/bohr^3]:  0.8107E-02  0.3636E-06     
 
 Hartree potential time [sec]:       0.19
 
 
   Eigenvalue Energy             =           0.97789665 [Ry]
   Hartree Energy                =           5.65742750 [Ry]
   Integral_{Vxc*rho}            =          -2.12371137 [Ry]
   Exc = Integral{eps_xc*rho}    =          -1.64092218 [Ry]
   Electron-Ion energy           =          -9.39156317 [Ry]
   Ion-Ion Energy                =           2.43242566 [Ry]
   (E(new)-E(old))/atom  =            -0.00110071 [eV]
 
   Total Energy =            -1.76910321 [Ry]
   Energy/atom  =            -4.81401289 [eV]
 
 
  0-  6    SRE of pot. & charge weighted pot =   0.0945956395    0.0017764942

 Number of converged eigen-pairs per representation: 
     10
   total =      10
 Number of matrix-vector multiplications: 
    182
   total =     182
 cumulated number of matrix-vector multiplications =        1998
 
 Diagonalization time [sec] :       0.65,      tdiag_sum =        8.17
 
 Fermi level at     0.2187 [Ry]
 
   State   Eigenvalue [Ry]      Eigenvalue [eV]    Occup.     Repr.
 
    1         0.1029653295         1.4009256804    1.0000        1
    2         0.1739722206         2.3670312392    1.0000        1
    3         0.2109949118         2.8707545709    1.0000        1
    4         0.2263074590         3.0790940259    0.0000        1
    5         0.2929870875         3.9863237154    0.0000        1
    6         0.3163652781         4.3044027008    0.0000        1
 

 Max and min values of charge density [e/bohr^3]:  0.8128E-02  0.3671E-06     
 
 Hartree potential time [sec]:       0.18
 
 
   Eigenvalue Energy             =           0.97586493 [Ry]
   Hartree Energy                =           5.65858953 [Ry]
   Integral_{Vxc*rho}            =          -2.12422122 [Ry]
   Exc = Integral{eps_xc*rho}    =          -1.64132495 [Ry]
   Electron-Ion energy           =          -9.39298070 [Ry]
   Ion-Ion Energy                =           2.43242566 [Ry]
   (E(new)-E(old))/atom  =            -0.00008340 [eV]
 
   Total Energy =            -1.76913386 [Ry]
   Energy/atom  =            -4.81409628 [eV]
 
 
  0-  7    SRE of pot. & charge weighted pot =   0.0372050032    0.0006102626

 Number of converged eigen-pairs per representation: 
     10
   total =      10
 Number of matrix-vector multiplications: 
    162
   total =     162
 cumulated number of matrix-vector multiplications =        2160
 
 Diagonalization time [sec] :       0.53,      tdiag_sum =        8.70
 
 Fermi level at     0.2185 [Ry]
 
   State   Eigenvalue [Ry]      Eigenvalue [eV]    Occup.     Repr.
 
    1         0.1028078402         1.3987829120    1.0000        1
    2         0.1737290176         2.3637222671    1.0000        1
    3         0.2108256952         2.8684522432    1.0000        1
    4         0.2262737588         3.0786355078    0.0000        1
    5         0.2927780855         3.9834800759    0.0000        1
    6         0.3161484136         4.3014520859    0.0000        1
 

 Max and min values of charge density [e/bohr^3]:  0.8139E-02  0.3655E-06     
 
 Hartree potential time [sec]:       0.18
 
 
   Eigenvalue Energy             =           0.97472511 [Ry]
   Hartree Energy                =           5.65876364 [Ry]
   Integral_{Vxc*rho}            =          -2.12439948 [Ry]
   Exc = Integral{eps_xc*rho}    =          -1.64146820 [Ry]
   Electron-Ion energy           =          -9.39304603 [Ry]
   Ion-Ion Energy                =           2.43242566 [Ry]
   (E(new)-E(old))/atom  =            -0.00000184 [eV]
 
   Total Energy =            -1.76913453 [Ry]
   Energy/atom  =            -4.81409812 [eV]
 
 
  0-  8    SRE of pot. & charge weighted pot =   0.0170164594    0.0002471342

 Number of converged eigen-pairs per representation: 
     10
   total =      10
 Number of matrix-vector multiplications: 
    150
   total =     150
 cumulated number of matrix-vector multiplications =        2310
 
 Diagonalization time [sec] :       0.46,      tdiag_sum =        9.16
 
 Fermi level at     0.2185 [Ry]
 
   State   Eigenvalue [Ry]      Eigenvalue [eV]    Occup.     Repr.
 
    1         0.1027327408         1.3977611245    1.0000        1
    2         0.1736128349         2.3621415090    1.0000        1
    3         0.2107190762         2.8670016073    1.0000        1
    4         0.2262589185         3.0784335933    0.0000        1
    5         0.2926736410         3.9820590241    0.0000        1
    6         0.3160299517         4.2998403169    0.0000        1
 

 Max and min values of charge density [e/bohr^3]:  0.8144E-02  0.3642E-06     
 
 Hartree potential time [sec]:       0.18
 
 
   Eigenvalue Energy             =           0.97412931 [Ry]
   Hartree Energy                =           5.65877976 [Ry]
   Integral_{Vxc*rho}            =          -2.12447412 [Ry]
   Exc = Integral{eps_xc*rho}    =          -1.64152954 [Ry]
   Electron-Ion energy           =          -9.39301714 [Ry]
   Ion-Ion Energy                =           2.43242566 [Ry]
   (E(new)-E(old))/atom  =             0.00000069 [eV]
 
   Total Energy =            -1.76913428 [Ry]
   Energy/atom  =            -4.81409744 [eV]
 
 
  0-  9    SRE of pot. & charge weighted pot =   0.0068131096    0.0000954849

 No Spin Orbit Correction
 
Time for self-consistent field [sec] :      10.90,    tdiag_sum =        9.16
 
 Total charge (user input) [e] =  -1.00000000
 Total charge (computed) [e] =  -1.00000000
 Dipole components [Debye]:
 x-component =  -1.37260527
 y-component =   0.85492227
 z-component =   0.31123032
 Number of converged eigen-pairs per representation: 
     10
   total =      10
 Number of matrix-vector multiplications: 
     15
   total =      15
 cumulated number of matrix-vector multiplications =        2325
 
 Diagonalization time [sec] :       0.03,      tdiag_sum =        9.18
 
 Fermi level at     0.2185 [Ry]
 
   State   Eigenvalue [Ry]      Eigenvalue [eV]    Occup.     Repr.
 
    1         0.1027327408         1.3977611245    1.0000        1
    2         0.1736128349         2.3621415090    1.0000        1
    3         0.2107190762         2.8670016073    1.0000        1
    4         0.2262589185         3.0784335933    0.0000        1
    5         0.2926736410         3.9820590241    0.0000        1
    6         0.3160299517         4.2998403169    0.0000        1
 

 Max and min values of charge density [e/bohr^3]:  0.8144E-02  0.3642E-06     
 
 Hartree potential time [sec]:       0.17
 
 
   Eigenvalue Energy             =           0.97412931 [Ry]
   Hartree Energy                =           5.65877976 [Ry]
   Integral_{Vxc*rho}            =          -2.12447412 [Ry]
   Exc = Integral{eps_xc*rho}    =          -1.64152954 [Ry]
   Electron-Ion energy           =          -9.38666545 [Ry]
   Ion-Ion Energy                =           2.43242566 [Ry]
   (E(new)-E(old))/atom  =             0.01728397 [eV]
 
   Total Energy =            -1.76278259 [Ry]
   Energy/atom  =            -4.79681347 [eV]
 
 
  0-  1    SRE of pot. & charge weighted pot =   0.5863619032    0.0076597720

 Number of converged eigen-pairs per representation: 
     10
   total =      10
 Number of matrix-vector multiplications: 
    234
   total =     234
 cumulated number of matrix-vector multiplications =        2559
 
 Diagonalization time [sec] :       0.90,      tdiag_sum =       10.09
 
 Fermi level at     0.2191 [Ry]
 
   State   Eigenvalue [Ry]      Eigenvalue [eV]    Occup.     Repr.
 
    1         0.1037820066         1.4120372254    1.0000        1
    2         0.1730408956         2.3543598169    1.0000        1
    3         0.2111486844         2.8728467698    1.0000        1
    4         0.2270568421         3.0892899827    0.0000        1
    5         0.2928844624         3.9849274184    0.0000        1
    6         0.3161640175         4.3016643899    0.0000        1
 

 Max and min values of charge density [e/bohr^3]:  0.8022E-02  0.3701E-06     
 
 Hartree potential time [sec]:       0.18
 
 
   Eigenvalue Energy             =           0.97594318 [Ry]
   Hartree Energy                =           5.65431436 [Ry]
   Integral_{Vxc*rho}            =          -2.12342305 [Ry]
   Exc = Integral{eps_xc*rho}    =          -1.64072730 [Ry]
   Electron-Ion energy           =          -9.38121381 [Ry]
   Ion-Ion Energy                =           2.43242566 [Ry]
   (E(new)-E(old))/atom  =            -0.00076984 [eV]
 
   Total Energy =            -1.76306550 [Ry]
   Energy/atom  =            -4.79758331 [eV]
 
 
  0-  2    SRE of pot. & charge weighted pot =   0.2060408844    0.0039316516

 Number of converged eigen-pairs per representation: 
     10
   total =      10
 Number of matrix-vector multiplications: 
    193
   total =     193
 cumulated number of matrix-vector multiplications =        2752
 
 Diagonalization time [sec] :       0.74,      tdiag_sum =       10.83
 
 Fermi level at     0.2190 [Ry]
 
   State   Eigenvalue [Ry]      Eigenvalue [eV]    Occup.     Repr.
 
    1         0.1033793470         1.4065587200    1.0000        1
    2         0.1734634030         2.3601083685    1.0000        1
    3         0.2111399806         2.8727283477    1.0000        1
    4         0.2268212461         3.0860845105    0.0000        1
    5         0.2929180218         3.9853840214    0.0000        1
    6         0.3163069071         4.3036085165    0.0000        1
 

 Max and min values of charge density [e/bohr^3]:  0.8092E-02  0.3815E-06     
 
 Hartree potential time [sec]:       0.18
 
 
   Eigenvalue Energy             =           0.97596547 [Ry]
   Hartree Energy                =           5.65634309 [Ry]
   Integral_{Vxc*rho}            =          -2.12383006 [Ry]
   Exc = Integral{eps_xc*rho}    =          -1.64104203 [Ry]
   Electron-Ion energy           =          -9.38401209 [Ry]
   Ion-Ion Energy                =           2.43242566 [Ry]
   (E(new)-E(old))/atom  =            -0.00018951 [eV]
 
   Total Energy =            -1.76313514 [Ry]
   Energy/atom  =            -4.79777281 [eV]
 
 
  0-  3    SRE of pot. & charge weighted pot =   0.1896294242    0.0021498043

 Number of converged eigen-pairs per representation: 
     10
   total =      10
 Number of matrix-vector multiplications: 
    190
   total =     190
 cumulated number of matrix-vector multiplications =        2942
 
 Diagonalization time [sec] :       0.72,      tdiag_sum =       11.55
 
 Fermi level at     0.2191 [Ry]
 
   State   Eigenvalue [Ry]      Eigenvalue [eV]    Occup.     Repr.
 
    1         0.1035836355         1.4093382285    1.0000        1
    2         0.1734925765         2.3605052974    1.0000        1
    3         0.2112370032         2.8740484180    1.0000        1
    4         0.2270490015         3.0891833046    0.0000        1
    5         0.2930227037         3.9868083019    0.0000        1
    6         0.3163724438         4.3045001956    0.0000        1
 

 Max and min values of charge density [e/bohr^3]:  0.8092E-02  0.3820E-06     
 
 Hartree potential time [sec]:       0.18
 
 
   Eigenvalue Energy             =           0.97662644 [Ry]
   Hartree Energy                =           5.65592701 [Ry]
   Integral_{Vxc*rho}            =          -2.12370871 [Ry]
   Exc = Integral{eps_xc*rho}    =          -1.64095079 [Ry]
   Electron-Ion energy           =          -9.38323455 [Ry]
   Ion-Ion Energy                =           2.43242566 [Ry]
   (E(new)-E(old))/atom  =            -0.00007048 [eV]
 
   Total Energy =            -1.76316104 [Ry]
   Energy/atom  =            -4.79784330 [eV]
 
 
  0-  4    SRE of pot. & charge weighted pot =   0.0814456950    0.0007949373

 Number of converged eigen-pairs per representation: 
     10
   total =      10
 Number of matrix-vector multiplications: 
    193
   total =     193
 cumulated number of matrix-vector multiplications =        3135
 
 Diagonalization time [sec] :       0.73,      tdiag_sum =       12.28
 
 Fermi level at     0.2193 [Ry]
 
   State   Eigenvalue [Ry]      Eigenvalue [eV]    Occup.     Repr.
 
    1         0.1036660468         1.4104594993    1.0000        1
    2         0.1736538478         2.3626995226    1.0000        1
    3         0.2113597034         2.8757178524    1.0000        1
    4         0.2271735153         3.0908774149    0.0000        1
    5         0.2931235857         3.9881808817    0.0000        1
    6         0.3164917600         4.3061235876    0.0000        1
 

 Max and min values of charge density [e/bohr^3]:  0.8114E-02  0.3874E-06     
 
 Hartree potential time [sec]:       0.18
 
 
   Eigenvalue Energy             =           0.97735920 [Ry]
   Hartree Energy                =           5.65582691 [Ry]
   Integral_{Vxc*rho}            =          -2.12364803 [Ry]
   Exc = Integral{eps_xc*rho}    =          -1.64090678 [Ry]
   Electron-Ion energy           =          -9.38311634 [Ry]
   Ion-Ion Energy                =           2.43242566 [Ry]
   (E(new)-E(old))/atom  =            -0.00000512 [eV]
 
   Total Energy =            -1.76316292 [Ry]
   Energy/atom  =            -4.79784841 [eV]
 
 
  0-  5    SRE of pot. & charge weighted pot =   0.0189672968    0.0002996511

 Number of converged eigen-pairs per representation: 
     10
   total =      10
 Number of matrix-vector multiplications: 
    144
   total =     144
 cumulated number of matrix-vector multiplications =        3279
 
 Diagonalization time [sec] :       0.42,      tdiag_sum =       12.70
 
 Fermi level at     0.2193 [Ry]
 
   State   Eigenvalue [Ry]      Eigenvalue [eV]    Occup.     Repr.
 
    1         0.1036871886         1.4107471509    1.0000        1
    2         0.1736612811         2.3628006590    1.0000        1
    3         0.2113789591         2.8759798414    1.0000        1
    4         0.2271824372         3.0909988043    0.0000        1
    5         0.2931312316         3.9882849105    0.0000        1
    6         0.3165044068         4.3062956574    0.0000        1
 

 Max and min values of charge density [e/bohr^3]:  0.8116E-02  0.3879E-06     
 
 Hartree potential time [sec]:       0.18
 
 
   Eigenvalue Energy             =           0.97745486 [Ry]
   Hartree Energy                =           5.65570267 [Ry]
   Integral_{Vxc*rho}            =          -2.12362325 [Ry]
   Exc = Integral{eps_xc*rho}    =          -1.64088828 [Ry]
   Electron-Ion energy           =          -9.38303771 [Ry]
   Ion-Ion Energy                =           2.43242566 [Ry]
   (E(new)-E(old))/atom  =            -0.00000105 [eV]
 
   Total Energy =            -1.76316331 [Ry]
   Energy/atom  =            -4.79784946 [eV]
 
 
  0-  6    SRE of pot. & charge weighted pot =   0.0106318110    0.0001660005

 No Spin Orbit Correction
 
Time for self-consistent field [sec] :       4.66,    tdiag_sum =       12.70
 
 Total charge (user input) [e] =  -1.00000000
 Total charge (computed) [e] =  -1.00000000
 Dipole components [Debye]:
 x-component =  -0.33865268
 y-component =   0.90038351
 z-component =   0.22829449
 Number of converged eigen-pairs per representation: 
     10
   total =      10
 Number of matrix-vector multiplications: 
     15
   total =      15
 cumulated number of matrix-vector multiplications =        3294
 
 Diagonalization time [sec] :       0.03,      tdiag_sum =       12.73
 
 Fermi level at     0.2193 [Ry]
 
   State   Eigenvalue [Ry]      Eigenvalue [eV]    Occup.     Repr.
 
    1         0.1036871886         1.4107471509    1.0000        1
    2         0.1736612811         2.3628006590    1.0000        1
    3         0.2113789591         2.8759798414    1.0000        1
    4         0.2271824372         3.0909988043    0.0000        1
    5         0.2931312316         3.9882849105    0.0000        1
    6         0.3165044068         4.3062956574    0.0000        1
 

 Max and min values of charge density [e/bohr^3]:  0.8116E-02  0.3879E-06     
 
 Hartree potential time [sec]:       0.18
 
 
   Eigenvalue Energy             =           0.97745486 [Ry]
   Hartree Energy                =           5.65570267 [Ry]
   Integral_{Vxc*rho}            =          -2.12362325 [Ry]
   Exc = Integral{eps_xc*rho}    =          -1.64088828 [Ry]
   Electron-Ion energy           =          -9.39411282 [Ry]
   Ion-Ion Energy                =           2.43242566 [Ry]
   (E(new)-E(old))/atom  =            -0.03013715 [eV]
 
   Total Energy =            -1.77423842 [Ry]
   Energy/atom  =            -4.82798661 [eV]
 
 
  0-  1    SRE of pot. & charge weighted pot =   1.1699952449    0.0152432656

 Number of converged eigen-pairs per representation: 
     10
   total =      10
 Number of matrix-vector multiplications: 
    262
   total =     262
 cumulated number of matrix-vector multiplications =        3556
 
 Diagonalization time [sec] :       1.04,      tdiag_sum =       13.77
 
 Fermi level at     0.2180 [Ry]
 
   State   Eigenvalue [Ry]      Eigenvalue [eV]    Occup.     Repr.
 
    1         0.1014778905         1.3806878819    1.0000        1
    2         0.1748432831         2.3788827413    1.0000        1
    3         0.2104643130         2.8635353501    1.0000        1
    4         0.2256025861         3.0695036664    0.0000        1
    5         0.2927417246         3.9829853563    0.0000        1
    6         0.3162378543         4.3026689982    0.0000        1
 

 Max and min values of charge density [e/bohr^3]:  0.8358E-02  0.3818E-06     
 
 Hartree potential time [sec]:       0.18
 
 
   Eigenvalue Energy             =           0.97357098 [Ry]
   Hartree Energy                =           5.66626308 [Ry]
   Integral_{Vxc*rho}            =          -2.12618420 [Ry]
   Exc = Integral{eps_xc*rho}    =          -1.64284880 [Ry]
   Electron-Ion energy           =          -9.40851303 [Ry]
   Ion-Ion Energy                =           2.43242566 [Ry]
   (E(new)-E(old))/atom  =            -0.00350154 [eV]
 
   Total Energy =            -1.77552520 [Ry]
   Energy/atom  =            -4.83148815 [eV]
 
 
  0-  2    SRE of pot. & charge weighted pot =   0.4118746800    0.0078641050

 Number of converged eigen-pairs per representation: 
     10
   total =      10
 Number of matrix-vector multiplications: 
    231
   total =     231
 cumulated number of matrix-vector multiplications =        3787
 
 Diagonalization time [sec] :       0.89,      tdiag_sum =       14.66
 
 Fermi level at     0.2183 [Ry]
 
   State   Eigenvalue [Ry]      Eigenvalue [eV]    Occup.     Repr.
 
    1         0.1024163800         1.3934567829    1.0000        1
    2         0.1739837492         2.3671880948    1.0000        1
    3         0.2105256838         2.8643703482    1.0000        1
    4         0.2260819856         3.0760262792    0.0000        1
    5         0.2926924513         3.9823149541    0.0000        1
    6         0.3159599540         4.2988879427    0.0000        1
 

 Max and min values of charge density [e/bohr^3]:  0.8213E-02  0.3530E-06     
 
 Hartree potential time [sec]:       0.18
 
 
   Eigenvalue Energy             =           0.97385163 [Ry]
   Hartree Energy                =           5.66082058 [Ry]
   Integral_{Vxc*rho}            =          -2.12495249 [Ry]
   Exc = Integral{eps_xc*rho}    =          -1.64189800 [Ry]
   Electron-Ion energy           =          -9.40171234 [Ry]
   Ion-Ion Energy                =           2.43242566 [Ry]
   (E(new)-E(old))/atom  =            -0.00053263 [eV]
 
   Total Energy =            -1.77572094 [Ry]
   Energy/atom  =            -4.83202078 [eV]
 
 
  0-  3    SRE of pot. & charge weighted pot =   0.3801252889    0.0043594863

 Number of converged eigen-pairs per representation: 
     10
   total =      10
 Number of matrix-vector multiplications: 
    218
   total =     218
 cumulated number of matrix-vector multiplications =        4005
 
 Diagonalization time [sec] :       0.83,      tdiag_sum =       15.49
 
 Fermi level at     0.2180 [Ry]
 
   State   Eigenvalue [Ry]      Eigenvalue [eV]    Occup.     Repr.
 
    1         0.1020033661         1.3878373986    1.0000        1
    2         0.1739273049         2.3664201251    1.0000        1
    3         0.2103194383         2.8615642133    1.0000        1
    4         0.2256021817         3.0694981637    0.0000        1
    5         0.2924781730         3.9793995265    0.0000        1
    6         0.3158252654         4.2970553958    0.0000        1
 

 Max and min values of charge density [e/bohr^3]:  0.8211E-02  0.3535E-06     
 
 Hartree potential time [sec]:       0.18
 
 
   Eigenvalue Energy             =           0.97250023 [Ry]
   Hartree Energy                =           5.66158659 [Ry]
   Integral_{Vxc*rho}            =          -2.12519404 [Ry]
   Exc = Integral{eps_xc*rho}    =          -1.64207977 [Ry]
   Electron-Ion energy           =          -9.40360263 [Ry]
   Ion-Ion Energy                =           2.43242566 [Ry]
   (E(new)-E(old))/atom  =            -0.00045338 [eV]
 
   Total Energy =            -1.77588755 [Ry]
   Energy/atom  =            -4.83247416 [eV]
 
 
  0-  4    SRE of pot. & charge weighted pot =   0.1651168304    0.0015901267

 Number of converged eigen-pairs per representation: 
     10
   total =      10
 Number of matrix-vector multiplications: 
    216
   total =     216
 cumulated number of matrix-vector multiplications =        4221
 
 Diagonalization time [sec] :       0.83,      tdiag_sum =       16.32
 
 Fermi level at     0.2177 [Ry]
 
   State   Eigenvalue [Ry]      Eigenvalue [eV]    Occup.     Repr.
 
    1         0.1018088564         1.3851909382    1.0000        1
    2         0.1735508406         2.3612980274    1.0000        1
    3         0.2100254474         2.8575642327    1.0000        1
    4         0.2252771422         3.0650757416    0.0000        1
    5         0.2922298923         3.9760214692    0.0000        1
    6         0.3155391175         4.2931621250    0.0000        1
 

 Max and min values of charge density [e/bohr^3]:  0.8165E-02  0.3438E-06     
 
 Hartree potential time [sec]:       0.17
 
 
   Eigenvalue Energy             =           0.97077030 [Ry]
   Hartree Energy                =           5.66154736 [Ry]
   Integral_{Vxc*rho}            =          -2.12527324 [Ry]
   Exc = Integral{eps_xc*rho}    =          -1.64213577 [Ry]
   Electron-Ion energy           =          -9.40377336 [Ry]
   Ion-Ion Energy                =           2.43242566 [Ry]
   (E(new)-E(old))/atom  =            -0.00008061 [eV]
 
   Total Energy =            -1.77591717 [Ry]
   Energy/atom  =            -4.83255477 [eV]
 
 
  0-  5    SRE of pot. & charge weighted pot =   0.0374534453    0.0006014563

 Number of converged eigen-pairs per representation: 
     10
   total =      10
 Number of matrix-vector multiplications: 
    166
   total =     166
 cumulated number of matrix-vector multiplications =        4387
 
 Diagonalization time [sec] :       0.54,      tdiag_sum =       16.86
 
 Fermi level at     0.2176 [Ry]
 
   State   Eigenvalue [Ry]      Eigenvalue [eV]    Occup.     Repr.
 
    1         0.1017253514         1.3840547854    1.0000        1
    2         0.1735040382         2.3606612425    1.0000        1
    3         0.2099514410         2.8565573165    1.0000        1
    4         0.2252248377         3.0643640972    0.0000        1
    5         0.2921879212         3.9754504184    0.0000        1
    6         0.3154810447         4.2923719977    0.0000        1
 

 Max and min values of charge density [e/bohr^3]:  0.8163E-02  0.3422E-06     
 
 Hartree potential time [sec]:       0.18
 
 
   Eigenvalue Energy             =           0.97036167 [Ry]
   Hartree Energy                =           5.66191526 [Ry]
   Integral_{Vxc*rho}            =          -2.12533461 [Ry]
   Exc = Integral{eps_xc*rho}    =          -1.64218121 [Ry]
   Electron-Ion energy           =          -9.40398894 [Ry]
   Ion-Ion Energy                =           2.43242566 [Ry]
   (E(new)-E(old))/atom  =            -0.00000061 [eV]
 
   Total Energy =            -1.77591740 [Ry]
   Energy/atom  =            -4.83255538 [eV]
 
 
  0-  6    SRE of pot. & charge weighted pot =   0.0211960683    0.0003401382

 Number of converged eigen-pairs per representation: 
     10
   total =      10
 Number of matrix-vector multiplications: 
    159
   total =     159
 cumulated number of matrix-vector multiplications =        4546
 
 Diagonalization time [sec] :       0.50,      tdiag_sum =       17.36
 
 Fermi level at     0.2176 [Ry]
 
   State   Eigenvalue [Ry]      Eigenvalue [eV]    Occup.     Repr.
 
    1         0.1016742147         1.3833590298    1.0000        1
    2         0.1735274367         2.3609795989    1.0000        1
    3         0.2099397726         2.8563985585    1.0000        1
    4         0.2252083387         3.0641396149    0.0000        1
    5         0.2921884316         3.9754573630    0.0000        1
    6         0.3154795486         4.2923516418    0.0000        1
 

 Max and min values of charge density [e/bohr^3]:  0.8167E-02  0.3419E-06     
 
 Hartree potential time [sec]:       0.18
 
 
   Eigenvalue Energy             =           0.97028286 [Ry]
   Hartree Energy                =           5.66222051 [Ry]
   Integral_{Vxc*rho}            =          -2.12540319 [Ry]
   Exc = Integral{eps_xc*rho}    =          -1.64223269 [Ry]
   Electron-Ion energy           =          -9.40429016 [Ry]
   Ion-Ion Energy                =           2.43242566 [Ry]
   (E(new)-E(old))/atom  =            -0.00000216 [eV]
 
   Total Energy =            -1.77591819 [Ry]
   Energy/atom  =            -4.83255754 [eV]
 
 
  0-  7    SRE of pot. & charge weighted pot =   0.0066240126    0.0001127924

 No Spin Orbit Correction
 
Time for self-consistent field [sec] :       5.96,    tdiag_sum =       17.36
 
 Total charge (user input) [e] =  -1.00000000
 Total charge (computed) [e] =  -1.00000000
 Dipole components [Debye]:
 x-component =  -2.40559183
 y-component =   0.80736666
 z-component =   0.39874131
 Number of converged eigen-pairs per representation: 
     10
   total =      10
 Number of matrix-vector multiplications: 
     15
   total =      15
 cumulated number of matrix-vector multiplications =        4561
 
 Diagonalization time [sec] :       0.03,      tdiag_sum =       17.39
 
 Fermi level at     0.2176 [Ry]
 
   State   Eigenvalue [Ry]      Eigenvalue [eV]    Occup.     Repr.
 
    1         0.1016742147         1.3833590298    1.0000        1
    2         0.1735274367         2.3609795989    1.0000        1
    3         0.2099397726         2.8563985585    1.0000        1
    4         0.2252083387         3.0641396149    0.0000        1
    5         0.2921884316         3.9754573630    0.0000        1
    6         0.3154795486         4.2923516418    0.0000        1
 

 Max and min values of charge density [e/bohr^3]:  0.8167E-02  0.3419E-06     
 
 Hartree potential time [sec]:       0.18
 
 
   Eigenvalue Energy             =           0.97028286 [Ry]
   Hartree Energy                =           5.66222051 [Ry]
   Integral_{Vxc*rho}            =          -2.12540319 [Ry]
   Exc = Integral{eps_xc*rho}    =          -1.64223269 [Ry]
   Electron-Ion energy           =          -9.39305958 [Ry]
   Ion-Ion Energy                =           2.43242566 [Ry]
   (E(new)-E(old))/atom  =             0.03056023 [eV]
 
   Total Energy =            -1.76468760 [Ry]
   Energy/atom  =            -4.80199731 [eV]
 
 
  0-  1    SRE of pot. & charge weighted pot =   0.8294672231    0.0111623451

 Number of converged eigen-pairs per representation: 
     10
   total =      10
 Number of matrix-vector multiplications: 
    236
   total =     236
 cumulated number of matrix-vector multiplications =        4797
 
 Diagonalization time [sec] :       0.92,      tdiag_sum =       18.31
 
 Fermi level at     0.2186 [Ry]
 
   State   Eigenvalue [Ry]      Eigenvalue [eV]    Occup.     Repr.
 
    1         0.1034892607         1.4080541836    1.0000        1
    2         0.1727514534         2.3504217244    1.0000        1
    3         0.2104816040         2.8637706077    1.0000        1
    4         0.2266815414         3.0841837166    0.0000        1
    5         0.2926095827         3.9811874603    0.0000        1
    6         0.3156449331         4.2946018306    0.0000        1
 

 Max and min values of charge density [e/bohr^3]:  0.7984E-02  0.3481E-06     
 
 Hartree potential time [sec]:       0.18
 
 
   Eigenvalue Energy             =           0.97344464 [Ry]
   Hartree Energy                =           5.65467776 [Ry]
   Integral_{Vxc*rho}            =          -2.12382077 [Ry]
   Exc = Integral{eps_xc*rho}    =          -1.64103013 [Ry]
   Electron-Ion energy           =          -9.38335286 [Ry]
   Ion-Ion Energy                =           2.43242566 [Ry]
   (E(new)-E(old))/atom  =            -0.00135636 [eV]
 
   Total Energy =            -1.76518605 [Ry]
   Energy/atom  =            -4.80335368 [eV]
 
 
  0-  2    SRE of pot. & charge weighted pot =   0.3178474540    0.0073320469

 Number of converged eigen-pairs per representation: 
     10
   total =      10
 Number of matrix-vector multiplications: 
    224
   total =     224
 cumulated number of matrix-vector multiplications =        5021
 
 Diagonalization time [sec] :       0.86,      tdiag_sum =       19.17
 
 Fermi level at     0.2184 [Ry]
 
   State   Eigenvalue [Ry]      Eigenvalue [eV]    Occup.     Repr.
 
    1         0.1028081124         1.3987866155    1.0000        1
    2         0.1734413409         2.3598081958    1.0000        1
    3         0.2105327114         2.8644659645    1.0000        1
    4         0.2262595045         3.0784415665    0.0000        1
    5         0.2926694761         3.9820023573    0.0000        1
    6         0.3158875772         4.2979031972    0.0000        1
 

 Max and min values of charge density [e/bohr^3]:  0.8095E-02  0.3625E-06     
 
 Hartree potential time [sec]:       0.18
 
 
   Eigenvalue Energy             =           0.97356434 [Ry]
   Hartree Energy                =           5.65787945 [Ry]
   Integral_{Vxc*rho}            =          -2.12440993 [Ry]
   Exc = Integral{eps_xc*rho}    =          -1.64148351 [Ry]
   Electron-Ion energy           =          -9.38805334 [Ry]
   Ion-Ion Energy                =           2.43242566 [Ry]
   (E(new)-E(old))/atom  =            -0.00070289 [eV]
 
   Total Energy =            -1.76544436 [Ry]
   Energy/atom  =            -4.80405657 [eV]
 
 
  0-  3    SRE of pot. & charge weighted pot =   0.2775069297    0.0028729154

 Number of converged eigen-pairs per representation: 
     10
   total =      10
 Number of matrix-vector multiplications: 
    212
   total =     212
 cumulated number of matrix-vector multiplications =        5233
 
 Diagonalization time [sec] :       0.80,      tdiag_sum =       19.97
 
 Fermi level at     0.2188 [Ry]
 
   State   Eigenvalue [Ry]      Eigenvalue [eV]    Occup.     Repr.
 
    1         0.1031467450         1.4033939834    1.0000        1
    2         0.1736501357         2.3626490166    1.0000        1
    3         0.2108191248         2.8683628475    1.0000        1
    4         0.2267122822         3.0846019698    0.0000        1
    5         0.2929484969         3.9857986595    0.0000        1
    6         0.3160944970         4.3007185075    0.0000        1
 

 Max and min values of charge density [e/bohr^3]:  0.8113E-02  0.3634E-06     
 
 Hartree potential time [sec]:       0.17
 
 
   Eigenvalue Energy             =           0.97523202 [Ry]
   Hartree Energy                =           5.65765909 [Ry]
   Integral_{Vxc*rho}            =          -2.12426748 [Ry]
   Exc = Integral{eps_xc*rho}    =          -1.64137954 [Ry]
   Electron-Ion energy           =          -9.38718321 [Ry]
   Ion-Ion Energy                =           2.43242566 [Ry]
   (E(new)-E(old))/atom  =            -0.00016174 [eV]
 
   Total Energy =            -1.76550379 [Ry]
   Energy/atom  =            -4.80421830 [eV]
 
 
  0-  4    SRE of pot. & charge weighted pot =   0.0828442790    0.0009164327

 Number of converged eigen-pairs per representation: 
     10
   total =      10
 Number of matrix-vector multiplications: 
    190
   total =     190
 cumulated number of matrix-vector multiplications =        5423
 
 Diagonalization time [sec] :       0.70,      tdiag_sum =       20.67
 
 Fermi level at     0.2189 [Ry]
 
   State   Eigenvalue [Ry]      Eigenvalue [eV]    Occup.     Repr.
 
    1         0.1032771276         1.4051679432    1.0000        1
    2         0.1738554057         2.3654418793    1.0000        1
    3         0.2110052752         2.8708955737    1.0000        1
    4         0.2268822858         3.0869150043    0.0000        1
    5         0.2930874625         3.9876893972    0.0000        1
    6         0.3162418261         4.3027230376    0.0000        1
 

 Max and min values of charge density [e/bohr^3]:  0.8136E-02  0.3683E-06     
 
 Hartree potential time [sec]:       0.17
 
 
   Eigenvalue Energy             =           0.97627562 [Ry]
   Hartree Energy                =           5.65729545 [Ry]
   Integral_{Vxc*rho}            =          -2.12414139 [Ry]
   Exc = Integral{eps_xc*rho}    =          -1.64128572 [Ry]
   Electron-Ion energy           =          -9.38676663 [Ry]
   Ion-Ion Energy                =           2.43242566 [Ry]
   (E(new)-E(old))/atom  =            -0.00000846 [eV]
 
   Total Energy =            -1.76550690 [Ry]
   Energy/atom  =            -4.80422676 [eV]
 
 
  0-  5    SRE of pot. & charge weighted pot =   0.0251590477    0.0004128174

 Number of converged eigen-pairs per representation: 
     10
   total =      10
 Number of matrix-vector multiplications: 
    149
   total =     149
 cumulated number of matrix-vector multiplications =        5572
 
 Diagonalization time [sec] :       0.44,      tdiag_sum =       21.11
 
 Fermi level at     0.2190 [Ry]
 
   State   Eigenvalue [Ry]      Eigenvalue [eV]    Occup.     Repr.
 
    1         0.1033080862         1.4055891595    1.0000        1
    2         0.1738714832         2.3656606259    1.0000        1
    3         0.2110351050         2.8713014318    1.0000        1
    4         0.2268948314         3.0870856966    0.0000        1
    5         0.2931000533         3.9878607053    0.0000        1
    6         0.3162586002         4.3029512631    0.0000        1
 

 Max and min values of charge density [e/bohr^3]:  0.8138E-02  0.3688E-06     
 
 Hartree potential time [sec]:       0.18
 
 
   Eigenvalue Energy             =           0.97642935 [Ry]
   Hartree Energy                =           5.65712166 [Ry]
   Integral_{Vxc*rho}            =          -2.12409986 [Ry]
   Exc = Integral{eps_xc*rho}    =          -1.64125448 [Ry]
   Electron-Ion energy           =          -9.38665442 [Ry]
   Ion-Ion Energy                =           2.43242566 [Ry]
   (E(new)-E(old))/atom  =            -0.00000229 [eV]
 
   Total Energy =            -1.76550774 [Ry]
   Energy/atom  =            -4.80422905 [eV]
 
 
  0-  6    SRE of pot. & charge weighted pot =   0.0151707424    0.0002445362

 Number of converged eigen-pairs per representation: 
     10
   total =      10
 Number of matrix-vector multiplications: 
    152
   total =     152
 cumulated number of matrix-vector multiplications =        5724
 
 Diagonalization time [sec] :       0.46,      tdiag_sum =       21.57
 
 Fermi level at     0.2190 [Ry]
 
   State   Eigenvalue [Ry]      Eigenvalue [eV]    Occup.     Repr.
 
    1         0.1033296577         1.4058826573    1.0000        1
    2         0.1738410623         2.3652467251    1.0000        1
    3         0.2110311557         2.8712476984    1.0000        1
    4         0.2268895157         3.0870133730    0.0000        1
    5         0.2930891641         3.9877125490    0.0000        1
    6         0.3162460832         4.3027809584    0.0000        1
 

 Max and min values of charge density [e/bohr^3]:  0.8135E-02  0.3691E-06     
 
 Hartree potential time [sec]:       0.19
 
 
   Eigenvalue Energy             =           0.97640376 [Ry]
   Hartree Energy                =           5.65694176 [Ry]
   Integral_{Vxc*rho}            =          -2.12405345 [Ry]
   Exc = Integral{eps_xc*rho}    =          -1.64121958 [Ry]
   Electron-Ion energy           =          -9.38648558 [Ry]
   Ion-Ion Energy                =           2.43242566 [Ry]
   (E(new)-E(old))/atom  =            -0.00000039 [eV]
 
   Total Energy =            -1.76550789 [Ry]
   Energy/atom  =            -4.80422944 [eV]
 
 
  0-  7    SRE of pot. & charge weighted pot =   0.0041269195    0.0000669098

 No Spin Orbit Correction
 
Time for self-consistent field [sec] :       5.52,    tdiag_sum =       21.57
 
 Total charge (user input) [e] =  -1.00000000
 Total charge (computed) [e] =  -1.00000000
 Dipole components [Debye]:
 x-component =  -1.32509378
 y-component =   1.90449329
 z-component =   0.25761218
 Number of converged eigen-pairs per representation: 
     10
   total =      10
 Number of matrix-vector multiplications: 
     15
   total =      15
 cumulated number of matrix-vector multiplications =        5739
 
 Diagonalization time [sec] :       0.03,      tdiag_sum =       21.60
 
 Fermi level at     0.2190 [Ry]
 
   State   Eigenvalue [Ry]      Eigenvalue [eV]    Occup.     Repr.
 
    1         0.1033296577         1.4058826573    1.0000        1
    2         0.1738410623         2.3652467251    1.0000        1
    3         0.2110311557         2.8712476984    1.0000        1
    4         0.2268895157         3.0870133730    0.0000        1
    5         0.2930891641         3.9877125490    0.0000        1
    6         0.3162460832         4.3027809584    0.0000        1
 

 Max and min values of charge density [e/bohr^3]:  0.8135E-02  0.3691E-06     
 
 Hartree potential time [sec]:       0.17
 
 
   Eigenvalue Energy             =           0.97640376 [Ry]
   Hartree Energy                =           5.65694176 [Ry]
   Integral_{Vxc*rho}            =          -2.12405345 [Ry]
   Exc = Integral{eps_xc*rho}    =          -1.64121958 [Ry]
   Electron-Ion energy           =          -9.39288886 [Ry]
   Ion-Ion Energy                =           2.43242566 [Ry]
   (E(new)-E(old))/atom  =            -0.01742435 [eV]
 
   Total Energy =            -1.77191117 [Ry]
   Energy/atom  =            -4.82165379 [eV]
 
 
  0-  1    SRE of pot. & charge weighted pot =   1.1720985969    0.0149261023

 Number of converged eigen-pairs per representation: 
     10
   total =      10
 Number of matrix-vector multiplications: 
    257
   total =     257
 cumulated number of matrix-vector multiplications =        5996
 
 Diagonalization time [sec] :       1.01,      tdiag_sum =       22.61
 
 Fermi level at     0.2183 [Ry]
 
   State   Eigenvalue [Ry]      Eigenvalue [eV]    Occup.     Repr.
 
    1         0.1017923414         1.3849662393    1.0000        1
    2         0.1742911150         2.3713700528    1.0000        1
    3         0.2108307109         2.8685204864    1.0000        1
    4         0.2257041118         3.0708850043    0.0000        1
    5         0.2927169142         3.9826477914    0.0000        1
    6         0.3162542329         4.3028918421    0.0000        1
 

 Max and min values of charge density [e/bohr^3]:  0.8265E-02  0.3717E-06     
 
 Hartree potential time [sec]:       0.17
 
 
   Eigenvalue Energy             =           0.97382835 [Ry]
   Hartree Energy                =           5.66489707 [Ry]
   Integral_{Vxc*rho}            =          -2.12571208 [Ry]
   Exc = Integral{eps_xc*rho}    =          -1.64248521 [Ry]
   Electron-Ion energy           =          -9.40472133 [Ry]
   Ion-Ion Energy                =           2.43242566 [Ry]
   (E(new)-E(old))/atom  =            -0.00336139 [eV]
 
   Total Energy =            -1.77314645 [Ry]
   Energy/atom  =            -4.82501518 [eV]
 
 
  0-  2    SRE of pot. & charge weighted pot =   0.4138709903    0.0084217274

 Number of converged eigen-pairs per representation: 
     10
   total =      10
 Number of matrix-vector multiplications: 
    240
   total =     240
 cumulated number of matrix-vector multiplications =        6236
 
 Diagonalization time [sec] :       0.93,      tdiag_sum =       23.54
 
 Fermi level at     0.2186 [Ry]
 
   State   Eigenvalue [Ry]      Eigenvalue [eV]    Occup.     Repr.
 
    1         0.1027183225         1.3975649516    1.0000        1
    2         0.1735912098         2.3618472826    1.0000        1
    3         0.2108436664         2.8686967564    1.0000        1
    4         0.2262575797         3.0784153773    0.0000        1
    5         0.2926805129         3.9821525227    0.0000        1
    6         0.3160216886         4.2997278903    0.0000        1
 

 Max and min values of charge density [e/bohr^3]:  0.8152E-02  0.3540E-06     
 
 Hartree potential time [sec]:       0.18
 
 
   Eigenvalue Energy             =           0.97430640 [Ry]
   Hartree Energy                =           5.65944341 [Ry]
   Integral_{Vxc*rho}            =          -2.12450111 [Ry]
   Exc = Integral{eps_xc*rho}    =          -1.64155002 [Ry]
   Electron-Ion energy           =          -9.39790707 [Ry]
   Ion-Ion Energy                =           2.43242566 [Ry]
   (E(new)-E(old))/atom  =            -0.00067468 [eV]
 
   Total Energy =            -1.77339438 [Ry]
   Energy/atom  =            -4.82568986 [eV]
 
 
  0-  3    SRE of pot. & charge weighted pot =   0.3892341318    0.0044827318

 Number of converged eigen-pairs per representation: 
     10
   total =      10
 Number of matrix-vector multiplications: 
    207
   total =     207
 cumulated number of matrix-vector multiplications =        6443
 
 Diagonalization time [sec] :       0.80,      tdiag_sum =       24.33
 
 Fermi level at     0.2182 [Ry]
 
   State   Eigenvalue [Ry]      Eigenvalue [eV]    Occup.     Repr.
 
    1         0.1023301542         1.3922836126    1.0000        1
    2         0.1736559921         2.3627286972    1.0000        1
    3         0.2106397057         2.8659217074    1.0000        1
    4         0.2258573354         3.0729697343    0.0000        1
    5         0.2925017800         3.9797207182    0.0000        1
    6         0.3159682825         4.2990012582    0.0000        1
 

 Max and min values of charge density [e/bohr^3]:  0.8173E-02  0.3613E-06     
 
 Hartree potential time [sec]:       0.18
 
 
   Eigenvalue Energy             =           0.97325171 [Ry]
   Hartree Energy                =           5.66045833 [Ry]
   Integral_{Vxc*rho}            =          -2.12481096 [Ry]
   Exc = Integral{eps_xc*rho}    =          -1.64178527 [Ry]
   Electron-Ion energy           =          -9.40004935 [Ry]
   Ion-Ion Energy                =           2.43242566 [Ry]
   (E(new)-E(old))/atom  =            -0.00044740 [eV]
 
   Total Energy =            -1.77355880 [Ry]
   Energy/atom  =            -4.82613726 [eV]
 
 
  0-  4    SRE of pot. & charge weighted pot =   0.1794484577    0.0015934140

 Number of converged eigen-pairs per representation: 
     10
   total =      10
 Number of matrix-vector multiplications: 
    208
   total =     208
 cumulated number of matrix-vector multiplications =        6651
 
 Diagonalization time [sec] :       0.80,      tdiag_sum =       25.13
 
 Fermi level at     0.2180 [Ry]
 
   State   Eigenvalue [Ry]      Eigenvalue [eV]    Occup.     Repr.
 
    1         0.1021740429         1.3901595927    1.0000        1
    2         0.1733816590         2.3589961755    1.0000        1
    3         0.2103749223         2.8623191183    1.0000        1
    4         0.2255965083         3.0694209728    0.0000        1
    5         0.2922800908         3.9767044587    0.0000        1
    6         0.3157882996         4.2965524472    0.0000        1
 

 Max and min values of charge density [e/bohr^3]:  0.8148E-02  0.3598E-06     
 
 Hartree potential time [sec]:       0.17
 
 
   Eigenvalue Energy             =           0.97186126 [Ry]
   Hartree Energy                =           5.66047868 [Ry]
   Integral_{Vxc*rho}            =          -2.12489841 [Ry]
   Exc = Integral{eps_xc*rho}    =          -1.64184822 [Ry]
   Electron-Ion energy           =          -9.40043011 [Ry]
   Ion-Ion Energy                =           2.43242566 [Ry]
   (E(new)-E(old))/atom  =            -0.00007466 [eV]
 
   Total Energy =            -1.77358624 [Ry]
   Energy/atom  =            -4.82621192 [eV]
 
 
  0-  5    SRE of pot. & charge weighted pot =   0.0345314225    0.0005352491

 Number of converged eigen-pairs per representation: 
     10
   total =      10
 Number of matrix-vector multiplications: 
    159
   total =     159
 cumulated number of matrix-vector multiplications =        6810
 
 Diagonalization time [sec] :       0.49,      tdiag_sum =       25.63
 
 Fermi level at     0.2180 [Ry]
 
   State   Eigenvalue [Ry]      Eigenvalue [eV]    Occup.     Repr.
 
    1         0.1021315621         1.3895816070    1.0000        1
    2         0.1733423183         2.3584609138    1.0000        1
    3         0.2103341738         2.8617647020    1.0000        1
    4         0.2255669716         3.0690191023    0.0000        1
    5         0.2922563465         3.9763813987    0.0000        1
    6         0.3157662038         4.2962518159    0.0000        1
 

 Max and min values of charge density [e/bohr^3]:  0.8145E-02  0.3595E-06     
 
 Hartree potential time [sec]:       0.18
 
 
   Eigenvalue Energy             =           0.97161612 [Ry]
   Hartree Energy                =           5.66062587 [Ry]
   Integral_{Vxc*rho}            =          -2.12492127 [Ry]
   Exc = Integral{eps_xc*rho}    =          -1.64186541 [Ry]
   Electron-Ion energy           =          -9.40050427 [Ry]
   Ion-Ion Energy                =           2.43242566 [Ry]
   (E(new)-E(old))/atom  =            -0.00000028 [eV]
 
   Total Energy =            -1.77358634 [Ry]
   Energy/atom  =            -4.82621220 [eV]
 
 
  0-  6    SRE of pot. & charge weighted pot =   0.0194230769    0.0002943535

 Number of converged eigen-pairs per representation: 
     10
   total =      10
 Number of matrix-vector multiplications: 
    162
   total =     162
 cumulated number of matrix-vector multiplications =        6972
 
 Diagonalization time [sec] :       0.51,      tdiag_sum =       26.14
 
 Fermi level at     0.2179 [Ry]
 
   State   Eigenvalue [Ry]      Eigenvalue [eV]    Occup.     Repr.
 
    1         0.1020882711         1.3889925989    1.0000        1
    2         0.1733386571         2.3584111011    1.0000        1
    3         0.2103155893         2.8615118448    1.0000        1
    4         0.2255500227         3.0687884987    0.0000        1
    5         0.2922464858         3.9762472371    0.0000        1
    6         0.3157617778         4.2961915964    0.0000        1
 

 Max and min values of charge density [e/bohr^3]:  0.8147E-02  0.3593E-06     
 
 Hartree potential time [sec]:       0.18
 
 
   Eigenvalue Energy             =           0.97148504 [Ry]
   Hartree Energy                =           5.66084274 [Ry]
   Integral_{Vxc*rho}            =          -2.12497112 [Ry]
   Exc = Integral{eps_xc*rho}    =          -1.64190335 [Ry]
   Electron-Ion energy           =          -9.40069384 [Ry]
   Ion-Ion Energy                =           2.43242566 [Ry]
   (E(new)-E(old))/atom  =            -0.00000013 [eV]
 
   Total Energy =            -1.77358639 [Ry]
   Energy/atom  =            -4.82621233 [eV]
 
 
  0-  7    SRE of pot. & charge weighted pot =   0.0050784471    0.0000883275

 No Spin Orbit Correction
 
Time for self-consistent field [sec] :       5.87,    tdiag_sum =       26.14
 
 Total charge (user input) [e] =  -1.00000000
 Total charge (computed) [e] =  -1.00000000
 Dipole components [Debye]:
 x-component =  -1.41618065
 y-component =  -0.18874970
 z-component =   0.36408465
 Number of converged eigen-pairs per representation: 
     10
   total =      10
 Number of matrix-vector multiplications: 
     15
   total =      15
 cumulated number of matrix-vector multiplications =        6987
 
 Diagonalization time [sec] :       0.03,      tdiag_sum =       26.17
 
 Fermi level at     0.2179 [Ry]
 
   State   Eigenvalue [Ry]      Eigenvalue [eV]    Occup.     Repr.
 
    1         0.1020882711         1.3889925989    1.0000        1
    2         0.1733386571         2.3584111011    1.0000        1
    3         0.2103155893         2.8615118448    1.0000        1
    4         0.2255500227         3.0687884987    0.0000        1
    5         0.2922464858         3.9762472371    0.0000        1
    6         0.3157617778         4.2961915964    0.0000        1
 

 Max and min values of charge density [e/bohr^3]:  0.8147E-02  0.3593E-06     
 
 Hartree potential time [sec]:       0.17
 
 
   Eigenvalue Energy             =           0.97148504 [Ry]
   Hartree Energy                =           5.66084274 [Ry]
   Integral_{Vxc*rho}            =          -2.12497112 [Ry]
   Exc = Integral{eps_xc*rho}    =          -1.64190335 [Ry]
   Electron-Ion energy           =          -9.38916150 [Ry]
   Ion-Ion Energy                =           2.43242566 [Ry]
   (E(new)-E(old))/atom  =             0.03138133 [eV]
 
   Total Energy =            -1.76205405 [Ry]
   Energy/atom  =            -4.79483100 [eV]
 
 
  0-  1    SRE of pot. & charge weighted pot =   0.8286791195    0.0090103247

 Number of converged eigen-pairs per representation: 
     10
   total =      10
 Number of matrix-vector multiplications: 
    255
   total =     255
 cumulated number of matrix-vector multiplications =        7242
 
 Diagonalization time [sec] :       0.99,      tdiag_sum =       27.16
 
 Fermi level at     0.2183 [Ry]
 
   State   Eigenvalue [Ry]      Eigenvalue [eV]    Occup.     Repr.
 
    1         0.1028741564         1.3996851969    1.0000        1
    2         0.1737700311         2.3642802894    1.0000        1
    3         0.2107532525         2.8674666035    1.0000        1
    4         0.2258860892         3.0733609518    0.0000        1
    5         0.2925532438         3.9804209238    0.0000        1
    6         0.3160503531         4.3001178943    0.0000        1
 

 Max and min values of charge density [e/bohr^3]:  0.8106E-02  0.3980E-06     
 
 Hartree potential time [sec]:       0.18
 
 
   Eigenvalue Energy             =           0.97479489 [Ry]
   Hartree Energy                =           5.65413981 [Ry]
   Integral_{Vxc*rho}            =          -2.12317280 [Ry]
   Exc = Integral{eps_xc*rho}    =          -1.64051726 [Ry]
   Electron-Ion energy           =          -9.38236370 [Ry]
   Ion-Ion Energy                =           2.43242566 [Ry]
   (E(new)-E(old))/atom  =            -0.00173426 [eV]
 
   Total Energy =            -1.76269138 [Ry]
   Energy/atom  =            -4.79656527 [eV]
 
 
  0-  2    SRE of pot. & charge weighted pot =   0.2701962404    0.0034746207

 Number of converged eigen-pairs per representation: 
     10
   total =      10
 Number of matrix-vector multiplications: 
    193
   total =     193
 cumulated number of matrix-vector multiplications =        7435
 
 Diagonalization time [sec] :       0.74,      tdiag_sum =       27.89
 
 Fermi level at     0.2183 [Ry]
 
   State   Eigenvalue [Ry]      Eigenvalue [eV]    Occup.     Repr.
 
    1         0.1026906346         1.3971882363    1.0000        1
    2         0.1741045543         2.3688317442    1.0000        1
    3         0.2108541946         2.8688400008    1.0000        1
    4         0.2257114895         3.0709853842    0.0000        1
    5         0.2927355398         3.9829012068    0.0000        1
    6         0.3161990073         4.3021404539    0.0000        1
 

 Max and min values of charge density [e/bohr^3]:  0.8133E-02  0.4012E-06     
 
 Hartree potential time [sec]:       0.18
 
 
   Eigenvalue Energy             =           0.97529878 [Ry]
   Hartree Energy                =           5.65640342 [Ry]
   Integral_{Vxc*rho}            =          -2.12343970 [Ry]
   Exc = Integral{eps_xc*rho}    =          -1.64072015 [Ry]
   Electron-Ion energy           =          -9.38483956 [Ry]
   Ion-Ion Energy                =           2.43242566 [Ry]
   (E(new)-E(old))/atom  =            -0.00016636 [eV]
 
   Total Energy =            -1.76275251 [Ry]
   Energy/atom  =            -4.79673163 [eV]
 
 
  0-  3    SRE of pot. & charge weighted pot =   0.2318438709    0.0019352827

 Number of converged eigen-pairs per representation: 
     10
   total =      10
 Number of matrix-vector multiplications: 
    211
   total =     211
 cumulated number of matrix-vector multiplications =        7646
 
 Diagonalization time [sec] :       0.80,      tdiag_sum =       28.69
 
 Fermi level at     0.2185 [Ry]
 
   State   Eigenvalue [Ry]      Eigenvalue [eV]    Occup.     Repr.
 
    1         0.1030805869         1.4024938499    1.0000        1
    2         0.1742653241         2.3710191473    1.0000        1
    3         0.2111532298         2.8729086145    1.0000        1
    4         0.2259042194         3.0736076285    0.0000        1
    5         0.2930202903         3.9867754660    0.0000        1
    6         0.3163659179         4.3044114062    0.0000        1
 

 Max and min values of charge density [e/bohr^3]:  0.8112E-02  0.4067E-06     
 
 Hartree potential time [sec]:       0.18
 
 
   Eigenvalue Energy             =           0.97699830 [Ry]
   Hartree Energy                =           5.65539390 [Ry]
   Integral_{Vxc*rho}            =          -2.12300948 [Ry]
   Exc = Integral{eps_xc*rho}    =          -1.64038874 [Ry]
   Electron-Ion energy           =          -9.38329767 [Ry]
   Ion-Ion Energy                =           2.43242566 [Ry]
   (E(new)-E(old))/atom  =            -0.00004706 [eV]
 
   Total Energy =            -1.76276981 [Ry]
   Energy/atom  =            -4.79677869 [eV]
 
 
  0-  4    SRE of pot. & charge weighted pot =   0.0985156898    0.0013409844

 Number of converged eigen-pairs per representation: 
     10
   total =      10
 Number of matrix-vector multiplications: 
    190
   total =     190
 cumulated number of matrix-vector multiplications =        7836
 
 Diagonalization time [sec] :       0.70,      tdiag_sum =       29.39
 
 Fermi level at     0.2186 [Ry]
 
   State   Eigenvalue [Ry]      Eigenvalue [eV]    Occup.     Repr.
 
    1         0.1031054772         1.4028325017    1.0000        1
    2         0.1744688294         2.3737879992    1.0000        1
    3         0.2112951395         2.8748394091    1.0000        1
    4         0.2258712840         3.0731595153    0.0000        1
    5         0.2931390117         3.9883907649    0.0000        1
    6         0.3164772692         4.3059264294    0.0000        1
 

 Max and min values of charge density [e/bohr^3]:  0.8123E-02  0.4159E-06     
 
 Hartree potential time [sec]:       0.18
 
 
   Eigenvalue Energy             =           0.97773891 [Ry]
   Hartree Energy                =           5.65543929 [Ry]
   Integral_{Vxc*rho}            =          -2.12295121 [Ry]
   Exc = Integral{eps_xc*rho}    =          -1.64034430 [Ry]
   Electron-Ion energy           =          -9.38356958 [Ry]
   Ion-Ion Energy                =           2.43242566 [Ry]
   (E(new)-E(old))/atom  =            -0.00004630 [eV]
 
   Total Energy =            -1.76278682 [Ry]
   Energy/atom  =            -4.79682498 [eV]
 
 
  0-  5    SRE of pot. & charge weighted pot =   0.0245345938    0.0003591354

 Number of converged eigen-pairs per representation: 
     10
   total =      10
 Number of matrix-vector multiplications: 
    154
   total =     154
 cumulated number of matrix-vector multiplications =        7990
 
 Diagonalization time [sec] :       0.47,      tdiag_sum =       29.86
 
 Fermi level at     0.2186 [Ry]
 
   State   Eigenvalue [Ry]      Eigenvalue [eV]    Occup.     Repr.
 
    1         0.1031272559         1.4031288177    1.0000        1
    2         0.1744198254         2.3731212602    1.0000        1
    3         0.2112956021         2.8748457027    1.0000        1
    4         0.2259023171         3.0735817464    0.0000        1
    5         0.2931143414         3.9880551068    0.0000        1
    6         0.3164430342         4.3054606341    0.0000        1
 

 Max and min values of charge density [e/bohr^3]:  0.8125E-02  0.4156E-06     
 
 Hartree potential time [sec]:       0.18
 
 
   Eigenvalue Energy             =           0.97768538 [Ry]
   Hartree Energy                =           5.65522220 [Ry]
   Integral_{Vxc*rho}            =          -2.12296850 [Ry]
   Exc = Integral{eps_xc*rho}    =          -1.64035893 [Ry]
   Electron-Ion energy           =          -9.38338400 [Ry]
   Ion-Ion Energy                =           2.43242566 [Ry]
   (E(new)-E(old))/atom  =            -0.00000133 [eV]
 
   Total Energy =            -1.76278731 [Ry]
   Energy/atom  =            -4.79682632 [eV]
 
 
  0-  6    SRE of pot. & charge weighted pot =   0.0124931368    0.0001736305

 No Spin Orbit Correction
 
Time for self-consistent field [sec] :       4.84,    tdiag_sum =       29.86
 
 Total charge (user input) [e] =  -1.00000000
 Total charge (computed) [e] =  -1.00000000
 Dipole components [Debye]:
 x-component =  -1.45515978
 y-component =   0.80641873
 z-component =   1.24738099
 Number of converged eigen-pairs per representation: 
     10
   total =      10
 Number of matrix-vector multiplications: 
     15
   total =      15
 cumulated number of matrix-vector multiplications =        8005
 
 Diagonalization time [sec] :       0.03,      tdiag_sum =       29.89
 
 Fermi level at     0.2186 [Ry]
 
   State   Eigenvalue [Ry]      Eigenvalue [eV]    Occup.     Repr.
 
    1         0.1031272559         1.4031288177    1.0000        1
    2         0.1744198254         2.3731212602    1.0000        1
    3         0.2112956021         2.8748457027    1.0000        1
    4         0.2259023171         3.0735817464    0.0000        1
    5         0.2931143414         3.9880551068    0.0000        1
    6         0.3164430342         4.3054606341    0.0000        1
 

 Max and min values of charge density [e/bohr^3]:  0.8125E-02  0.4156E-06     
 
 Hartree potential time [sec]:       0.18
 
 
   Eigenvalue Energy             =           0.97768538 [Ry]
   Hartree Energy                =           5.65522220 [Ry]
   Integral_{Vxc*rho}            =          -2.12296850 [Ry]
   Exc = Integral{eps_xc*rho}    =          -1.64035893 [Ry]
   Electron-Ion energy           =          -9.39535794 [Ry]
   Ion-Ion Energy                =           2.43242566 [Ry]
   (E(new)-E(old))/atom  =            -0.03258296 [eV]
 
   Total Energy =            -1.77476123 [Ry]
   Energy/atom  =            -4.82940928 [eV]
 
 
  0-  1    SRE of pot. & charge weighted pot =   1.1701184689    0.0123816513

 Number of converged eigen-pairs per representation: 
     10
   total =      10
 Number of matrix-vector multiplications: 
    257
   total =     257
 cumulated number of matrix-vector multiplications =        8262
 
 Diagonalization time [sec] :       1.00,      tdiag_sum =       30.89
 
 Fermi level at     0.2186 [Ry]
 
   State   Eigenvalue [Ry]      Eigenvalue [eV]    Occup.     Repr.
 
    1         0.1029796255         1.4011201889    1.0000        1
    2         0.1731323507         2.3556041368    1.0000        1
    3         0.2106509182         2.8660742626    1.0000        1
    4         0.2265682980         3.0826429488    0.0000        1
    5         0.2929173758         3.9853752314    0.0000        1
    6         0.3159026194         4.2981078588    0.0000        1
 

 Max and min values of charge density [e/bohr^3]:  0.8074E-02  0.3400E-06     
 
 Hartree potential time [sec]:       0.18
 
 
   Eigenvalue Energy             =           0.97352579 [Ry]
   Hartree Energy                =           5.66317298 [Ry]
   Integral_{Vxc*rho}            =          -2.12569430 [Ry]
   Exc = Integral{eps_xc*rho}    =          -1.64247391 [Ry]
   Electron-Ion energy           =          -9.40322768 [Ry]
   Ion-Ion Energy                =           2.43242566 [Ry]
   (E(new)-E(old))/atom  =            -0.00323527 [eV]
 
   Total Energy =            -1.77595016 [Ry]
   Energy/atom  =            -4.83264454 [eV]
 
 
  0-  2    SRE of pot. & charge weighted pot =   0.4102335431    0.0058802937

 Number of converged eigen-pairs per representation: 
     10
   total =      10
 Number of matrix-vector multiplications: 
    229
   total =     229
 cumulated number of matrix-vector multiplications =        8491
 
 Diagonalization time [sec] :       0.89,      tdiag_sum =       31.78
 
 Fermi level at     0.2184 [Ry]
 
   State   Eigenvalue [Ry]      Eigenvalue [eV]    Occup.     Repr.
 
    1         0.1025108546         1.3947421854    1.0000        1
    2         0.1733589356         2.3586870063    1.0000        1
    3         0.2105356878         2.8645064617    1.0000        1
    4         0.2263441941         3.0795938362    0.0000        1
    5         0.2926502089         3.9817402117    0.0000        1
    6         0.3159182859         4.2983210145    0.0000        1
 

 Max and min values of charge density [e/bohr^3]:  0.8157E-02  0.3504E-06     
 
 Hartree potential time [sec]:       0.18
 
 
   Eigenvalue Energy             =           0.97281096 [Ry]
   Hartree Energy                =           5.66248484 [Ry]
   Integral_{Vxc*rho}            =          -2.12576698 [Ry]
   Exc = Integral{eps_xc*rho}    =          -1.64253499 [Ry]
   Electron-Ion energy           =          -9.40404725 [Ry]
   Ion-Ion Energy                =           2.43242566 [Ry]
   (E(new)-E(old))/atom  =            -0.00042718 [eV]
 
   Total Energy =            -1.77610715 [Ry]
   Energy/atom  =            -4.83307172 [eV]
 
 
  0-  3    SRE of pot. & charge weighted pot =   0.3729021675    0.0037481700

 Number of converged eigen-pairs per representation: 
     10
   total =      10
 Number of matrix-vector multiplications: 
    224
   total =     224
 cumulated number of matrix-vector multiplications =        8715
 
 Diagonalization time [sec] :       0.86,      tdiag_sum =       32.64
 
 Fermi level at     0.2185 [Ry]
 
   State   Eigenvalue [Ry]      Eigenvalue [eV]    Occup.     Repr.
 
    1         0.1026632805         1.3968160623    1.0000        1
    2         0.1728815521         2.3521918211    1.0000        1
    3         0.2103335779         2.8617565939    1.0000        1
    4         0.2266743265         3.0840855513    0.0000        1
    5         0.2924332026         3.9787876676    0.0000        1
    6         0.3156678229         4.2949132649    0.0000        1
 

 Max and min values of charge density [e/bohr^3]:  0.8133E-02  0.3309E-06     
 
 Hartree potential time [sec]:       0.18
 
 
   Eigenvalue Energy             =           0.97175682 [Ry]
   Hartree Energy                =           5.66100961 [Ry]
   Integral_{Vxc*rho}            =          -2.12567492 [Ry]
   Exc = Integral{eps_xc*rho}    =          -1.64246931 [Ry]
   Electron-Ion energy           =          -9.40204772 [Ry]
   Ion-Ion Energy                =           2.43242566 [Ry]
   (E(new)-E(old))/atom  =            -0.00023332 [eV]
 
   Total Energy =            -1.77619289 [Ry]
   Energy/atom  =            -4.83330504 [eV]
 
 
  0-  4    SRE of pot. & charge weighted pot =   0.1718922641    0.0017679467

 Number of converged eigen-pairs per representation: 
     10
   total =      10
 Number of matrix-vector multiplications: 
    208
   total =     208
 cumulated number of matrix-vector multiplications =        8923
 
 Diagonalization time [sec] :       0.79,      tdiag_sum =       33.43
 
 Fermi level at     0.2183 [Ry]
 
   State   Eigenvalue [Ry]      Eigenvalue [eV]    Occup.     Repr.
 
    1         0.1023298526         1.3922795084    1.0000        1
    2         0.1727334016         2.3501761152    1.0000        1
    3         0.2100590112         2.8580208944    1.0000        1
    4         0.2265911037         3.0829532383    0.0000        1
    5         0.2921939040         3.9755318185    0.0000        1
    6         0.3154949401         4.2925610555    0.0000        1
 

 Max and min values of charge density [e/bohr^3]:  0.8160E-02  0.3197E-06     
 
 Hartree potential time [sec]:       0.18
 
 
   Eigenvalue Energy             =           0.97024453 [Ry]
   Hartree Energy                =           5.66194019 [Ry]
   Integral_{Vxc*rho}            =          -2.12601728 [Ry]
   Exc = Integral{eps_xc*rho}    =          -1.64273583 [Ry]
   Electron-Ion energy           =          -9.40314258 [Ry]
   Ion-Ion Energy                =           2.43242566 [Ry]
   (E(new)-E(old))/atom  =            -0.00006276 [eV]
 
   Total Energy =            -1.77621595 [Ry]
   Energy/atom  =            -4.83336780 [eV]
 
 
  0-  5    SRE of pot. & charge weighted pot =   0.0378302082    0.0005723153

 Number of converged eigen-pairs per representation: 
     10
   total =      10
 Number of matrix-vector multiplications: 
    173
   total =     173
 cumulated number of matrix-vector multiplications =        9096
 
 Diagonalization time [sec] :       0.58,      tdiag_sum =       34.01
 
 Fermi level at     0.2183 [Ry]
 
   State   Eigenvalue [Ry]      Eigenvalue [eV]    Occup.     Repr.
 
    1         0.1022520692         1.3912212028    1.0000        1
    2         0.1727589422         2.3505236161    1.0000        1
    3         0.2100260820         2.8575728670    1.0000        1
    4         0.2265082248         3.0818256051    0.0000        1
    5         0.2921822361         3.9753730676    0.0000        1
    6         0.3155047044         4.2926939068    0.0000        1
 

 Max and min values of charge density [e/bohr^3]:  0.8161E-02  0.3193E-06     
 
 Hartree potential time [sec]:       0.18
 
 
   Eigenvalue Energy             =           0.97007419 [Ry]
   Hartree Energy                =           5.66233228 [Ry]
   Integral_{Vxc*rho}            =          -2.12600252 [Ry]
   Exc = Integral{eps_xc*rho}    =          -1.64272286 [Ry]
   Electron-Ion energy           =          -9.40348824 [Ry]
   Ion-Ion Energy                =           2.43242566 [Ry]
   (E(new)-E(old))/atom  =            -0.00000519 [eV]
 
   Total Energy =            -1.77621786 [Ry]
   Energy/atom  =            -4.83337299 [eV]
 
 
  0-  6    SRE of pot. & charge weighted pot =   0.0183962142    0.0002744402

 Number of converged eigen-pairs per representation: 
     10
   total =      10
 Number of matrix-vector multiplications: 
    146
   total =     146
 cumulated number of matrix-vector multiplications =        9242
 
 Diagonalization time [sec] :       0.42,      tdiag_sum =       34.43
 
 Fermi level at     0.2183 [Ry]
 
   State   Eigenvalue [Ry]      Eigenvalue [eV]    Occup.     Repr.
 
    1         0.1022770544         1.3915611468    1.0000        1
    2         0.1727723003         2.3507053636    1.0000        1
    3         0.2100562268         2.8579830100    1.0000        1
    4         0.2265067754         3.0818058844    0.0000        1
    5         0.2922097196         3.9757470031    0.0000        1
    6         0.3155400046         4.2931741951    0.0000        1
 

 Max and min values of charge density [e/bohr^3]:  0.8156E-02  0.3192E-06     
 
 Hartree potential time [sec]:       0.18
 
 
   Eigenvalue Energy             =           0.97021117 [Ry]
   Hartree Energy                =           5.66231973 [Ry]
   Integral_{Vxc*rho}            =          -2.12595824 [Ry]
   Exc = Integral{eps_xc*rho}    =          -1.64268817 [Ry]
   Electron-Ion energy           =          -9.40346124 [Ry]
   Ion-Ion Energy                =           2.43242566 [Ry]
   (E(new)-E(old))/atom  =            -0.00000006 [eV]
 
   Total Energy =            -1.77621788 [Ry]
   Energy/atom  =            -4.83337305 [eV]
 
 
  0-  7    SRE of pot. & charge weighted pot =   0.0079493081    0.0001079686

 No Spin Orbit Correction
 
Time for self-consistent field [sec] :       5.88,    tdiag_sum =       34.43
 
 Total charge (user input) [e] =  -1.00000000
 Total charge (computed) [e] =  -1.00000000
 Dipole components [Debye]:
 x-component =  -1.28494082
 y-component =   0.90994190
 z-component =  -0.62191200
 
 Coordinates, forces, torque
 ============================
 
             total (net) force [Ry/bohr]:     -0.018564   -0.015217   -0.008413
 
 coordinates and total forces (after setting net force to zero)
-atom-  ----x----   ----y----   ----z-----   ----Fx----  ----Fy----   ----Fz---
                       [bohr]                             [Ry/bohr]            

   1    -1.015971    3.366211    2.139044     -0.000306   -0.017264   -0.010742
   2     2.800929    3.860314   -4.162935     -0.014272   -0.015263    0.038448
   3     5.886940    1.162583    0.865330     -0.034146   -0.008348   -0.009664
   4     0.850492   -3.860314    0.480202      0.001395    0.019890    0.006760
   5    -5.886940   -2.178174    4.162935      0.047329    0.020984   -0.024802
 
 total torque [Ry/radian] :     0.019311    0.004933    0.024034
 
 
Time for movement    0 is [sec]:       5.91
 
 =================================================================
 
 Setup time [sec] :       38.09
 Total time spent in Hartree potential [sec] :        8.92
 Total time spent during diagonalization [sec] :       34.43
 
 Total CPU time [sec] :      44.00
 Wall-clock time [sec] :      48.81
 Current date/time: 09-APR-2007 17:24:05 -0500 UTC
 
 =================================================================
 
