 
 =================================================================
 
  PARSEC 1.1 - Real-space DFT Program
 
  serial run, no MPI interface
  starting run on 10-OCT-2006 13:04:23 -0400 UTC
 
 =================================================================
 
 Initial Run - starting from atomic potentials
 
 Grid data:
 ----------
 Confined system with zero boundary condition!
 Boundary sphere size is   9.448634 bohrs
 Grid spacing is  0.377945 bohrs
 
 Grid points are shifted from origin! 
 shift vector =   0.5000  0.5000  0.5000   [units of grid spacing]
 Finite-difference expansion of order 12
 
 Eigenvalue data: 
 ---------------- 
 Number of states:            8
Net cluster charge:    0.000
 
 Fermi temperature =   80.0 [K]
 
 Self-consistency data: 
 ----------------------
 Max number of iterations is           50
 Using DIAGLA (block preconditioned Lanczos eigen-problem solver)
 
 Self-consistency convergence criterion is  0.00020 Ry
 Diagonalization tolerance is 0.10000E-03
 Tolerance in initial diagonalization  100.000
 Buffer size in subspace is      1
 
 Mixer data:
 -----------
 Anderson mixer
 Initial Jacobian:  0.300  Mixing memory is  4
 
 Atom data:
 ----------

Total # of atom types is     2

 Atom coordinates input in Bohr radii
 
 There are   1 Si atoms
 and their initial coordinates are:
 
    x [bohr]          y [bohr]          z [bohr]     movable?
    0.000000000       0.000000000       0.000000000      1
 There are   4 H  atoms
 and their initial coordinates are:
 
    x [bohr]          y [bohr]          z [bohr]     movable?
    1.618365000       1.618365000       1.618365000      1
   -1.618365000      -1.618365000       1.618365000      1
   -1.618365000       1.618365000      -1.618365000      1
    1.618365000      -1.618365000      -1.618365000      1
 
 Total number of atoms =    5
 
 Correlation data:
 -----------------
 Exchange-Correlation functional is ca
 LDA, Ceperley-Alder, Perdew-Zunger parametrization
 
 Other input data:
 -----------------
Spin-polarized computation!

 
 Using new (r*V_ps) interpolation of pseudopot. !
 
 No eigenvalue output File!
 OutEvFlag =            0
 
 No minimization!
 
 No molecular dynamics!
 
 No polarizability!
 
 
 
 Pseudopotential messages
 ------------------------
 
 Pseudopotential file for atom type  1 is Si_POTRE.DAT

Si  ca  nrl  nc  
  ATM3      30-JUN- 4 Troullier-Martins
 3s 1.50  r= 2.69/3p 2.50  r= 3.82/

 ion charge =  4.000    
 logarithmic parameters of pseudopot. radial grid
 r(i) = a*[Exp(b(i-1)) - 1)]
 Si:   a = 0.177054E-03  b = 0.100000E-01    nr =     1343

NOTICE: No Core-Correction !

 Occupancy of orbitals : 
   1.500   2.500
 # of pseudopot= 2, Local component is l = 1, Core radius=  3.82
 
 Pseudopotential file for atom type  2 is H_POTRE.DAT

H   ca  nrl  nc  
  ATM3      30-JUN- 4 Troullier-Martins
 1s 1.00  r= 1.99/

 ion charge =  1.000    
 logarithmic parameters of pseudopot. radial grid
 r(i) = a*[Exp(b(i-1)) - 1)]
 H :   a = 0.247875E-02  b = 0.100000E-01    nr =     1079

NOTICE: No Core-Correction !

 Occupancy of orbitals : 
   1.000
 # of pseudopot= 1, Local component is l = 0, Core radius=  1.99
 
 Using order          18 for calculating dV/dr in pseudo
 
 Normalization check and Kleinman-Bylander Integral
 
                                 s                 p                 d
  Si   Normalization        1.00001666        1.00001681
  Si   K-B Integral         0.23676376       -3.29274804
 
  H    Normalization        1.00001673
  H    K-B Integral        -1.76269563
 

 Symmetry Properties:
 --------------------

 The space group of the crystal is symmorphic
 (this usually means that symmetry operations do not
 involve rotations and translations simultaneously)

 Operation number: 
       1  2  3  4  5  6  7  8  9 10 11 12
      37 38 39 40 41 42 43 44 45 46 47 48


    Rotation matrices (r-lattice) and fractional translations (r-lattice)

    1     1  0  0     0  1  0     0  0  1      0.00000  0.00000  0.00000   E  
    2     1  0  0     0 -1  0     0  0 -1      0.00000  0.00000  0.00000   C2 
    3    -1  0  0     0  1  0     0  0 -1      0.00000  0.00000  0.00000   C2 
    4    -1  0  0     0 -1  0     0  0  1      0.00000  0.00000  0.00000   C2 
    5     0  0  1     1  0  0     0  1  0      0.00000  0.00000  0.00000   C3 
    6     0  0 -1     1  0  0     0 -1  0      0.00000  0.00000  0.00000   C3 
    7     0  0 -1    -1  0  0     0  1  0      0.00000  0.00000  0.00000   C3 
    8     0  0  1    -1  0  0     0 -1  0      0.00000  0.00000  0.00000   C3 
    9     0  1  0     0  0  1     1  0  0      0.00000  0.00000  0.00000   C3 
   10     0 -1  0     0  0 -1     1  0  0      0.00000  0.00000  0.00000   C3 
   11     0  1  0     0  0 -1    -1  0  0      0.00000  0.00000  0.00000   C3 
   12     0 -1  0     0  0  1    -1  0  0      0.00000  0.00000  0.00000   C3 
   13     0  1  0     1  0  0     0  0  1      0.00000  0.00000  0.00000   IC2
   14     0 -1  0     1  0  0     0  0 -1      0.00000  0.00000  0.00000   IC4
   15     0  1  0    -1  0  0     0  0 -1      0.00000  0.00000  0.00000   IC4
   16     0 -1  0    -1  0  0     0  0  1      0.00000  0.00000  0.00000   IC2
   17     1  0  0     0  0  1     0  1  0      0.00000  0.00000  0.00000   IC2
   18     1  0  0     0  0 -1     0 -1  0      0.00000  0.00000  0.00000   IC2
   19    -1  0  0     0  0 -1     0  1  0      0.00000  0.00000  0.00000   IC4
   20    -1  0  0     0  0  1     0 -1  0      0.00000  0.00000  0.00000   IC4
   21     0  0  1     0  1  0     1  0  0      0.00000  0.00000  0.00000   IC2
   22     0  0 -1     0 -1  0     1  0  0      0.00000  0.00000  0.00000   IC4
   23     0  0 -1     0  1  0    -1  0  0      0.00000  0.00000  0.00000   IC2
   24     0  0  1     0 -1  0    -1  0  0      0.00000  0.00000  0.00000   IC4
 
  Found Abelian subgroup D_2   with            4  symmetry operations
 
  Character table :
----------------------------------------
 Representation  |     E   C2   C2   C2
     A       1   |     1    1    1    1
     B1      2   |     1    1   -1   -1
     B2      3   |     1   -1    1   -1
     B3      4   |     1   -1   -1    1
----------------------------------------
 Operation number:     1    2    3    4
 
 
 Setup messages:
 ---------------
 The Hamiltonian matrix size is       65752
  reduced size is        16438
  maximum distance between grid points and their images is
   0.000      [bohr]
 
 There are 36 laplacian-related non-diagonal elements per row
 
 Non-local pseudopotential messages:
 -----------------------------------
 Max # of nonlocal points for one atom =         4272
 
 Sizes of all non-local blocks 
  4272   603   603   603   603
 
 
 Memory usage:
 -------------
 estimated memory usage (no MPI)  :    26.30 MB
 
 total electrons from atomic density is     7.99918
 total electrons from atomic density is     8.00000

 Max and min values of charge density [e/bohr^3]  0.1119E+00  0.6152E-06   up

 Max and min values of charge density [e/bohr^3]  0.1276E-01  0.6152E-06   dn
 
Hartree potential time [sec]:       1.19
 
 
Setup time [sec] :       1.74
 
 -----------------------------------------------------------------
 
  SPIN UP
 Number of converged eigen-pairs per representation: 
     3     3     3     3                          total =     12
 Number of matrix-vector multiplications: 
   190   249   216   270                          total =    925
 
Diagonalization time [sec] :      22.28
 
  SPIN DOWN
 Number of converged eigen-pairs per representation: 
     3     3     3     3                          total =     12
 Number of matrix-vector multiplications: 
   213   246   213   272                          total =    944
 
Diagonalization time [sec] :      22.74
 
 
 Electrons in up, down spins:    4.00    4.00
 Net magnetic moment (in Bohr magnetons):    0.00
 
 Fermi level at    -0.3696 [Ry]
 
up State   Eigenvalue [Ry]      Eigenvalue [eV]    Occup.     Repr.
 
    1        -1.3215793348       -17.9811441133    1.0000        1
    2        -0.9483241418       -12.9027086084    1.0000        2
    3        -0.9483241418       -12.9027086084    1.0000        4
    4        -0.9483241417       -12.9027086074    1.0000        3
    5        -0.1608310190        -2.1882346782    0.0000        2
    6        -0.1608310190        -2.1882346781    0.0000        4
    7        -0.1608310190        -2.1882346777    0.0000        3
    8        -0.1488472621        -2.0251860785    0.0000        1
 
dn State   Eigenvalue [Ry]      Eigenvalue [eV]    Occup.     Repr.
 
    1        -1.0745842326       -14.6205781512    1.0000        1
    2        -0.7013321614        -9.5421851215    1.0000        4
    3        -0.7013321614        -9.5421851215    1.0000        2
    4        -0.7013321614        -9.5421851215    1.0000        3
    5        -0.0522539485        -0.7109567722    0.0000        4
    6        -0.0522539485        -0.7109567719    0.0000        3
    7        -0.0522539485        -0.7109567718    0.0000        2
    8        -0.0522363805        -0.7107177453    0.0000        1

 Max and min values of charge density [e/bohr^3]  0.1195E+00  0.1763E-09   up

 Max and min values of charge density [e/bohr^3]  0.9942E-01  0.1105E-08   dn
 
Hartree potential time [sec]:       1.31
 
 
   Eigenvalue Energy             =          -7.34513248 [Ry]
   Hartree Energy                =          22.82693713 [Ry]
   Integral_{Vxc*rho}            =          -6.63215903 [Ry]
   Exc = Integral{eps_xc*rho}    =          -5.07993538 [Ry]
   Electron-Ion energy           =         -51.88609804 [Ry]
   Ion-Ion Energy                =          14.03753127 [Ry]
   (E(new)-E(old))/atom  =           -71.96318804 [eV]
 
   Total Energy =           -12.40824481 [Ry]
   Energy/atom  =           -33.76481944 [eV]
 
 
  0- 1 up SRE of pot. & charge weighted pot =   2.9306328576    0.4182809057

 
  0- 1 dn SRE of pot. & charge weighted pot =   1.8810630092    0.1569619661

  SPIN UP
 Number of converged eigen-pairs per representation: 
     2     3     3     3                          total =     11
 Number of matrix-vector multiplications: 
   102   145   174   176                          total =    597
 
Diagonalization time [sec] :      14.19
 
  SPIN DOWN
 Number of converged eigen-pairs per representation: 
     2     3     3     3                          total =     11
 Number of matrix-vector multiplications: 
    78    97   110   157                          total =    442
 Number of converged eigen-pairs per representation: 
     4     3     3     3                          total =     13
 Number of matrix-vector multiplications: 
   141     0     0     0                          total =    141
 
Diagonalization time [sec] :      13.86
 
 
 Electrons in up, down spins:    4.00    4.00
 Net magnetic moment (in Bohr magnetons):    0.00
 
 Fermi level at    -0.6095 [Ry]
 
up State   Eigenvalue [Ry]      Eigenvalue [eV]    Occup.     Repr.
 
    1        -1.2002615210       -16.3305182018    1.0000        1
    2        -0.8317706739       -11.3169054345    1.0000        4
    3        -0.8317706692       -11.3169053714    1.0000        3
    4        -0.8317706666       -11.3169053360    1.0000        2
    5        -0.0860831171        -1.1712296742    0.0000        2
    6        -0.0860831111        -1.1712295932    0.0000        4
    7        -0.0860831045        -1.1712295033    0.0000        3
    8        -0.0827545627        -1.1259420287    0.0000        1
 
dn State   Eigenvalue [Ry]      Eigenvalue [eV]    Occup.     Repr.
 
    1        -1.0265452809       -13.9669697830    1.0000        1
    2        -0.6584341050        -8.9585227462    1.0000        3
    3        -0.6584340942        -8.9585225986    1.0000        4
    4        -0.6584340851        -8.9585224753    1.0000        2
    5        -0.0255283260        -0.3473332982    0.0000        1
    6        -0.0187254159        -0.2547742635    0.0000        3
    7        -0.0187254130        -0.2547742244    0.0000        2
    8        -0.0187254128        -0.2547742216    0.0000        4

 Max and min values of charge density [e/bohr^3]  0.1135E+00  0.3388E-09   up

 Max and min values of charge density [e/bohr^3]  0.9808E-01  0.1303E-08   dn
 
Hartree potential time [sec]:       1.31
 
 
   Eigenvalue Energy             =          -6.69742110 [Ry]
   Hartree Energy                =          22.56347561 [Ry]
   Integral_{Vxc*rho}            =          -6.55201733 [Ry]
   Exc = Integral{eps_xc*rho}    =          -5.01904383 [Ry]
   Electron-Ion energy           =         -51.50517501 [Ry]
   Ion-Ion Energy                =          14.03753127 [Ry]
   (E(new)-E(old))/atom  =            -0.06596150 [eV]
 
   Total Energy =           -12.43248502 [Ry]
   Energy/atom  =           -33.83078094 [eV]
 
 
  0- 2 up SRE of pot. & charge weighted pot =   1.8061263922    0.2578927205

 
  0- 2 dn SRE of pot. & charge weighted pot =   1.1201382900    0.0763768519

  SPIN UP
 Number of converged eigen-pairs per representation: 
     2     3     3     3                          total =     11
 Number of matrix-vector multiplications: 
    72   173   181   227                          total =    653
 Number of converged eigen-pairs per representation: 
     4     3     3     3                          total =     13
 Number of matrix-vector multiplications: 
   163     0     0     0                          total =    163
 
Diagonalization time [sec] :      19.55
 
  SPIN DOWN
 Number of converged eigen-pairs per representation: 
     3     3     3     2                          total =     11
 Number of matrix-vector multiplications: 
   103   113   148    86                          total =    450
 Number of converged eigen-pairs per representation: 
     3     3     3     4                          total =     13
 Number of matrix-vector multiplications: 
     0     0     0   131                          total =    131
 
Diagonalization time [sec] :      13.84
 
 
 Electrons in up, down spins:    4.00    4.00
 Net magnetic moment (in Bohr magnetons):    0.00
 
 Fermi level at    -0.4940 [Ry]
 
up State   Eigenvalue [Ry]      Eigenvalue [eV]    Occup.     Repr.
 
    1        -1.0155574501       -13.8174715543    1.0000        1
    2        -0.6522866645        -8.8748819001    1.0000        2
    3        -0.6522866560        -8.8748817839    1.0000        4
    4        -0.6522866392        -8.8748815563    1.0000        3
    5         0.0030423131         0.0413931041    0.0000        1
    6         0.0177132681         0.2410031831    0.0000        2
    7         0.0177132855         0.2410034194    0.0000        3
    8         0.0177132868         0.2410034379    0.0000        4
 
dn State   Eigenvalue [Ry]      Eigenvalue [eV]    Occup.     Repr.
 
    1        -0.9688374875       -13.1818090875    1.0000        1
    2        -0.6051307492        -8.2332879477    1.0000        2
    3        -0.6051307259        -8.2332876309    1.0000        4
    4        -0.6051306859        -8.2332870861    1.0000        3
    5         0.0112975859         0.1537126947    0.0000        1
    6         0.0275157422         0.3743736852    0.0000        4
    7         0.0275157427         0.3743736922    0.0000        3
    8         0.0275157440         0.3743737091    0.0000        2

 Max and min values of charge density [e/bohr^3]  0.1028E+00  0.9910E-09   up

 Max and min values of charge density [e/bohr^3]  0.9675E-01  0.1518E-08   dn
 
Hartree potential time [sec]:       1.29
 
 
   Eigenvalue Energy             =          -5.75664706 [Ry]
   Hartree Energy                =          22.17741025 [Ry]
   Integral_{Vxc*rho}            =          -6.42378990 [Ry]
   Exc = Integral{eps_xc*rho}    =          -4.92158623 [Ry]
   Electron-Ion energy           =         -50.92081471 [Ry]
   Ion-Ion Energy                =          14.03753127 [Ry]
   (E(new)-E(old))/atom  =            -0.04615856 [eV]
 
   Total Energy =           -12.44944785 [Ry]
   Energy/atom  =           -33.87693951 [eV]
 
 
  0- 3 up SRE of pot. & charge weighted pot =   0.1345450386    0.0229300341

 
  0- 3 dn SRE of pot. & charge weighted pot =   0.2113403781    0.0356062809

  SPIN UP
 Number of converged eigen-pairs per representation: 
     3     3     3     2                          total =     11
 Number of matrix-vector multiplications: 
    74    90    90    63                          total =    317
 
Diagonalization time [sec] :       7.27
 
  SPIN DOWN
 Number of converged eigen-pairs per representation: 
     3     2     3     3                          total =     11
 Number of matrix-vector multiplications: 
   107    62    91   132                          total =    392
 Number of converged eigen-pairs per representation: 
     3     4     3     3                          total =     13
 Number of matrix-vector multiplications: 
     0    95     0     0                          total =     95
 
Diagonalization time [sec] :      11.48
 
 
 Electrons in up, down spins:    4.00    4.00
 Net magnetic moment (in Bohr magnetons):    0.00
 
 Fermi level at    -0.4930 [Ry]
 
up State   Eigenvalue [Ry]      Eigenvalue [eV]    Occup.     Repr.
 
    1        -1.0073427415       -13.7057038727    1.0000        1
    2        -0.6396454818        -8.7028884969    1.0000        3
    3        -0.6396454390        -8.7028879146    1.0000        4
    4        -0.6396454387        -8.7028879093    1.0000        2
    5         0.0049503676         0.0673537116    0.0000        1
    6         0.0203851473         0.2773562372    0.0000        2
    7         0.0203851548         0.2773563386    0.0000        3
    8         0.0203851849         0.2773567482    0.0000        4
 
dn State   Eigenvalue [Ry]      Eigenvalue [eV]    Occup.     Repr.
 
    1        -0.9934852044       -13.5171609944    1.0000        1
    2        -0.6251530388        -8.5057072148    1.0000        4
    3        -0.6251530243        -8.5057070183    1.0000        3
    4        -0.6251530020        -8.5057067147    1.0000        2
    5         0.0059919309         0.0815250140    0.0000        1
    6         0.0214214419         0.2914558541    0.0000        2
    7         0.0214214720         0.2914562633    0.0000        3
    8         0.0214214753         0.2914563093    0.0000        4

 Max and min values of charge density [e/bohr^3]  0.1008E+00  0.1105E-08   up

 Max and min values of charge density [e/bohr^3]  0.9842E-01  0.1275E-08   dn
 
Hartree potential time [sec]:       1.33
 
 
   Eigenvalue Energy             =          -5.79522337 [Ry]
   Hartree Energy                =          22.25472040 [Ry]
   Integral_{Vxc*rho}            =          -6.43323298 [Ry]
   Exc = Integral{eps_xc*rho}    =          -4.92881192 [Ry]
   Electron-Ion energy           =         -51.01531190 [Ry]
   Ion-Ion Energy                =          14.03753127 [Ry]
   (E(new)-E(old))/atom  =            -0.00430340 [eV]
 
   Total Energy =           -12.45102930 [Ry]
   Energy/atom  =           -33.88124290 [eV]
 
 
  0- 4 up SRE of pot. & charge weighted pot =   0.0916428437    0.0159304844

 
  0- 4 dn SRE of pot. & charge weighted pot =   0.0771483569    0.0066200751

  SPIN UP
 Number of converged eigen-pairs per representation: 
     3     3     3     2                          total =     11
 Number of matrix-vector multiplications: 
    69    86    82    63                          total =    300
 Number of converged eigen-pairs per representation: 
     3     3     3     4                          total =     13
 Number of matrix-vector multiplications: 
     0     0     0   117                          total =    117
 
Diagonalization time [sec] :       9.73
 
  SPIN DOWN
 Number of converged eigen-pairs per representation: 
     3     3     3     2                          total =     11
 Number of matrix-vector multiplications: 
    68    87    85    53                          total =    293
 
Diagonalization time [sec] :       6.68
 
 
 Electrons in up, down spins:    4.00    4.00
 Net magnetic moment (in Bohr magnetons):    0.00
 
 Fermi level at    -0.4808 [Ry]
 
up State   Eigenvalue [Ry]      Eigenvalue [eV]    Occup.     Repr.
 
    1        -0.9897416907       -13.4662274952    1.0000        1
    2        -0.6237611454        -8.4867693916    1.0000        3
    3        -0.6237611246        -8.4867691088    1.0000        4
    4        -0.6237611174        -8.4867690111    1.0000        2
    5         0.0110507098         0.1503537480    0.0000        1
    6         0.0281293848         0.3827227842    0.0000        4
    7         0.0281294050         0.3827230582    0.0000        2
    8         0.0281294061         0.3827230735    0.0000        3
 
dn State   Eigenvalue [Ry]      Eigenvalue [eV]    Occup.     Repr.
 
    1        -0.9886237153       -13.4510165456    1.0000        1
    2        -0.6220124026        -8.4629763475    1.0000        4
    3        -0.6220123833        -8.4629760851    1.0000        3
    4        -0.6220123805        -8.4629760471    1.0000        2
    5         0.0094440265         0.1284935351    0.0000        1
    6         0.0258727949         0.3520200734    0.0000        2
    7         0.0258728053         0.3520202143    0.0000        3
    8         0.0258728143         0.3520203368    0.0000        4

 Max and min values of charge density [e/bohr^3]  0.9974E-01  0.1226E-08   up

 Max and min values of charge density [e/bohr^3]  0.9883E-01  0.1267E-08   dn
 
Hartree potential time [sec]:       1.32
 
 
   Eigenvalue Energy             =          -5.71568596 [Ry]
   Hartree Energy                =          22.20495364 [Ry]
   Integral_{Vxc*rho}            =          -6.42186845 [Ry]
   Exc = Integral{eps_xc*rho}    =          -4.92015808 [Ry]
   Electron-Ion energy           =         -50.94749061 [Ry]
   Ion-Ion Energy                =          14.03753127 [Ry]
   (E(new)-E(old))/atom  =            -0.00056376 [eV]
 
   Total Energy =           -12.45123648 [Ry]
   Energy/atom  =           -33.88180666 [eV]
 
 
  0- 5 up SRE of pot. & charge weighted pot =   0.0900107550    0.0084918450

 
  0- 5 dn SRE of pot. & charge weighted pot =   0.0648585088    0.0107016258

  SPIN UP
 Number of converged eigen-pairs per representation: 
     3     3     2     3                          total =     11
 Number of matrix-vector multiplications: 
    56    70    40    75                          total =    241
 Number of converged eigen-pairs per representation: 
     3     3     4     3                          total =     13
 Number of matrix-vector multiplications: 
     0     0    81     0                          total =     81
 
Diagonalization time [sec] :       7.37
 
  SPIN DOWN
 Number of converged eigen-pairs per representation: 
     3     3     3     2                          total =     11
 Number of matrix-vector multiplications: 
    64    81    78    54                          total =    277
 
Diagonalization time [sec] :       6.28
 
 
 Electrons in up, down spins:    4.00    4.00
 Net magnetic moment (in Bohr magnetons):    0.00
 
 Fermi level at    -0.4863 [Ry]
 
up State   Eigenvalue [Ry]      Eigenvalue [eV]    Occup.     Repr.
 
    1        -0.9956777762       -13.5469926879    1.0000        1
    2        -0.6291218742        -8.5597063958    1.0000        4
    3        -0.6291218530        -8.5597061073    1.0000        3
    4        -0.6291218472        -8.5597060288    1.0000        2
    5         0.0074394561         0.1012197522    0.0000        1
    6         0.0236289622         0.3214909332    0.0000        4
    7         0.0236290205         0.3214917278    0.0000        3
    8         0.0236290241         0.3214917755    0.0000        2
 
dn State   Eigenvalue [Ry]      Eigenvalue [eV]    Occup.     Repr.
 
    1        -0.9963055393       -13.5555339065    1.0000        1
    2        -0.6294571088        -8.5642675316    1.0000        4
    3        -0.6294570781        -8.5642671135    1.0000        2
    4        -0.6294570775        -8.5642671053    1.0000        3
    5         0.0068982506         0.0938562180    0.0000        1
    6         0.0228767509         0.3112564970    0.0000        3
    7         0.0228767623         0.3112566524    0.0000        2
    8         0.0228768007         0.3112571747    0.0000        4

 Max and min values of charge density [e/bohr^3]  0.9975E-01  0.1199E-08   up

 Max and min values of charge density [e/bohr^3]  0.9959E-01  0.1202E-08   dn
 
Hartree potential time [sec]:       1.28
 
 
   Eigenvalue Energy             =          -5.76772015 [Ry]
   Hartree Energy                =          22.23246892 [Ry]
   Integral_{Vxc*rho}            =          -6.43067936 [Ry]
   Exc = Integral{eps_xc*rho}    =          -4.92686511 [Ry]
   Electron-Ion energy           =         -50.98914821 [Ry]
   Ion-Ion Energy                =          14.03753127 [Ry]
   (E(new)-E(old))/atom  =            -0.00017704 [eV]
 
   Total Energy =           -12.45130154 [Ry]
   Energy/atom  =           -33.88198370 [eV]
 
 
  0- 6 up SRE of pot. & charge weighted pot =   0.0053892095    0.0011085262

 
  0- 6 dn SRE of pot. & charge weighted pot =   0.0122497982    0.0011895260

  SPIN UP
 Number of converged eigen-pairs per representation: 
     3     2     3     3                          total =     11
 Number of matrix-vector multiplications: 
    44    35    49    53                          total =    181
 
Diagonalization time [sec] :       3.94
 
  SPIN DOWN
 Number of converged eigen-pairs per representation: 
     3     3     3     2                          total =     11
 Number of matrix-vector multiplications: 
    44    51    51    33                          total =    179
 
Diagonalization time [sec] :       3.85
 
 
 Electrons in up, down spins:    4.00    4.00
 Net magnetic moment (in Bohr magnetons):    0.00
 
 Fermi level at    -0.4854 [Ry]
 
up State   Eigenvalue [Ry]      Eigenvalue [eV]    Occup.     Repr.
 
    1        -0.9946185861       -13.5325815583    1.0000        1
    2        -0.6280111671        -8.5445943372    1.0000        3
    3        -0.6280111372        -8.5445939303    1.0000        2
    4        -0.6280111271        -8.5445937932    1.0000        4
    5         0.0078683766         0.1070555577    0.0000        1
    6         0.0241190837         0.3281594288    0.0000        4
    7         0.0241191050         0.3281597186    0.0000        3
    8         0.0241191175         0.3281598883    0.0000        2
 
dn State   Eigenvalue [Ry]      Eigenvalue [eV]    Occup.     Repr.
 
    1        -0.9948786181       -13.5361195025    1.0000        1
    2        -0.6281104085        -8.5459445966    1.0000        3
    3        -0.6281104084        -8.5459445941    1.0000        4
    4        -0.6281104054        -8.5459445535    1.0000        2
    5         0.0076023215         0.1034356660    0.0000        1
    6         0.0237444581         0.3230623479    0.0000        2
    7         0.0237444754         0.3230625832    0.0000        3
    8         0.0237444938         0.3230628344    0.0000        4

 Max and min values of charge density [e/bohr^3]  0.9963E-01  0.1210E-08   up

 Max and min values of charge density [e/bohr^3]  0.9954E-01  0.1212E-08   dn
 
Hartree potential time [sec]:       1.30
 
 
   Eigenvalue Energy             =          -5.75786186 [Ry]
   Hartree Energy                =          22.22762314 [Ry]
   Integral_{Vxc*rho}            =          -6.42885334 [Ry]
   Exc = Integral{eps_xc*rho}    =          -4.92547560 [Ry]
   Electron-Ion energy           =         -50.98135822 [Ry]
   Ion-Ion Energy                =          14.03753127 [Ry]
   (E(new)-E(old))/atom  =            -0.00000232 [eV]
 
   Total Energy =           -12.45130239 [Ry]
   Energy/atom  =           -33.88198602 [eV]
 
 
  0- 7 up SRE of pot. & charge weighted pot =   0.0097274377    0.0009928085

 
  0- 7 dn SRE of pot. & charge weighted pot =   0.0055151136    0.0008880720

  SPIN UP
 Number of converged eigen-pairs per representation: 
     3     2     3     3                          total =     11
 Number of matrix-vector multiplications: 
    39    28    46    49                          total =    162
 
Diagonalization time [sec] :       3.44
 
  SPIN DOWN
 Number of converged eigen-pairs per representation: 
     3     3     3     2                          total =     11
 Number of matrix-vector multiplications: 
    40    47    46    32                          total =    165
 Number of converged eigen-pairs per representation: 
     3     3     3     4                          total =     13
 Number of matrix-vector multiplications: 
     0     0     0    75                          total =     75
 
Diagonalization time [sec] :       5.29
 
 
 Electrons in up, down spins:    4.00    4.00
 Net magnetic moment (in Bohr magnetons):    0.00
 
 Fermi level at    -0.4859 [Ry]
 
up State   Eigenvalue [Ry]      Eigenvalue [eV]    Occup.     Repr.
 
    1        -0.9953314673       -13.5422808775    1.0000        1
    2        -0.6286084327        -8.5527206135    1.0000        3
    3        -0.6286084108        -8.5527203153    1.0000        2
    4        -0.6286083810        -8.5527199109    1.0000        4
    5         0.0074702478         0.1016386973    0.0000        1
    6         0.0236039843         0.3211510899    0.0000        3
    7         0.0236039888         0.3211511505    0.0000        4
    8         0.0236039927         0.3211512038    0.0000        2
 
dn State   Eigenvalue [Ry]      Eigenvalue [eV]    Occup.     Repr.
 
    1        -0.9953574224       -13.5426340171    1.0000        1
    2        -0.6285707170        -8.5522074607    1.0000        3
    3        -0.6285707158        -8.5522074444    1.0000        2
    4        -0.6285707119        -8.5522073915    1.0000        4
    5         0.0074708329         0.1016466585    0.0000        1
    6         0.0235949856         0.3210286549    0.0000        2
    7         0.0235949956         0.3210287911    0.0000        4
    8         0.0235949987         0.3210288337    0.0000        3

 Max and min values of charge density [e/bohr^3]  0.9961E-01  0.1205E-08   up

 Max and min values of charge density [e/bohr^3]  0.9960E-01  0.1205E-08   dn
 
Hartree potential time [sec]:       1.41
 
 
   Eigenvalue Energy             =          -5.76222626 [Ry]
   Hartree Energy                =          22.23009848 [Ry]
   Integral_{Vxc*rho}            =          -6.42950006 [Ry]
   Exc = Integral{eps_xc*rho}    =          -4.92596807 [Ry]
   Electron-Ion energy           =         -50.98486353 [Ry]
   Ion-Ion Energy                =          14.03753127 [Ry]
   (E(new)-E(old))/atom  =            -0.00000178 [eV]
 
   Total Energy =           -12.45130305 [Ry]
   Energy/atom  =           -33.88198780 [eV]
 
 
  0- 8 up SRE of pot. & charge weighted pot =   0.0003329377    0.0000443269

 
  0- 8 dn SRE of pot. & charge weighted pot =   0.0003562873    0.0000580121

 
Time for self-consistent field [sec] :     182.57
 
Total charge (user input) [e] =   0.00000000
Total charge (computed) [e] =   0.00000000
 Dipole components [Debye]:
x-component =   0.00000000
y-component =   0.00000000
z-component =   0.00000000
 
 Coordinates, forces, torque
 ============================
 
  symmetrizing forces according to symmetry operations 
             total (net) force [Ry/bohr]:      0.000000    0.000000    0.000000
 
 coordinates and total forces (after setting net force to zero)
-atom-  ----x----   ----y----   ----z-----   ----Fx----  ----Fy----   ----Fz---
                       [bohr]                             [Ry/bohr]            
 
   1     0.000000    0.000000    0.000000      0.000000    0.000000    0.000000
   2     1.618365    1.618365    1.618365     -0.001787   -0.001787   -0.001787
   3    -1.618365   -1.618365    1.618365      0.001787    0.001787   -0.001787
   4    -1.618365    1.618365   -1.618365      0.001787   -0.001787    0.001787
   5     1.618365   -1.618365   -1.618365     -0.001787    0.001787    0.001787
 
total torque [Ry/radian] :     0.000000    0.000000    0.000000
 
 
Time for movement    0 is [sec]:     182.80
 
 =================================================================
 
 
 Total CPU time [sec] :     184.54
Wall-clock time [sec] :     184.55
 Current date/time: 10-OCT-2006 13:07:28 -0400 UTC
 
 =================================================================
 
