 
 =================================================================
 
  PARSEC 1.1 - Real-space DFT Program
 
  serial run, no MPI interface
  starting run on 11-OCT-2006 11:21:13 -0400 UTC
 
 =================================================================
 
 Initial Run - starting from atomic potentials
 
 Grid data:
 ----------
 Confined system with zero boundary condition!
 Boundary sphere size is   5.669181 bohrs
 Grid spacing is  0.661404 bohrs
 
 Grid points are shifted from origin! 
 shift vector =   0.5000  0.5000  0.5000   [units of grid spacing]
 Finite-difference expansion of order 12
 
 Eigenvalue data: 
 ---------------- 
 Number of states:            8
Net cluster charge:    0.000
 
 Fermi temperature =   80.0 [K]
 
 Self-consistency data: 
 ----------------------
 Max number of iterations is           50
 Using DIAGLA (block preconditioned Lanczos eigen-problem solver)
 
 Self-consistency convergence criterion is  0.00020 Ry
 Diagonalization tolerance is 0.10000E-03
 Tolerance in initial diagonalization  100.000
 Buffer size in subspace is      1
 
 Mixer data:
 -----------
 Anderson mixer
 Initial Jacobian:  0.300  Mixing memory is  4
 
 Atom data:
 ----------

Total # of atom types is     2

 Atom coordinates input in angstroms
 
 There are   1 Si atoms
 and their initial coordinates are:
 
    x [bohr]          y [bohr]          z [bohr]     movable?
    0.000000000       0.000000000       0.000000000      1
 There are   4 H  atoms
 and their initial coordinates are:
 
    x [bohr]          y [bohr]          z [bohr]     movable?
    1.627432787       1.627432787       1.627432787      1
   -1.627432787      -1.627432787       1.627432787      1
   -1.627432787       1.627432787      -1.627432787      1
    1.627432787      -1.627432787      -1.627432787      1
 
 Total number of atoms =    5
 
 Correlation data:
 -----------------
 Exchange-Correlation functional is ca
 LDA, Ceperley-Alder, Perdew-Zunger parametrization
 
 Other input data:
 -----------------
No spin effects!

 
 Using new (r*V_ps) interpolation of pseudopot. !
 
 No eigenvalue output File!
 OutEvFlag =            0
 
 No minimization!
 
 No molecular dynamics!
 
 No polarizability!
 
 
 
 Pseudopotential messages
 ------------------------
 
 Pseudopotential file for atom type  1 is Si_POTRE.DAT

Si  ca  nrl  nc  
  ATM3      30-JUN- 4 Troullier-Martins
 3s 1.50  r= 2.69/3p 2.50  r= 3.82/

 ion charge =  4.000    
 logarithmic parameters of pseudopot. radial grid
 r(i) = a*[Exp(b(i-1)) - 1)]
 Si:   a = 0.177054E-03  b = 0.100000E-01    nr =     1343

NOTICE: No Core-Correction !

 Occupancy of orbitals : 
   1.500   2.500
 # of pseudopot= 2, Local component is l = 1, Core radius=  3.82
 
 Pseudopotential file for atom type  2 is H_POTRE.DAT

H   ca  nrl  nc  
  ATM3      30-JUN- 4 Troullier-Martins
 1s 1.00  r= 1.99/

 ion charge =  1.000    
 logarithmic parameters of pseudopot. radial grid
 r(i) = a*[Exp(b(i-1)) - 1)]
 H :   a = 0.247875E-02  b = 0.100000E-01    nr =     1079

NOTICE: No Core-Correction !

 Occupancy of orbitals : 
   1.000
 # of pseudopot= 1, Local component is l = 0, Core radius=  1.99
 
 Using order          18 for calculating dV/dr in pseudo
 
 Normalization check and Kleinman-Bylander Integral
 
                                 s                 p                 d
  Si   Normalization        1.00001666        1.00001681
  Si   K-B Integral         0.23676376       -3.29274804
 
  H    Normalization        1.00001673
  H    K-B Integral        -1.76269563
 

 Symmetry Properties:
 --------------------

 The space group of the crystal is symmorphic
 (this usually means that symmetry operations do not
 involve rotations and translations simultaneously)

 Operation number: 
       1  2  3  4  5  6  7  8  9 10 11 12
      37 38 39 40 41 42 43 44 45 46 47 48


    Rotation matrices (r-lattice) and fractional translations (r-lattice)

    1     1  0  0     0  1  0     0  0  1      0.00000  0.00000  0.00000   E  
    2     1  0  0     0 -1  0     0  0 -1      0.00000  0.00000  0.00000   C2 
    3    -1  0  0     0  1  0     0  0 -1      0.00000  0.00000  0.00000   C2 
    4    -1  0  0     0 -1  0     0  0  1      0.00000  0.00000  0.00000   C2 
    5     0  0  1     1  0  0     0  1  0      0.00000  0.00000  0.00000   C3 
    6     0  0 -1     1  0  0     0 -1  0      0.00000  0.00000  0.00000   C3 
    7     0  0 -1    -1  0  0     0  1  0      0.00000  0.00000  0.00000   C3 
    8     0  0  1    -1  0  0     0 -1  0      0.00000  0.00000  0.00000   C3 
    9     0  1  0     0  0  1     1  0  0      0.00000  0.00000  0.00000   C3 
   10     0 -1  0     0  0 -1     1  0  0      0.00000  0.00000  0.00000   C3 
   11     0  1  0     0  0 -1    -1  0  0      0.00000  0.00000  0.00000   C3 
   12     0 -1  0     0  0  1    -1  0  0      0.00000  0.00000  0.00000   C3 
   13     0  1  0     1  0  0     0  0  1      0.00000  0.00000  0.00000   IC2
   14     0 -1  0     1  0  0     0  0 -1      0.00000  0.00000  0.00000   IC4
   15     0  1  0    -1  0  0     0  0 -1      0.00000  0.00000  0.00000   IC4
   16     0 -1  0    -1  0  0     0  0  1      0.00000  0.00000  0.00000   IC2
   17     1  0  0     0  0  1     0  1  0      0.00000  0.00000  0.00000   IC2
   18     1  0  0     0  0 -1     0 -1  0      0.00000  0.00000  0.00000   IC2
   19    -1  0  0     0  0 -1     0  1  0      0.00000  0.00000  0.00000   IC4
   20    -1  0  0     0  0  1     0 -1  0      0.00000  0.00000  0.00000   IC4
   21     0  0  1     0  1  0     1  0  0      0.00000  0.00000  0.00000   IC2
   22     0  0 -1     0 -1  0     1  0  0      0.00000  0.00000  0.00000   IC4
   23     0  0 -1     0  1  0    -1  0  0      0.00000  0.00000  0.00000   IC2
   24     0  0  1     0 -1  0    -1  0  0      0.00000  0.00000  0.00000   IC4
 
  Found Abelian subgroup D_2   with            4  symmetry operations
 
  Character table :
----------------------------------------
 Representation  |     E   C2   C2   C2
     A       1   |     1    1    1    1
     B1      2   |     1    1   -1   -1
     B2      3   |     1   -1    1   -1
     B3      4   |     1   -1   -1    1
----------------------------------------
 Operation number:     1    2    3    4
 
 
 Setup messages:
 ---------------
 The Hamiltonian matrix size is        2608
  reduced size is          652
  maximum distance between grid points and their images is
   0.000      [bohr]
 
 There are 36 laplacian-related non-diagonal elements per row
 
 Non-local pseudopotential messages:
 -----------------------------------
 Max # of nonlocal points for one atom =          840
 
 Sizes of all non-local blocks 
   840   108   108   108   108
 
 
 Memory usage:
 -------------
 estimated memory usage (no MPI)  :     1.07 MB
 
 total electrons from atomic density is     7.82095
 total electrons from atomic density is     8.00000

 Max and min values of charge density [e/bohr^3]  0.1308E+00  0.2673E-03     
 
Hartree potential time [sec]:       0.03
 
 
Setup time [sec] :       0.07
 
 -----------------------------------------------------------------
 
 Number of converged eigen-pairs per representation: 
     3     3     3     3                          total =     12
 Number of matrix-vector multiplications: 
    76    96    95   110                          total =    377
 
Diagonalization time [sec] :       0.33
 
 Fermi level at    -0.5130 [Ry]
 
   State   Eigenvalue [Ry]      Eigenvalue [eV]    Occup.     Repr.
 
    1        -1.1501044791       -15.6480915214    1.0000        1
    2        -0.7759405007       -10.5572912640    1.0000        4
    3        -0.7759405007       -10.5572912640    1.0000        2
    4        -0.7759405007       -10.5572912640    1.0000        3
    5         0.0115114600         0.1566226227    0.0000        4
    6         0.0115114601         0.1566226232    0.0000        2
    7         0.0115114601         0.1566226233    0.0000        3
    8         0.1241776931         1.6895368563    0.0000        1

 Max and min values of charge density [e/bohr^3]  0.1959E+00  0.4292E-05     
 
Hartree potential time [sec]:       0.03
 
 
   Eigenvalue Energy             =          -6.95585196 [Ry]
   Hartree Energy                =          23.28798327 [Ry]
   Integral_{Vxc*rho}            =          -6.80206651 [Ry]
   Exc = Integral{eps_xc*rho}    =          -5.21216587 [Ry]
   Electron-Ion energy           =         -52.43457366 [Ry]
   Ion-Ion Energy                =          13.95931646 [Ry]
   (E(new)-E(old))/atom  =           -71.40715694 [eV]
 
   Total Energy =           -12.28212356 [Ry]
   Energy/atom  =           -33.42162335 [eV]
 
 
  0- 1    SRE of pot. & charge weighted pot =   2.2792991075    0.3198421096

 Number of converged eigen-pairs per representation: 
     2     3     3     3                          total =     11
 Number of matrix-vector multiplications: 
    39    64    68    79                          total =    250
 
Diagonalization time [sec] :       0.20
 
 Fermi level at    -0.4289 [Ry]
 
   State   Eigenvalue [Ry]      Eigenvalue [eV]    Occup.     Repr.
 
    1        -1.0576385178       -14.3900181459    1.0000        1
    2        -0.6868138362        -9.3446516927    1.0000        3
    3        -0.6868138347        -9.3446516717    1.0000        2
    4        -0.6868138340        -9.3446516631    1.0000        4
    5         0.0782055681         1.0640493181    0.0000        4
    6         0.0782055691         1.0640493315    0.0000        2
    7         0.0782055693         1.0640493346    0.0000        3
    8         0.1997827789         2.7182045329    0.0000        1

 Max and min values of charge density [e/bohr^3]  0.1914E+00  0.5086E-05     
 
Hartree potential time [sec]:       0.03
 
 
   Eigenvalue Energy             =          -6.23616005 [Ry]
   Hartree Energy                =          23.04839740 [Ry]
   Integral_{Vxc*rho}            =          -6.72200735 [Ry]
   Exc = Integral{eps_xc*rho}    =          -5.15122254 [Ry]
   Electron-Ion energy           =         -52.07422579 [Ry]
   Ion-Ion Energy                =          13.95931646 [Ry]
   (E(new)-E(old))/atom  =            -0.05875381 [eV]
 
   Total Energy =           -12.30371502 [Ry]
   Energy/atom  =           -33.48037716 [eV]
 
 
  0- 2    SRE of pot. & charge weighted pot =   1.4115036730    0.1924559565

 Number of converged eigen-pairs per representation: 
     2     3     3     3                          total =     11
 Number of matrix-vector multiplications: 
    38    70    76    81                          total =    265
 
Diagonalization time [sec] :       0.22
 
 Fermi level at    -0.2986 [Ry]
 
   State   Eigenvalue [Ry]      Eigenvalue [eV]    Occup.     Repr.
 
    1        -0.9149391291       -12.4484788030    1.0000        1
    2        -0.5471737147        -7.4447361273    1.0000        4
    3        -0.5471736788        -7.4447356396    1.0000        3
    4        -0.5471736039        -7.4447346201    1.0000        2
    5         0.1813483110         2.4673888504    0.0000        3
    6         0.1813483216         2.4673889945    0.0000        2
    7         0.1813483279         2.4673890803    0.0000        4
    8         0.3176655798         4.3220943450    0.0000        1

 Max and min values of charge density [e/bohr^3]  0.1824E+00  0.6664E-05     
 
Hartree potential time [sec]:       0.03
 
 
   Eigenvalue Energy             =          -5.11292025 [Ry]
   Hartree Energy                =          22.68539075 [Ry]
   Integral_{Vxc*rho}            =          -6.59050411 [Ry]
   Exc = Integral{eps_xc*rho}    =          -5.05111843 [Ry]
   Electron-Ion energy           =         -51.49847682 [Ry]
   Ion-Ion Energy                =          13.95931646 [Ry]
   (E(new)-E(old))/atom  =            -0.03398827 [eV]
 
   Total Energy =           -12.31620538 [Ry]
   Energy/atom  =           -33.51436544 [eV]
 
 
  0- 3    SRE of pot. & charge weighted pot =   0.1118592721    0.0094970084

 Number of converged eigen-pairs per representation: 
     2     3     3     3                          total =     11
 Number of matrix-vector multiplications: 
    25    49    48    55                          total =    177
 
Diagonalization time [sec] :       0.14
 
 Fermi level at    -0.2989 [Ry]
 
   State   Eigenvalue [Ry]      Eigenvalue [eV]    Occup.     Repr.
 
    1        -0.9162855866       -12.4667984335    1.0000        1
    2        -0.5452989081        -7.4192278839    1.0000        4
    3        -0.5452988749        -7.4192274327    1.0000        3
    4        -0.5452988312        -7.4192268373    1.0000        2
    5         0.1820658718         2.4771518384    0.0000        3
    6         0.1820658809         2.4771519624    0.0000        2
    7         0.1820658901         2.4771520871    0.0000        4
    8         0.3184619430         4.3329295038    0.0000        1

 Max and min values of charge density [e/bohr^3]  0.1804E+00  0.6685E-05     
 
Hartree potential time [sec]:       0.03
 
 
   Eigenvalue Energy             =          -5.10436440 [Ry]
   Hartree Energy                =          22.71851170 [Ry]
   Integral_{Vxc*rho}            =          -6.58834580 [Ry]
   Exc = Integral{eps_xc*rho}    =          -5.04948774 [Ry]
   Electron-Ion energy           =         -51.52918870 [Ry]
   Ion-Ion Energy                =          13.95931646 [Ry]
   (E(new)-E(old))/atom  =            -0.00062253 [eV]
 
   Total Energy =           -12.31643415 [Ry]
   Energy/atom  =           -33.51498796 [eV]
 
 
  0- 4    SRE of pot. & charge weighted pot =   0.0267612784    0.0026889689

 Number of converged eigen-pairs per representation: 
     2     3     3     3                          total =     11
 Number of matrix-vector multiplications: 
    20    41    42    41                          total =    144
 
Diagonalization time [sec] :       0.11
 
 Fermi level at    -0.2956 [Ry]
 
   State   Eigenvalue [Ry]      Eigenvalue [eV]    Occup.     Repr.
 
    1        -0.9123380619       -12.4130892028    1.0000        1
    2        -0.5423570747        -7.3792018871    1.0000        4
    3        -0.5423570124        -7.3792010393    1.0000        3
    4        -0.5423569992        -7.3792008603    1.0000        2
    5         0.1847753977         2.5140171055    0.0000        3
    6         0.1847754003         2.5140171413    0.0000        4
    7         0.1847754045         2.5140171987    0.0000        2
    8         0.3212074964         4.3702849538    0.0000        1

 Max and min values of charge density [e/bohr^3]  0.1808E+00  0.6701E-05     
 
Hartree potential time [sec]:       0.03
 
 
   Eigenvalue Energy             =          -5.07881830 [Ry]
   Hartree Energy                =          22.70265996 [Ry]
   Integral_{Vxc*rho}            =          -6.58685097 [Ry]
   Exc = Integral{eps_xc*rho}    =          -5.04834567 [Ry]
   Electron-Ion energy           =         -51.51082448 [Ry]
   Ion-Ion Energy                =          13.95931646 [Ry]
   (E(new)-E(old))/atom  =            -0.00002419 [eV]
 
   Total Energy =           -12.31644305 [Ry]
   Energy/atom  =           -33.51501216 [eV]
 
 
  0- 5    SRE of pot. & charge weighted pot =   0.0296814058    0.0045111727

 Number of converged eigen-pairs per representation: 
     2     3     3     3                          total =     11
 Number of matrix-vector multiplications: 
    20    39    41    43                          total =    143
 
Diagonalization time [sec] :       0.11
 
 Fermi level at    -0.2984 [Ry]
 
   State   Eigenvalue [Ry]      Eigenvalue [eV]    Occup.     Repr.
 
    1        -0.9155667055       -12.4570174817    1.0000        1
    2        -0.5452723589        -7.4188666604    1.0000        4
    3        -0.5452723164        -7.4188660819    1.0000        3
    4        -0.5452723151        -7.4188660651    1.0000        2
    5         0.1826118154         2.4845798381    0.0000        3
    6         0.1826118172         2.4845798629    0.0000        4
    7         0.1826118199         2.4845798988    0.0000        2
    8         0.3186948831         4.3360988407    0.0000        1

 Max and min values of charge density [e/bohr^3]  0.1809E+00  0.6660E-05     
 
Hartree potential time [sec]:       0.03
 
 
   Eigenvalue Energy             =          -5.10276739 [Ry]
   Hartree Energy                =          22.71360194 [Ry]
   Integral_{Vxc*rho}            =          -6.58976525 [Ry]
   Exc = Integral{eps_xc*rho}    =          -5.05056512 [Ry]
   Electron-Ion energy           =         -51.52677404 [Ry]
   Ion-Ion Energy                =          13.95931646 [Ry]
   (E(new)-E(old))/atom  =            -0.00002901 [eV]
 
   Total Energy =           -12.31645371 [Ry]
   Energy/atom  =           -33.51504117 [eV]
 
 
  0- 6    SRE of pot. & charge weighted pot =   0.0011665174    0.0001990036

 
Time for self-consistent field [sec] :       1.29
 
Total charge (user input) [e] =   0.00000000
Total charge (computed) [e] =   0.00000000
 Dipole components [Debye]:
x-component =   0.00000000
y-component =   0.00000000
z-component =   0.00000000
 
 Coordinates, forces, torque
 ============================
 
  symmetrizing forces according to symmetry operations 
             total (net) force [Ry/bohr]:      0.000000    0.000000    0.000000
 
 coordinates and total forces (after setting net force to zero)
-atom-  ----x----   ----y----   ----z-----   ----Fx----  ----Fy----   ----Fz---
                       [bohr]                             [Ry/bohr]            
 
   1     0.000000    0.000000    0.000000      0.000000    0.000000    0.000000
   2     1.627433    1.627433    1.627433     -0.039957   -0.039957   -0.039957
   3    -1.627433   -1.627433    1.627433      0.039957    0.039957   -0.039957
   4    -1.627433    1.627433   -1.627433      0.039957   -0.039957    0.039957
   5     1.627433   -1.627433   -1.627433     -0.039957    0.039957    0.039957
 
total torque [Ry/radian] :     0.000000    0.000000    0.000000
 
 
Time for movement    0 is [sec]:       1.30
 
 =================================================================
 
 
 Total CPU time [sec] :       1.37
Wall-clock time [sec] :       1.39
 Current date/time: 11-OCT-2006 11:21:14 -0400 UTC
 
 =================================================================
 
