 
 =================================================================
 
  PARSEC 1.4_DEV - Real-space DFT Program
  under development - use at your own risk !!
  
 
  parallel run - using            1  PEs 

 starting run on 08-APR-2015 10:20:17 -0700 UTC

 =================================================================
 
 Initial Run - starting from atomic potentials
 ignoresym= F
 
 Grid data:
 ~~------~~
 
 Periodic boundary conditions!
 System is fully periodic 
 Unit lattice vectors [bohr] : 
  -2.8550000000    2.8550000000    2.8550000000
   2.8550000000   -2.8550000000    2.8550000000
   2.8550000000    2.8550000000   -2.8550000000
 
 User-provided grid spacing is  0.700000 bohrs
 WARNING: grid spacing may be rescaled below!!
 
 Grid points are shifted from origin! 
 shift vector =   0.0000  0.0000  0.0000   [units of grid spacing]
  Kpoint sampling is off.
  Calculation at gamma point
 WAVEFUNCTIONS ARE REAL!
 The Finite-difference expansion is of order 12

 Eigenvalue data: 
 ---------------- 
 Number of states:           10
 Net cluster charge =    0.000      [e] 
 
 Fermi temperature =     80.00 [K]
 
 Self-consistency data: 
 ----------------------
 Maximum number of iterations is           50
 Using Chebyshev-Davidson eigensolver
 Polynomial degree for Chebyshev-Davidson is     20
 The matvec operations are (mostly) called to with... 
 ... block size:            5
 Maximum number of communication buffers in matvec: (default)           2
 
 
 Performing Chebyshev subspace filtering
 Polynomial degree for Chebyshev filtering is     15
 Change in polynomial degree (dpm) for Chebyshev filtering is      3
 Performing Rayleigh-Ritz rotation on all SCF iterations
 
  Self-consistency convergence criterion is   2.000000000000000E-004  Ry
  Self-consistency convergence indicator is at  2.000000000000000E-002  Ry
 If applicable, Chebyshev polynomial order will decrease to 
 10 after SRE becomes less than the self-consistency 
 convergence indicator.
  Diagonalization tolerance is   1.000000000000000E-004
 Buffer size in subspace is      6

 
 Mixer data:
 -----------
 solver lpole is :            9
  Generalized Broyden mixer
 Initial Jacobian:  0.300  Mixing memory is  4
 Mixing restarted after           20  iterations
 
 Atom data:
 --~--~--~-

 Tot. # of atom types is     1

 Atom coordinates input in angstroms
 

 Chemical element : V
 martins_new                                                 
  pseudopotential format : new Martins
 There are      1 V  atoms
 and their initial coordinates are:
 
    x [bohr]          y [bohr]          z [bohr]     movable?
    0.000000000       0.000000000       0.000000000      1

 LDA+U parameters : U =      1.000 eV   J =      0.000 eV

 Tot. number of atoms =       1

 Correlation data:
 -----------------
 Exchange-Correlation functional is pl
 LDA, Perdew-Wang parametrization
 
 Other input data:
 -----------------
 Writing           10  selected wave functions to parsec.dat file:
     1     2     3     4     5     6     7     8     9    10
 
 Spin-polarized computation!

 Initial spin polarization: 
  V           0.2000
 
 
 Using new (r*V_ps) interpolation of pseudopot. !

 output level [1 - 6] =  3

 No eigenvalue output File!
 outevflag =            0
 
 No minimization!
 
 No molecular dynamics!
 No polarizability!
 


 Pseudopotential messages
 ------------------------

 Pseudopotential file for atom type  1 is V_POTRE.DAT
New Martins generator


V   ca  rel  nc  
  atom 5.69p09-APR-07   Improved Troullier - Martins potential
 4s(  2.00)r rc= 2.334p(  0.00)r rc= 2.683d(  3.00)r rc= 2.33

 *** warning in pseudo : correlation potential does not match
 ion charge =  5.000    
 
 logarithmic parameters of pseudopot. radial grid
 r(i) = a*Exp(b(i-1)) - c
 V :   a [bohr] = 0.107772E-03  b = 0.100000E-01  c [bohr] = 0.107772E-03

 NOTICE: No Core-Correction !

  RELATIVISTIC POTENTIALS : IGNORING SPIN-ORBIT PSEUDOPOTENTIAL COMPONENT
 Occupancy of orbitals : 
   2.000   0.000   3.000
 # of pseudopot= 3, Local component is l = 0, Core radius [bohr] =  2.70

 Using order          18 for calculating dV/dr in pseudo

 Normalization check and Kleinman-Bylander Integral

                                 s                 p                 d
  V    Normalization        1.00001390        1.00001314        1.00001183
  V    K-B Int. [Ry]        0.00000000        0.01190070       -6.93217383
 
 K-B Energy Integrals renormalized to unity
 

 Symmetry Properties:
 --------------------

 The point group of the system is the full        cubic group

 The space group of the crystal is symmorphic
 (this usually means that symmetry operations do not
 involve rotations and translations simultaneously)

 Operation number: 
       1  2  3  4  5  6  7  8  9 10 11 12
      13 14 15 16 17 18 19 20 21 22 23 24
      25 26 27 28 29 30 31 32 33 34 35 36
      37 38 39 40 41 42 43 44 45 46 47 48

   Multiplication table
    x   1   2   3   4   5   6   7   8   9  10  11  12  13  14  15  16  17  18  19  20  21  22  23  24
    1   1   2   3   4   5   6   7   8   9  10  11  12  13  14  15  16  17  18  19  20  21  22  23  24
    2   2   1   4   3   6   5   8   7  10   9  12  11  14  13  16  15  18  17  20  19  22  21  24  23
    3   3   4   1   2   7   8   5   6  11  12   9  10  15  16  13  14  19  20  17  18  23  24  21  22
    4   4   3   2   1   8   7   6   5  12  11  10   9  16  15  14  13  20  19  18  17  24  23  22  21
    5   5   8   6   7   9  12  10  11   1   4   2   3  17  20  18  19  21  24  22  23  13  16  14  15
    6   6   7   5   8  10  11   9  12   2   3   1   4  18  19  17  20  22  23  21  24  14  15  13  16
    7   7   6   8   5  11  10  12   9   3   2   4   1  19  18  20  17  23  22  24  21  15  14  16  13
    8   8   5   7   6  12   9  11  10   4   1   3   2  20  17  19  18  24  21  23  22  16  13  15  14
    9   9  11  12  10   1   3   4   2   5   7   8   6  21  23  24  22  13  15  16  14  17  19  20  18
   10  10  12  11   9   2   4   3   1   6   8   7   5  22  24  23  21  14  16  15  13  18  20  19  17
   11  11   9  10  12   3   1   2   4   7   5   6   8  23  21  22  24  15  13  14  16  19  17  18  20
   12  12  10   9  11   4   2   1   3   8   6   5   7  24  22  21  23  16  14  13  15  20  18  17  19
   13  13  15  14  16  21  23  22  24  17  19  18  20   1   3   2   4   9  11  10  12   5   7   6   8
   14  14  16  13  15  22  24  21  23  18  20  17  19   2   4   1   3  10  12   9  11   6   8   5   7
   15  15  13  16  14  23  21  24  22  19  17  20  18   3   1   4   2  11   9  12  10   7   5   8   6
   16  16  14  15  13  24  22  23  21  20  18  19  17   4   2   3   1  12  10  11   9   8   6   7   5
   17  17  18  20  19  13  14  16  15  21  22  24  23   5   6   8   7   1   2   4   3   9  10  12  11
   18  18  17  19  20  14  13  15  16  22  21  23  24   6   5   7   8   2   1   3   4  10   9  11  12
   19  19  20  18  17  15  16  14  13  23  24  22  21   7   8   6   5   3   4   2   1  11  12  10   9
   20  20  19  17  18  16  15  13  14  24  23  21  22   8   7   5   6   4   3   1   2  12  11   9  10
   21  21  24  23  22  17  20  19  18  13  16  15  14   9  12  11  10   5   8   7   6   1   4   3   2
   22  22  23  24  21  18  19  20  17  14  15  16  13  10  11  12   9   6   7   8   5   2   3   4   1
   23  23  22  21  24  19  18  17  20  15  14  13  16  11  10   9  12   7   6   5   8   3   2   1   4
   24  24  21  22  23  20  17  18  19  16  13  14  15  12   9  10  11   8   5   6   7   4   1   2   3
   25  25  26  27  28  29  30  31  32  33  34  35  36  37  38  39  40  41  42  43  44  45  46  47  48
   26  26  25  28  27  30  29  32  31  34  33  36  35  38  37  40  39  42  41  44  43  46  45  48  47
   27  27  28  25  26  31  32  29  30  35  36  33  34  39  40  37  38  43  44  41  42  47  48  45  46
   28  28  27  26  25  32  31  30  29  36  35  34  33  40  39  38  37  44  43  42  41  48  47  46  45
   29  29  32  30  31  33  36  34  35  25  28  26  27  41  44  42  43  45  48  46  47  37  40  38  39
   30  30  31  29  32  34  35  33  36  26  27  25  28  42  43  41  44  46  47  45  48  38  39  37  40
   31  31  30  32  29  35  34  36  33  27  26  28  25  43  42  44  41  47  46  48  45  39  38  40  37
   32  32  29  31  30  36  33  35  34  28  25  27  26  44  41  43  42  48  45  47  46  40  37  39  38
   33  33  35  36  34  25  27  28  26  29  31  32  30  45  47  48  46  37  39  40  38  41  43  44  42
   34  34  36  35  33  26  28  27  25  30  32  31  29  46  48  47  45  38  40  39  37  42  44  43  41
   35  35  33  34  36  27  25  26  28  31  29  30  32  47  45  46  48  39  37  38  40  43  41  42  44
   36  36  34  33  35  28  26  25  27  32  30  29  31  48  46  45  47  40  38  37  39  44  42  41  43
   37  37  39  38  40  45  47  46  48  41  43  42  44  25  27  26  28  33  35  34  36  29  31  30  32
   38  38  40  37  39  46  48  45  47  42  44  41  43  26  28  25  27  34  36  33  35  30  32  29  31
   39  39  37  40  38  47  45  48  46  43  41  44  42  27  25  28  26  35  33  36  34  31  29  32  30
   40  40  38  39  37  48  46  47  45  44  42  43  41  28  26  27  25  36  34  35  33  32  30  31  29
   41  41  42  44  43  37  38  40  39  45  46  48  47  29  30  32  31  25  26  28  27  33  34  36  35
   42  42  41  43  44  38  37  39  40  46  45  47  48  30  29  31  32  26  25  27  28  34  33  35  36
   43  43  44  42  41  39  40  38  37  47  48  46  45  31  32  30  29  27  28  26  25  35  36  34  33
   44  44  43  41  42  40  39  37  38  48  47  45  46  32  31  29  30  28  27  25  26  36  35  33  34
   45  45  48  47  46  41  44  43  42  37  40  39  38  33  36  35  34  29  32  31  30  25  28  27  26
   46  46  47  48  45  42  43  44  41  38  39  40  37  34  35  36  33  30  31  32  29  26  27  28  25
   47  47  46  45  48  43  42  41  44  39  38  37  40  35  34  33  36  31  30  29  32  27  26  25  28
   48  48  45  46  47  44  41  42  43  40  37  38  39  36  33  34  35  32  29  30  31  28  25  26  27
    x  25  26  27  28  29  30  31  32  33  34  35  36  37  38  39  40  41  42  43  44  45  46  47  48
    1  25  26  27  28  29  30  31  32  33  34  35  36  37  38  39  40  41  42  43  44  45  46  47  48
    2  26  25  28  27  30  29  32  31  34  33  36  35  38  37  40  39  42  41  44  43  46  45  48  47
    3  27  28  25  26  31  32  29  30  35  36  33  34  39  40  37  38  43  44  41  42  47  48  45  46
    4  28  27  26  25  32  31  30  29  36  35  34  33  40  39  38  37  44  43  42  41  48  47  46  45
    5  29  32  30  31  33  36  34  35  25  28  26  27  41  44  42  43  45  48  46  47  37  40  38  39
    6  30  31  29  32  34  35  33  36  26  27  25  28  42  43  41  44  46  47  45  48  38  39  37  40
    7  31  30  32  29  35  34  36  33  27  26  28  25  43  42  44  41  47  46  48  45  39  38  40  37
    8  32  29  31  30  36  33  35  34  28  25  27  26  44  41  43  42  48  45  47  46  40  37  39  38
    9  33  35  36  34  25  27  28  26  29  31  32  30  45  47  48  46  37  39  40  38  41  43  44  42
   10  34  36  35  33  26  28  27  25  30  32  31  29  46  48  47  45  38  40  39  37  42  44  43  41
   11  35  33  34  36  27  25  26  28  31  29  30  32  47  45  46  48  39  37  38  40  43  41  42  44
   12  36  34  33  35  28  26  25  27  32  30  29  31  48  46  45  47  40  38  37  39  44  42  41  43
   13  37  39  38  40  45  47  46  48  41  43  42  44  25  27  26  28  33  35  34  36  29  31  30  32
   14  38  40  37  39  46  48  45  47  42  44  41  43  26  28  25  27  34  36  33  35  30  32  29  31
   15  39  37  40  38  47  45  48  46  43  41  44  42  27  25  28  26  35  33  36  34  31  29  32  30
   16  40  38  39  37  48  46  47  45  44  42  43  41  28  26  27  25  36  34  35  33  32  30  31  29
   17  41  42  44  43  37  38  40  39  45  46  48  47  29  30  32  31  25  26  28  27  33  34  36  35
   18  42  41  43  44  38  37  39  40  46  45  47  48  30  29  31  32  26  25  27  28  34  33  35  36
   19  43  44  42  41  39  40  38  37  47  48  46  45  31  32  30  29  27  28  26  25  35  36  34  33
   20  44  43  41  42  40  39  37  38  48  47  45  46  32  31  29  30  28  27  25  26  36  35  33  34
   21  45  48  47  46  41  44  43  42  37  40  39  38  33  36  35  34  29  32  31  30  25  28  27  26
   22  46  47  48  45  42  43  44  41  38  39  40  37  34  35  36  33  30  31  32  29  26  27  28  25
   23  47  46  45  48  43  42  41  44  39  38  37  40  35  34  33  36  31  30  29  32  27  26  25  28
   24  48  45  46  47  44  41  42  43  40  37  38  39  36  33  34  35  32  29  30  31  28  25  26  27
   25   1   2   3   4   5   6   7   8   9  10  11  12  13  14  15  16  17  18  19  20  21  22  23  24
   26   2   1   4   3   6   5   8   7  10   9  12  11  14  13  16  15  18  17  20  19  22  21  24  23
   27   3   4   1   2   7   8   5   6  11  12   9  10  15  16  13  14  19  20  17  18  23  24  21  22
   28   4   3   2   1   8   7   6   5  12  11  10   9  16  15  14  13  20  19  18  17  24  23  22  21
   29   5   8   6   7   9  12  10  11   1   4   2   3  17  20  18  19  21  24  22  23  13  16  14  15
   30   6   7   5   8  10  11   9  12   2   3   1   4  18  19  17  20  22  23  21  24  14  15  13  16
   31   7   6   8   5  11  10  12   9   3   2   4   1  19  18  20  17  23  22  24  21  15  14  16  13
   32   8   5   7   6  12   9  11  10   4   1   3   2  20  17  19  18  24  21  23  22  16  13  15  14
   33   9  11  12  10   1   3   4   2   5   7   8   6  21  23  24  22  13  15  16  14  17  19  20  18
   34  10  12  11   9   2   4   3   1   6   8   7   5  22  24  23  21  14  16  15  13  18  20  19  17
   35  11   9  10  12   3   1   2   4   7   5   6   8  23  21  22  24  15  13  14  16  19  17  18  20
   36  12  10   9  11   4   2   1   3   8   6   5   7  24  22  21  23  16  14  13  15  20  18  17  19
   37  13  15  14  16  21  23  22  24  17  19  18  20   1   3   2   4   9  11  10  12   5   7   6   8
   38  14  16  13  15  22  24  21  23  18  20  17  19   2   4   1   3  10  12   9  11   6   8   5   7
   39  15  13  16  14  23  21  24  22  19  17  20  18   3   1   4   2  11   9  12  10   7   5   8   6
   40  16  14  15  13  24  22  23  21  20  18  19  17   4   2   3   1  12  10  11   9   8   6   7   5
   41  17  18  20  19  13  14  16  15  21  22  24  23   5   6   8   7   1   2   4   3   9  10  12  11
   42  18  17  19  20  14  13  15  16  22  21  23  24   6   5   7   8   2   1   3   4  10   9  11  12
   43  19  20  18  17  15  16  14  13  23  24  22  21   7   8   6   5   3   4   2   1  11  12  10   9
   44  20  19  17  18  16  15  13  14  24  23  21  22   8   7   5   6   4   3   1   2  12  11   9  10
   45  21  24  23  22  17  20  19  18  13  16  15  14   9  12  11  10   5   8   7   6   1   4   3   2
   46  22  23  24  21  18  19  20  17  14  15  16  13  10  11  12   9   6   7   8   5   2   3   4   1
   47  23  22  21  24  19  18  17  20  15  14  13  16  11  10   9  12   7   6   5   8   3   2   1   4
   48  24  21  22  23  20  17  18  19  16  13  14  15  12   9  10  11   8   5   6   7   4   1   2   3


    Rotation matrices (r-lattice) and fractional translations (r-lattice)

    1     1  0  0     0  1  0     0  0  1      0.00000  0.00000  0.00000   E  
    2    -1  0  0    -1  0  1    -1  1  0      0.00000  0.00000  0.00000   C2 
    3     0 -1  1     0 -1  0     1 -1  0      0.00000  0.00000  0.00000   C2 
    4     0  1 -1     1  0 -1     0  0 -1      0.00000  0.00000  0.00000   C2 
    5     0  0  1     1  0  0     0  1  0      0.00000  0.00000  0.00000   C3 
    6    -1  1  0    -1  0  0    -1  0  1      0.00000  0.00000  0.00000   C3 
    7     1 -1  0     0 -1  1     0 -1  0      0.00000  0.00000  0.00000   C3 
    8     0  0 -1     0  1 -1     1  0 -1      0.00000  0.00000  0.00000   C3 
    9     0  1  0     0  0  1     1  0  0      0.00000  0.00000  0.00000   C3 
   10    -1  0  1    -1  1  0    -1  0  0      0.00000  0.00000  0.00000   C3 
   11     0 -1  0     1 -1  0     0 -1  1      0.00000  0.00000  0.00000   C3 
   12     1  0 -1     0  0 -1     0  1 -1      0.00000  0.00000  0.00000   C3 
   13     0 -1  0    -1  0  0     0  0 -1      0.00000  0.00000  0.00000   C2 
   14     1  0 -1     1  0  0     1 -1  0      0.00000  0.00000  0.00000   C4 
   15     0  1  0     0  1 -1    -1  1  0      0.00000  0.00000  0.00000   C4 
   16    -1  0  1     0 -1  1     0  0  1      0.00000  0.00000  0.00000   C2 
   17    -1  0  0     0  0 -1     0 -1  0      0.00000  0.00000  0.00000   C2 
   18     1  0  0     1 -1  0     1  0 -1      0.00000  0.00000  0.00000   C2 
   19     0  1 -1    -1  1  0     0  1  0      0.00000  0.00000  0.00000   C4 
   20     0 -1  1     0  0  1    -1  0  1      0.00000  0.00000  0.00000   C4 
   21     0  0 -1     0 -1  0    -1  0  0      0.00000  0.00000  0.00000   C2 
   22     1 -1  0     1  0 -1     1  0  0      0.00000  0.00000  0.00000   C4 
   23    -1  1  0     0  1  0     0  1 -1      0.00000  0.00000  0.00000   C2 
   24     0  0  1    -1  0  1     0 -1  1      0.00000  0.00000  0.00000   C4 
   25    -1  0  0     0 -1  0     0  0 -1      0.00000  0.00000  0.00000   IE 
   26     1  0  0     1  0 -1     1 -1  0      0.00000  0.00000  0.00000   IC2
   27     0  1 -1     0  1  0    -1  1  0      0.00000  0.00000  0.00000   IC2
   28     0 -1  1    -1  0  1     0  0  1      0.00000  0.00000  0.00000   IC2
   29     0  0 -1    -1  0  0     0 -1  0      0.00000  0.00000  0.00000   IC3
   30     1 -1  0     1  0  0     1  0 -1      0.00000  0.00000  0.00000   IC3
   31    -1  1  0     0  1 -1     0  1  0      0.00000  0.00000  0.00000   IC3
   32     0  0  1     0 -1  1    -1  0  1      0.00000  0.00000  0.00000   IC3
   33     0 -1  0     0  0 -1    -1  0  0      0.00000  0.00000  0.00000   IC3
   34     1  0 -1     1 -1  0     1  0  0      0.00000  0.00000  0.00000   IC3
   35     0  1  0    -1  1  0     0  1 -1      0.00000  0.00000  0.00000   IC3
   36    -1  0  1     0  0  1     0 -1  1      0.00000  0.00000  0.00000   IC3
   37     0  1  0     1  0  0     0  0  1      0.00000  0.00000  0.00000   IC2
   38    -1  0  1    -1  0  0    -1  1  0      0.00000  0.00000  0.00000   IC4
   39     0 -1  0     0 -1  1     1 -1  0      0.00000  0.00000  0.00000   IC4
   40     1  0 -1     0  1 -1     0  0 -1      0.00000  0.00000  0.00000   IC2
   41     1  0  0     0  0  1     0  1  0      0.00000  0.00000  0.00000   IC2
   42    -1  0  0    -1  1  0    -1  0  1      0.00000  0.00000  0.00000   IC2
   43     0 -1  1     1 -1  0     0 -1  0      0.00000  0.00000  0.00000   IC4
   44     0  1 -1     0  0 -1     1  0 -1      0.00000  0.00000  0.00000   IC4
   45     0  0  1     0  1  0     1  0  0      0.00000  0.00000  0.00000   IC2
   46    -1  1  0    -1  0  1    -1  0  0      0.00000  0.00000  0.00000   IC4
   47     1 -1  0     0 -1  0     0 -1  1      0.00000  0.00000  0.00000   IC2
   48     0  0 -1     1  0 -1     0  1 -1      0.00000  0.00000  0.00000   IC4
 
Abelian subgroup contains only the Identity operation

 Reciprocal Space Data:
 ----------------------
 Reciprocal Lattice (a.u.):
   0.0000000000    1.1003827158    1.1003827158
   1.1003827158    0.0000000000    1.1003827158
   1.1003827158    1.1003827158    0.0000000000
 Performing Fourier transform of pseudopotentials:
 
 V      nql=  512     delq= 0.015
  Pseudopotential comparison tests: 
  local potential V(0)*r [Ry] =  -.4485E-05 -.4364E-05
  V(q=0)/V_coul =  -1.000     -1.000    
  alpha_crystal =   117.7    
  integrated core charge   0.000    
  rho_core(0) =   0.000      0.000    
  integrated valence charge   4.999    
  rho_val(0) =  -.7520E-01 0.1900E-02
  non-local potentials, zero value: 
   0.000     0.3994     -.1510      0.000    

      343 g-vectors are set up in      30 stars - kmax =    3   3   3
 
 Input grid spacing:  0.700 bohr
 Final grid spacings:  0.824  0.824  0.824 bohr
 Number of grid points along each direction:   6   6   6
 
 Laplacian number of directions:  1
 Laplacian directions:
          -1          -1          -1   weight is:   0.750000000000000     
          -1          -1           0   weight is:   0.000000000000000E+000
           0           1           1   weight is:   0.000000000000000E+000
 Laplacian coefficients data:
 0.75  0.75  0.75  0.75  0.00  0.00
                     ********************                    
 
  Distributing            1  processors among            1  groups.
  Each group contains            1  processors.
 
                     ********************                    
 
 Setup messages:
 ---------------
 The Hamiltonian matrix size is         216
  reduced size is          216
  maximum distance between grid points and their images is
   0.000      [bohr]
 
 There are 36 laplacian-related non-diagonal elements per row
 pbc shift indices =           -3          -3          -3
 pbc shift [latt. vect. units] =    -0.5000   -0.5000   -0.5000
  GROUP COMMUNICATOR FOR MATVEC IS THE NEIGHBORHOOD GRAPH COMMUNICATOR!
 
  Maximum number of matrix-vector operations =        30000
 
 
  Calculating the non-local contribution to the Hamiltonian...
 
 
 Non-local pseudopotential messages:
 -----------------------------------
 Max # of nonlocal points for one atom =          181
 
 Sizes of all non-local blocks 
   181
 
 
 On-site Coulomb interaction (LDA+U) messages:
 ---------------------------------------------
 
  Cut-off radii [bohr] 
V       3.1408
 
  Potential constant (eV) 
V  U =       0.0735 Ry       J =       0.0000 Ry  ( l =  2 )
 
 Max # of non-local points for one atom =          307
 
 Sizes of all non-local blocks 
   307
 
 
 Memory usage:
 -------------
 estimated memory usage per PE    :     0.37 MB
 additional memory in master PE   :     0.17 MB
 maximum estimated memory per PE  :     0.55 MB
 
 
  *** WARNING: in v_fist_omp, for nt=           1
  *** v_first_omp(test) contains information about local potential only up to glmax =    7.63500
  *** while gmax was    11.4355126291474     

  in fft for local potential n =    6   6   6

  max and min of potential     1.0316   -0.3809
 Reciprocal lattice atom data
      0.000000      0.000000      0.000000
 
 Forces from ion-ion interaction:
 ================================
-atom-  ----x----   ----y----   ----z-----   ----Fx----  ----Fy----   ----Fz---
                       [bohr]                             [Ry/bohr]            
 
   1     0.000000    0.000000    0.000000      0.000000    0.000000    0.000000
 
 Tot. electron charge from atomic density [e] =       5.0420    
 Renormalizing charge density
 Initial magnetic moment [Bohr magnetons] =      2.00000
 
 Charge init time [sec]:       0.00
 
 Tot. electron charge from atomic density [e] =       5.0000    

 Max and min values of charge density [e/bohr^3]:  0.2713E+00  0.1147E-01   up

 Max and min values of charge density [e/bohr^3]:  0.1809E+00  0.7646E-02   dn

 Average exchange-correlation potential [Ry]:           -1.05227035  up

 Average exchange-correlation potential [Ry]:           -0.96151221  dn
 Average Hartree potential [Ry]:            0.00000000
 Attention: Average potentials reset to zero.
 
 Hartree potential time [sec]:       0.00
 
 
Setup time [sec] :       0.27
 
 -----------------------------------------------------------------
 
 
  Starting SCF... 
 
  SPIN UP
 Number of converged eigen-pairs per representation:          16
 Number of matrix-vector multiplications:          635
 Cumulated number of matrix-vector mult. =          635
  SPIN DOWN
 Number of converged eigen-pairs per representation:          16
 Number of matrix-vector multiplications:          740
 Cumulated number of matrix-vector mult. =         1375
 
 Diagonalization time [sec] :       0.05,      tdiag_sum =        0.05
 
 
 Electrons in up, down spins:    3.00    2.00
 Net magnetic moment (in Bohr magnetons):    1.00
 
 Fermi level at    -2.7477 [Ry]
 
up State   Eigenvalue [Ry]      Eigenvalue [eV]    Occup.     Repr.
 
    1        -2.8734806573       -39.0960031271    1.0000        1
    2        -2.8106445916       -38.2410681850    1.0000        1
    3        -2.8106445916       -38.2410681848    1.0000        1
    4        -0.1732088875        -2.3566454821    0.0000        1
    5         0.0899678434         1.2240844844    0.0000        1
    6         0.0899678443         1.2240844965    0.0000        1
    7         2.0337015890        27.6701370793    0.0000        1
    8         2.0337016182        27.6701374772    0.0000        1
    9         2.0340856213        27.6753621467    0.0000        1
   10         2.4793704017        33.7338178119    0.0000        1
 
 
dn State   Eigenvalue [Ry]      Eigenvalue [eV]    Occup.     Repr.
 
    1        -2.8103670115       -38.2372914851    1.0000        1
    2        -2.7477068718       -37.3847501559    0.5000        1
    3        -2.7477068718       -37.3847501559    0.5000        1
    4        -0.1803745282        -2.4541397564    0.0000        1
    5         0.1379184838         1.8764913070    0.0000        1
    6         0.1379184839         1.8764913087    0.0000        1
    7         2.0223818837        27.5161234326    0.0000        1
    8         2.0223818848        27.5161234479    0.0000        1
    9         2.0227982308        27.5217881688    0.0000        1
   10         2.4737802578        33.6577594310    0.0000        1
 

 Max and min values of charge density [e/bohr^3]:  0.6502E+00  0.7157E-09   up

 Max and min values of charge density [e/bohr^3]:  0.6483E+00  0.5093E-09   dn

 Average exchange-correlation potential [Ry]:           -0.44718529  up

 Average exchange-correlation potential [Ry]:           -0.41433077  dn
 Average Hartree potential [Ry]:            0.00000000
 Attention: Average potentials reset to zero.
 
 Hartree potential time [sec]:       0.00
 
 
   Eigenvalue Energy             =         -14.05284372 [Ry]
   Hartree Energy                =           9.26355404 [Ry]
   Integral_{Vxc*rho}            =          -7.24015499 [Ry]
   Exc = Integral{eps_xc*rho}    =          -7.16153409 [Ry]
   Electron-Ion energy           =           8.14307466 [Ry]
   Ion-Ion Energy                =         -15.93359654 [Ry]
   Alpha Energy                  =           6.32111233 [Ry]
 
   Total Energy =           -24.12492879 [Ry]
   Energy/atom  =          -328.23895613 [eV]
 
 
  0-  1 up SRE of pot. & charge weighted pot =   7.1330156081    1.8787780141

 
  0-  1 dn SRE of pot. & charge weighted pot =   7.2129807399    2.0125840928

 ----------------------------------
  LDA+U energy term (first contribution) =   7.969839810485181E-002  Ry
  LDA+U energy term =   0.124355436584999       Ry
 ----------------------------------
  SPIN UP
 Number of converged eigen-pairs per representation:          15
 Number of matrix-vector multiplications:          230
 Cumulated number of matrix-vector mult. =         1605
  SPIN DOWN
 Number of converged eigen-pairs per representation:          15
 Number of matrix-vector multiplications:          230
 Cumulated number of matrix-vector mult. =         1835
 
 Diagonalization time [sec] :       0.02,      tdiag_sum =        0.06
 
 
 Electrons in up, down spins:    3.00    2.00
 Net magnetic moment (in Bohr magnetons):    1.00
 
 Fermi level at    -2.2269 [Ry]
 
up State   Eigenvalue [Ry]      Eigenvalue [eV]    Occup.     Repr.
 
    1        -2.3666636320       -32.2003520443    1.0000        1
    2        -2.3666635842       -32.2003513936    1.0000        1
    3        -2.3299520273       -31.7008612927    1.0000        1
    4        -0.2408781389        -3.2773397819    0.0000        1
    5         0.5852714024         7.9630856468    0.0000        1
    6         0.5852714968         7.9630869306    0.0000        1
    7         1.9314602838        26.2790623297    0.0000        1
    8         1.9351056696        26.3286607197    0.0000        1
    9         1.9351058784        26.3286635598    0.0000        1
   10         2.4702083028        33.6091601263    0.0000        1
 
 
dn State   Eigenvalue [Ry]      Eigenvalue [eV]    Occup.     Repr.
 
    1        -2.2733963811       -30.9313764814    1.0000        1
    2        -2.2269149190       -30.2989590055    0.5000        1
    3        -2.2269148813       -30.2989584914    0.5000        1
    4        -0.2503696346        -3.4064791739    0.0000        1
    5         0.6103969986         8.3049394829    0.0000        1
    6         0.6103970784         8.3049405696    0.0000        1
    7         1.9183610048        26.1008361589    0.0000        1
    8         1.9207806990        26.1337580348    0.0000        1
    9         1.9207808733        26.1337604064    0.0000        1
   10         2.4611367125        33.4857338833    0.0000        1
 

 Max and min values of charge density [e/bohr^3]:  0.6267E+00  0.2228E-07   up

 Max and min values of charge density [e/bohr^3]:  0.6230E+00  0.5985E-08   dn

 Average exchange-correlation potential [Ry]:           -0.47154572  up

 Average exchange-correlation potential [Ry]:           -0.43710537  dn
 Average Hartree potential [Ry]:            0.00000000
 Attention: Average potentials reset to zero.
 
 Hartree potential time [sec]:       0.00
 
 
   Eigenvalue Energy             =         -11.56359052 [Ry]
   Hartree Energy                =           8.76942555 [Ry]
   Integral_{Vxc*rho}            =          -6.88503182 [Ry]
   Exc = Integral{eps_xc*rho}    =          -6.98262969 [Ry]
   Electron-Ion energy           =           7.93097375 [Ry]
   Ion-Ion Energy                =         -15.93359654 [Ry]
   LDA+U Energy                  =           0.12435544 [Ry]
   Alpha Energy                  =           6.32111233 [Ry]
   (E(new)-E(old))/atom  =            -2.45834195 [eV]
 
   Total Energy =           -24.30561217 [Ry]
   Energy/atom  =          -330.69729808 [eV]
 
 
  0-  2 up SRE of pot. & charge weighted pot =   4.7952409843    1.2248437316

 
  0-  2 dn SRE of pot. & charge weighted pot =   4.8436810241    1.3096331226

 ----------------------------------
  LDA+U energy term (first contribution) =   8.227055487928883E-002  Ry
  LDA+U energy term =   0.132551779847060       Ry
 ----------------------------------
  SPIN UP
 Number of converged eigen-pairs per representation:          15
 Number of matrix-vector multiplications:          230
 Cumulated number of matrix-vector mult. =         2065
  SPIN DOWN
 Number of converged eigen-pairs per representation:          15
 Number of matrix-vector multiplications:          230
 Cumulated number of matrix-vector mult. =         2295
 
 Diagonalization time [sec] :       0.02,      tdiag_sum =        0.08
 
 
 Electrons in up, down spins:    3.00    2.00
 Net magnetic moment (in Bohr magnetons):    1.00
 
 Fermi level at    -1.2273 [Ry]
 
up State   Eigenvalue [Ry]      Eigenvalue [eV]    Occup.     Repr.
 
    1        -1.4667696118       -19.9565739840    1.0000        1
    2        -1.4667629627       -19.9564835183    1.0000        1
    3        -1.2614654628       -17.1632467943    1.0000        1
    4        -0.3922256466        -5.3365437025    0.0000        1
    5         1.2484793534        16.9865603859    0.0000        1
    6         1.2484819981        16.9865963692    0.0000        1
    7         1.7205278072        23.4091572389    0.0000        1
    8         1.7321525567        23.5673212563    0.0000        1
    9         1.7321528061        23.5673246491    0.0000        1
   10         2.4054511704        32.7280875342    0.0000        1
 
 
dn State   Eigenvalue [Ry]      Eigenvalue [eV]    Occup.     Repr.
 
    1        -1.2355629021       -16.8108217333    1.0000        1
    2        -1.2355625409       -16.8108168186    1.0000        1
    3        -1.2194031126       -16.5909548690    0.0000        1
    4        -0.4069584352        -5.5369950780    0.0000        1
    5         1.2353086800        16.8073628384    0.0000        1
    6         1.2353104584        16.8073870350    0.0000        1
    7         1.7039347243        23.1833950721    0.0000        1
    8         1.7112934372        23.2835162485    0.0000        1
    9         1.7112935024        23.2835171354    0.0000        1
   10         2.4331500716        33.1049532436    0.0000        1
 

 Max and min values of charge density [e/bohr^3]:  0.5794E+00  0.3543E-05   up

 Max and min values of charge density [e/bohr^3]:  0.5033E+00  0.3455E-12   dn

 Average exchange-correlation potential [Ry]:           -0.53035890  up

 Average exchange-correlation potential [Ry]:           -0.47747781  dn
 Average Hartree potential [Ry]:           -0.00000000
 Attention: Average potentials reset to zero.
 
 Hartree potential time [sec]:       0.00
 
 
   Eigenvalue Energy             =          -6.66612348 [Ry]
   Hartree Energy                =           7.66295043 [Ry]
   Integral_{Vxc*rho}            =          -6.20264491 [Ry]
   Exc = Integral{eps_xc*rho}    =          -6.65659230 [Ry]
   Electron-Ion energy           =           7.37862378 [Ry]
   Ion-Ion Energy                =         -15.93359654 [Ry]
   LDA+U Energy                  =           0.13255178 [Ry]
   Alpha Energy                  =           6.32111233 [Ry]
   (E(new)-E(old))/atom  =            -1.13790476 [eV]
 
   Total Energy =           -24.38924597 [Ry]
   Energy/atom  =          -331.83520284 [eV]
 
 
  0-  3 up SRE of pot. & charge weighted pot =   1.4943133440    0.5464856377

 
  0-  3 dn SRE of pot. & charge weighted pot =   0.6761110898    0.0848404548

 ----------------------------------
  LDA+U energy term (first contribution) =   8.807858981588430E-002  Ry
  LDA+U energy term =   0.168888563484332       Ry
 ----------------------------------
  SPIN UP
 Number of converged eigen-pairs per representation:          15
 Number of matrix-vector multiplications:          230
 Cumulated number of matrix-vector mult. =         2525
  SPIN DOWN
 Number of converged eigen-pairs per representation:          15
 Number of matrix-vector multiplications:          230
 Cumulated number of matrix-vector mult. =         2755
 
 Diagonalization time [sec] :       0.02,      tdiag_sum =        0.10
 
 
 Electrons in up, down spins:    3.00    2.00
 Net magnetic moment (in Bohr magnetons):    1.00
 
 Fermi level at    -1.2262 [Ry]
 
up State   Eigenvalue [Ry]      Eigenvalue [eV]    Occup.     Repr.
 
    1        -1.4698819340       -19.9989196181    1.0000        1
    2        -1.4698755294       -19.9988324775    1.0000        1
    3        -1.2708067236       -17.2903421200    1.0000        1
    4        -0.3921245883        -5.3351687237    0.0000        1
    5         1.2482797443        16.9838445451    0.0000        1
    6         1.2482799229        16.9838469750    0.0000        1
    7         1.7208655165        23.4137520445    0.0000        1
    8         1.7322220493        23.5682667582    0.0000        1
    9         1.7322222858        23.5682699766    0.0000        1
   10         2.4047907829        32.7191024346    0.0000        1
 
 
dn State   Eigenvalue [Ry]      Eigenvalue [eV]    Occup.     Repr.
 
    1        -1.2723502404       -17.3113429004    1.0000        1
    2        -1.2723488148       -17.3113235041    1.0000        1
    3        -1.1551730925       -15.7170540618    0.0000        1
    4        -0.4068781177        -5.5359022932    0.0000        1
    5         1.2350208923        16.8034472567    0.0000        1
    6         1.2350210152        16.8034489292    0.0000        1
    7         1.7040995747        23.1856379928    0.0000        1
    8         1.7113330760        23.2840555658    0.0000        1
    9         1.7113331306        23.2840563090    0.0000        1
   10         2.4285606132        33.0425099917    0.0000        1
 

 Max and min values of charge density [e/bohr^3]:  0.5791E+00  0.3301E-05   up

 Max and min values of charge density [e/bohr^3]:  0.5019E+00  0.8452E-14   dn

 Average exchange-correlation potential [Ry]:           -0.53068105  up

 Average exchange-correlation potential [Ry]:           -0.47836650  dn
 Average Hartree potential [Ry]:           -0.00000000
 Attention: Average potentials reset to zero.
 
 Hartree potential time [sec]:       0.00
 
 
   Eigenvalue Energy             =          -6.75526324 [Ry]
   Hartree Energy                =           7.64437487 [Ry]
   Integral_{Vxc*rho}            =          -6.19149292 [Ry]
   Exc = Integral{eps_xc*rho}    =          -6.65022048 [Ry]
   Electron-Ion energy           =           7.36934791 [Ry]
   Ion-Ion Energy                =         -15.93359654 [Ry]
   LDA+U Energy                  =           0.16888856 [Ry]
   Alpha Energy                  =           6.32111233 [Ry]
   (E(new)-E(old))/atom  =            -0.68694454 [eV]
 
   Total Energy =           -24.43973507 [Ry]
   Energy/atom  =          -332.52214738 [eV]
 
 
  0-  4 up SRE of pot. & charge weighted pot =   1.4829231381    0.5420220442

 
  0-  4 dn SRE of pot. & charge weighted pot =   0.6752341064    0.0834262104

 ----------------------------------
  LDA+U energy term (first contribution) =   8.815695812786169E-002  Ry
  LDA+U energy term =   0.169190293683479       Ry
 ----------------------------------
  SPIN UP
 Number of converged eigen-pairs per representation:          15
 Number of matrix-vector multiplications:          230
 Cumulated number of matrix-vector mult. =         2985
  SPIN DOWN
 Number of converged eigen-pairs per representation:          15
 Number of matrix-vector multiplications:          230
 Cumulated number of matrix-vector mult. =         3215
 
 Diagonalization time [sec] :       0.02,      tdiag_sum =        0.11
 
 
 Electrons in up, down spins:    3.00    2.00
 Net magnetic moment (in Bohr magnetons):    1.00
 
 Fermi level at    -1.2250 [Ry]
 
up State   Eigenvalue [Ry]      Eigenvalue [eV]    Occup.     Repr.
 
    1        -1.4686690515       -19.9824173804    1.0000        1
    2        -1.4686677694       -19.9823999366    1.0000        1
    3        -1.2543168699       -17.0659844691    1.0000        1
    4        -0.3929300361        -5.3461274855    0.0000        1
    5         1.2495326118        17.0008908097    0.0000        1
    6         1.2495331156        17.0008976636    0.0000        1
    7         1.7191883890        23.3909333830    0.0000        1
    8         1.7314491511        23.5577508601    0.0000        1
    9         1.7314492597        23.5577523380    0.0000        1
   10         2.4037901132        32.7054875228    0.0000        1
 
 
dn State   Eigenvalue [Ry]      Eigenvalue [eV]    Occup.     Repr.
 
    1        -1.2683718047       -17.2572131005    1.0000        1
    2        -1.2683704963       -17.2571952991    1.0000        1
    3        -1.1578217808       -15.7530915849    0.0000        1
    4        -0.4074129511        -5.5431791304    0.0000        1
    5         1.2363421055        16.8214234190    0.0000        1
    6         1.2363423525        16.8214267793    0.0000        1
    7         1.7033754735        23.1757860173    0.0000        1
    8         1.7108107959        23.2769495270    0.0000        1
    9         1.7108110598        23.2769531169    0.0000        1
   10         2.4295138392        33.0554793940    0.0000        1
 

 Max and min values of charge density [e/bohr^3]:  0.5792E+00  0.3988E-05   up

 Max and min values of charge density [e/bohr^3]:  0.5016E+00  0.2690E-15   dn

 Average exchange-correlation potential [Ry]:           -0.53147977  up

 Average exchange-correlation potential [Ry]:           -0.47896750  dn
 Average Hartree potential [Ry]:            0.00000000
 Attention: Average potentials reset to zero.
 
 Hartree potential time [sec]:       0.00
 
 
   Eigenvalue Energy             =          -6.72839599 [Ry]
   Hartree Energy                =           7.63672913 [Ry]
   Integral_{Vxc*rho}            =          -6.18347331 [Ry]
   Exc = Integral{eps_xc*rho}    =          -6.64689511 [Ry]
   Electron-Ion energy           =           7.36474902 [Ry]
   Ion-Ion Energy                =         -15.93359654 [Ry]
   LDA+U Energy                  =           0.16919029 [Ry]
   Alpha Energy                  =           6.32111233 [Ry]
   (E(new)-E(old))/atom  =             0.03278717 [eV]
 
   Total Energy =           -24.43732527 [Ry]
   Energy/atom  =          -332.48936020 [eV]
 
 
  0-  5 up SRE of pot. & charge weighted pot =   1.5192696490    0.5537039886

 
  0-  5 dn SRE of pot. & charge weighted pot =   0.6935578521    0.0837853052

 ----------------------------------
  LDA+U energy term (first contribution) =   8.818984783217505E-002  Ry
  LDA+U energy term =   0.169316922285704       Ry
 ----------------------------------
  SPIN UP
 Number of converged eigen-pairs per representation:          15
 Number of matrix-vector multiplications:          230
 Cumulated number of matrix-vector mult. =         3445
  SPIN DOWN
 Number of converged eigen-pairs per representation:          15
 Number of matrix-vector multiplications:          230
 Cumulated number of matrix-vector mult. =         3675
 
 Diagonalization time [sec] :       0.02,      tdiag_sum =        0.13
 
 
 Electrons in up, down spins:    3.00    2.00
 Net magnetic moment (in Bohr magnetons):    1.00
 
 Fermi level at    -1.1727 [Ry]
 
up State   Eigenvalue [Ry]      Eigenvalue [eV]    Occup.     Repr.
 
    1        -1.6825859944       -22.8929285227    1.0000        1
    2        -1.3737148923       -18.6904900819    1.0000        1
    3        -1.3736432051       -18.6895147193    1.0000        1
    4        -0.3874676677        -5.2718075927    0.0000        1
    5         1.2685313436        17.2593837553    0.0000        1
    6         1.2685381031        17.2594757235    0.0000        1
    7         1.7262767902        23.4873767521    0.0000        1
    8         1.7262816865        23.4874433700    0.0000        1
    9         1.7447351257        23.7385171737    0.0000        1
   10         2.3547395491        32.0381153572    0.0000        1
 
 
dn State   Eigenvalue [Ry]      Eigenvalue [eV]    Occup.     Repr.
 
    1        -1.2715952397       -17.3010705130    1.0000        1
    2        -1.2715616950       -17.3006141093    1.0000        1
    3        -0.9514261343       -12.9449136978    0.0000        1
    4        -0.4124085918        -5.6111488186    0.0000        1
    5         1.2476654084        16.9754860130    0.0000        1
    6         1.2476691177        16.9755364819    0.0000        1
    7         1.6988234991        23.1138527646    0.0000        1
    8         1.6988281322        23.1139158016    0.0000        1
    9         1.6989583929        23.1156881018    0.0000        1
   10         2.3965908744        32.6075361186    0.0000        1
 

 Max and min values of charge density [e/bohr^3]:  0.6033E+00  0.1399E-05   up

 Max and min values of charge density [e/bohr^3]:  0.5004E+00  0.6591E-12   dn

 Average exchange-correlation potential [Ry]:           -0.52671772  up

 Average exchange-correlation potential [Ry]:           -0.47719812  dn
 Average Hartree potential [Ry]:           -0.00000000
 Attention: Average potentials reset to zero.
 
 Hartree potential time [sec]:       0.00
 
 
   Eigenvalue Energy             =          -6.97310103 [Ry]
   Hartree Energy                =           7.64535397 [Ry]
   Integral_{Vxc*rho}            =          -6.22671858 [Ry]
   Exc = Integral{eps_xc*rho}    =          -6.66559933 [Ry]
   Electron-Ion energy           =           7.38830703 [Ry]
   Ion-Ion Energy                =         -15.93359654 [Ry]
   LDA+U Energy                  =           0.16931692 [Ry]
   Alpha Energy                  =           6.32111233 [Ry]
   (E(new)-E(old))/atom  =            -0.62844935 [eV]
 
   Total Energy =           -24.48351509 [Ry]
   Energy/atom  =          -333.11780955 [eV]
 
 
  0-  6 up SRE of pot. & charge weighted pot =   0.4679552327    0.1737251177

 
  0-  6 dn SRE of pot. & charge weighted pot =   0.2691097776    0.0232934425

 ----------------------------------
  LDA+U energy term (first contribution) =   8.797255903943980E-002  Ry
  LDA+U energy term =   0.168495731480071       Ry
 ----------------------------------
  SPIN UP
 Number of converged eigen-pairs per representation:          15
 Number of matrix-vector multiplications:          230
 Cumulated number of matrix-vector mult. =         3905
  SPIN DOWN
 Number of converged eigen-pairs per representation:          15
 Number of matrix-vector multiplications:          230
 Cumulated number of matrix-vector mult. =         4135
 
 Diagonalization time [sec] :       0.02,      tdiag_sum =        0.15
 
 
 Electrons in up, down spins:    3.00    2.00
 Net magnetic moment (in Bohr magnetons):    1.00
 
 Fermi level at    -1.2619 [Ry]
 
up State   Eigenvalue [Ry]      Eigenvalue [eV]    Occup.     Repr.
 
    1        -1.7844851183       -24.2793476220    1.0000        1
    2        -1.3757356872       -18.7179846127    1.0000        1
    3        -1.3756607625       -18.7169652023    1.0000        1
    4        -0.3818606075        -5.1955190539    0.0000        1
    5         1.2548546296        17.0733011190    0.0000        1
    6         1.2548605918        17.0733822398    0.0000        1
    7         1.7314920210        23.5583341392    0.0000        1
    8         1.7314973045        23.5584060261    0.0000        1
    9         1.7546512813        23.8734344026    0.0000        1
   10         2.3407190269        31.8473549355    0.0000        1
 
 
dn State   Eigenvalue [Ry]      Eigenvalue [eV]    Occup.     Repr.
 
    1        -1.2994068114       -17.6794691941    1.0000        1
    2        -1.2993719503       -17.6789948808    1.0000        1
    3        -0.9563226604       -13.0115348533    0.0000        1
    4        -0.4078437733        -5.5490408109    0.0000        1
    5         1.2334885328        16.7825982797    0.0000        1
    6         1.2334914406        16.7826378428    0.0000        1
    7         1.7039485010        23.1835825156    0.0000        1
    8         1.7039535286        23.1836509196    0.0000        1
    9         1.7058979691        23.2101065886    0.0000        1
   10         2.3960937193        32.6007719254    0.0000        1
 

 Max and min values of charge density [e/bohr^3]:  0.6136E+00  0.1956E-05   up

 Max and min values of charge density [e/bohr^3]:  0.5022E+00  0.7015E-12   dn

 Average exchange-correlation potential [Ry]:           -0.52565922  up

 Average exchange-correlation potential [Ry]:           -0.47632305  dn
 Average Hartree potential [Ry]:            0.00000000
 Attention: Average potentials reset to zero.
 
 Hartree potential time [sec]:       0.00
 
 
   Eigenvalue Energy             =          -7.13466033 [Ry]
   Hartree Energy                =           7.68757691 [Ry]
   Integral_{Vxc*rho}            =          -6.25571938 [Ry]
   Exc = Integral{eps_xc*rho}    =          -6.68371553 [Ry]
   Electron-Ion energy           =           7.41261709 [Ry]
   Ion-Ion Energy                =         -15.93359654 [Ry]
   LDA+U Energy                  =           0.16849573 [Ry]
   Alpha Energy                  =           6.32111233 [Ry]
   (E(new)-E(old))/atom  =            -0.03534853 [eV]
 
   Total Energy =           -24.48611313 [Ry]
   Energy/atom  =          -333.15315808 [eV]
 
 
  0-  7 up SRE of pot. & charge weighted pot =   0.3168333337    0.1152620138

 
  0-  7 dn SRE of pot. & charge weighted pot =   0.2203672804    0.0431115225

 ----------------------------------
  LDA+U energy term (first contribution) =   8.775371977595570E-002  Ry
  LDA+U energy term =   0.167666524124890       Ry
 ----------------------------------
  SPIN UP
 Number of converged eigen-pairs per representation:          15
 Number of matrix-vector multiplications:          230
 Cumulated number of matrix-vector mult. =         4365
  SPIN DOWN
 Number of converged eigen-pairs per representation:          15
 Number of matrix-vector multiplications:          230
 Cumulated number of matrix-vector mult. =         4595
 
 Diagonalization time [sec] :       0.02,      tdiag_sum =        0.16
 
 
 Electrons in up, down spins:    3.00    2.00
 Net magnetic moment (in Bohr magnetons):    1.00
 
 Fermi level at    -1.2578 [Ry]
 
up State   Eigenvalue [Ry]      Eigenvalue [eV]    Occup.     Repr.
 
    1        -1.7795737222       -24.2125241502    1.0000        1
    2        -1.3831409446       -18.8187390642    1.0000        1
    3        -1.3830628594       -18.8176766518    1.0000        1
    4        -0.3816541778        -5.1927104119    0.0000        1
    5         1.2563639248        17.0938362885    0.0000        1
    6         1.2563706167        17.0939273363    0.0000        1
    7         1.7317568796        23.5619377519    0.0000        1
    8         1.7317623330        23.5620119506    0.0000        1
    9         1.7548495579        23.8761321154    0.0000        1
   10         2.3411965684        31.8538522702    0.0000        1
 
 
dn State   Eigenvalue [Ry]      Eigenvalue [eV]    Occup.     Repr.
 
    1        -1.3016924697       -17.7105674047    1.0000        1
    2        -1.3016559014       -17.7100698634    1.0000        1
    3        -0.9578335595       -13.0320918445    0.0000        1
    4        -0.4077610717        -5.5479155895    0.0000        1
    5         1.2351671487        16.8054371921    0.0000        1
    6         1.2351705966        16.8054841037    0.0000        1
    7         1.7040532554        23.1850077828    0.0000        1
    8         1.7040584786        23.1850788484    0.0000        1
    9         1.7057155755        23.2076249774    0.0000        1
   10         2.3946830357        32.5815784465    0.0000        1
 

 Max and min values of charge density [e/bohr^3]:  0.6129E+00  0.1889E-05   up

 Max and min values of charge density [e/bohr^3]:  0.5023E+00  0.7705E-12   dn

 Average exchange-correlation potential [Ry]:           -0.52536058  up

 Average exchange-correlation potential [Ry]:           -0.47611201  dn
 Average Hartree potential [Ry]:            0.00000000
 Attention: Average potentials reset to zero.
 
 Hartree potential time [sec]:       0.00
 
 
   Eigenvalue Energy             =          -7.14912590 [Ry]
   Hartree Energy                =           7.69282298 [Ry]
   Integral_{Vxc*rho}            =          -6.25921239 [Ry]
   Exc = Integral{eps_xc*rho}    =          -6.68536897 [Ry]
   Electron-Ion energy           =           7.41491107 [Ry]
   Ion-Ion Energy                =         -15.93359654 [Ry]
   LDA+U Energy                  =           0.16766652 [Ry]
   Alpha Energy                  =           6.32111233 [Ry]
   (E(new)-E(old))/atom  =             0.00450889 [eV]
 
   Total Energy =           -24.48578174 [Ry]
   Energy/atom  =          -333.14864919 [eV]
 
 
  0-  8 up SRE of pot. & charge weighted pot =   0.3455282446    0.1250557979

 
  0-  8 dn SRE of pot. & charge weighted pot =   0.2414771198    0.0472585252

 ----------------------------------
  LDA+U energy term (first contribution) =   8.773808612166310E-002  Ry
  LDA+U energy term =   0.167605922236663       Ry
 ----------------------------------
  SPIN UP
 Number of converged eigen-pairs per representation:          15
 Number of matrix-vector multiplications:          230
 Cumulated number of matrix-vector mult. =         4825
  SPIN DOWN
 Number of converged eigen-pairs per representation:          15
 Number of matrix-vector multiplications:          230
 Cumulated number of matrix-vector mult. =         5055
 
 Diagonalization time [sec] :       0.02,      tdiag_sum =        0.18
 
 
 Electrons in up, down spins:    3.00    2.00
 Net magnetic moment (in Bohr magnetons):    1.00
 
 Fermi level at    -1.0461 [Ry]
 
up State   Eigenvalue [Ry]      Eigenvalue [eV]    Occup.     Repr.
 
    1        -1.8445143827       -25.0960937876    1.0000        1
    2        -1.2869348096       -17.5097776325    1.0000        1
    3        -1.2869130286       -17.5094812847    1.0000        1
    4        -0.3839525005        -5.2239809315    0.0000        1
    5         1.2359611341        16.8162399979    0.0000        1
    6         1.2359641731        16.8162813464    0.0000        1
    7         1.7287118570        23.5205077836    0.0000        1
    8         1.7287140376        23.5205374529    0.0000        1
    9         1.7529325717        23.8500499834    0.0000        1
   10         2.3349621962        31.7690286485    0.0000        1
 
 
dn State   Eigenvalue [Ry]      Eigenvalue [eV]    Occup.     Repr.
 
    1        -1.2742294861       -17.3369115425    1.0000        1
    2        -1.2742229375       -17.3368224431    1.0000        1
    3        -0.9449723456       -12.8571047397    0.0000        1
    4        -0.4082106609        -5.5540326106    0.0000        1
    5         1.2121492768        16.4922606305    0.0000        1
    6         1.2121527954        16.4923085036    0.0000        1
    7         1.7034249923        23.1764597603    0.0000        1
    8         1.7034266827        23.1764827599    0.0000        1
    9         1.7091364976        23.2541693592    0.0000        1
   10         2.4138233172        32.8419972888    0.0000        1
 

 Max and min values of charge density [e/bohr^3]:  0.6237E+00  0.2878E-05   up

 Max and min values of charge density [e/bohr^3]:  0.5011E+00  0.2153E-13   dn

 Average exchange-correlation potential [Ry]:           -0.52905304  up

 Average exchange-correlation potential [Ry]:           -0.47858040  dn
 Average Hartree potential [Ry]:           -0.00000000
 Attention: Average potentials reset to zero.
 
 Hartree potential time [sec]:       0.00
 
 
   Eigenvalue Energy             =          -6.96681464 [Ry]
   Hartree Energy                =           7.62978737 [Ry]
   Integral_{Vxc*rho}            =          -6.21767978 [Ry]
   Exc = Integral{eps_xc*rho}    =          -6.66595290 [Ry]
   Electron-Ion energy           =           7.38774426 [Ry]
   Ion-Ion Energy                =         -15.93359654 [Ry]
   LDA+U Energy                  =           0.16760592 [Ry]
   Alpha Energy                  =           6.32111233 [Ry]
   (E(new)-E(old))/atom  =            -0.03048655 [eV]
 
   Total Energy =           -24.48802244 [Ry]
   Energy/atom  =          -333.17913574 [eV]
 
 
  0-  9 up SRE of pot. & charge weighted pot =   0.0610567773    0.0067861088

 
  0-  9 dn SRE of pot. & charge weighted pot =   0.0484252823    0.0020686952

 ----------------------------------
  LDA+U energy term (first contribution) =   8.790986556726547E-002  Ry
  LDA+U energy term =   0.168278132916593       Ry
 ----------------------------------
  SPIN UP
 Number of converged eigen-pairs per representation:          15
 Number of matrix-vector multiplications:          215
 Cumulated number of matrix-vector mult. =         5270
  SPIN DOWN
 Number of converged eigen-pairs per representation:          15
 Number of matrix-vector multiplications:          215
 Cumulated number of matrix-vector mult. =         5485
 
 Diagonalization time [sec] :       0.02,      tdiag_sum =        0.20
 
 
 Electrons in up, down spins:    3.00    2.00
 Net magnetic moment (in Bohr magnetons):    1.00
 
 Fermi level at    -1.0306 [Ry]
 
up State   Eigenvalue [Ry]      Eigenvalue [eV]    Occup.     Repr.
 
    1        -1.8251535996       -24.8326748452    1.0000        1
    2        -1.2913527060       -17.5698866468    1.0000        1
    3        -1.2913444934       -17.5697749082    1.0000        1
    4        -0.3850436518        -5.2388269175    0.0000        1
    5         1.2437971223        16.9228548865    0.0000        1
    6         1.2437982564        16.9228703174    0.0000        1
    7         1.7275316733        23.5044504403    0.0000        1
    8         1.7275319987        23.5044548678    0.0000        1
    9         1.7513737260        23.8288406416    0.0000        1
   10         2.3357143302        31.7792620342    0.0000        1
 
 
dn State   Eigenvalue [Ry]      Eigenvalue [eV]    Occup.     Repr.
 
    1        -1.2755082888       -17.3543106757    1.0000        1
    2        -1.2755017195       -17.3542212947    1.0000        1
    3        -0.9537194276       -12.9761157885    0.0000        1
    4        -0.4086207323        -5.5596119601    0.0000        1
    5         1.2188478231        16.5833997110    0.0000        1
    6         1.2188486202        16.5834105570    0.0000        1
    7         1.7028682968        23.1688854724    0.0000        1
    8         1.7028686945        23.1688908841    0.0000        1
    9         1.7085119679        23.2456721332    0.0000        1
   10         2.4126769694        32.8264003105    0.0000        1
 

 Max and min values of charge density [e/bohr^3]:  0.6216E+00  0.2773E-05   up

 Max and min values of charge density [e/bohr^3]:  0.5011E+00  0.2837E-13   dn

 Average exchange-correlation potential [Ry]:           -0.52915464  up

 Average exchange-correlation potential [Ry]:           -0.47854755  dn
 Average Hartree potential [Ry]:            0.00000000
 Attention: Average potentials reset to zero.
 
 Hartree potential time [sec]:       0.00
 
 
   Eigenvalue Energy             =          -6.95886081 [Ry]
   Hartree Energy                =           7.62646562 [Ry]
   Integral_{Vxc*rho}            =          -6.21500415 [Ry]
   Exc = Integral{eps_xc*rho}    =          -6.66413033 [Ry]
   Electron-Ion energy           =           7.38543293 [Ry]
   Ion-Ion Energy                =         -15.93359654 [Ry]
   LDA+U Energy                  =           0.16827813 [Ry]
   Alpha Energy                  =           6.32111233 [Ry]
   (E(new)-E(old))/atom  =             0.00003682 [eV]
 
   Total Energy =           -24.48801974 [Ry]
   Energy/atom  =          -333.17909893 [eV]
 
 
  0- 10 up SRE of pot. & charge weighted pot =   0.0283796342    0.0104633486

 
  0- 10 dn SRE of pot. & charge weighted pot =   0.0157636379    0.0015891208

 ----------------------------------
  LDA+U energy term (first contribution) =   8.793542863680667E-002  Ry
  LDA+U energy term =   0.168373003875619       Ry
 ----------------------------------
  SPIN UP
 Number of converged eigen-pairs per representation:          15
 Number of matrix-vector multiplications:          200
 Cumulated number of matrix-vector mult. =         5685
  SPIN DOWN
 Number of converged eigen-pairs per representation:          15
 Number of matrix-vector multiplications:          200
 Cumulated number of matrix-vector mult. =         5885
 
 Diagonalization time [sec] :       0.02,      tdiag_sum =        0.21
 
 
 Electrons in up, down spins:    3.00    2.00
 Net magnetic moment (in Bohr magnetons):    1.00
 
 Fermi level at    -1.0415 [Ry]
 
up State   Eigenvalue [Ry]      Eigenvalue [eV]    Occup.     Repr.
 
    1        -1.8384615388       -25.0137400051    1.0000        1
    2        -1.2891713868       -17.5402080540    1.0000        1
    3        -1.2891711671       -17.5402050651    1.0000        1
    4        -0.3846198841        -5.2330612188    0.0000        1
    5         1.2425725655        16.9061938117    0.0000        1
    6         1.2425733030        16.9062038460    0.0000        1
    7         1.7277283279        23.5071260834    0.0000        1
    8         1.7277285177        23.5071286658    0.0000        1
    9         1.7522903150        23.8413115673    0.0000        1
   10         2.3334562121        31.7485385301    0.0000        1
 
 
dn State   Eigenvalue [Ry]      Eigenvalue [eV]    Occup.     Repr.
 
    1        -1.2761786879       -17.3634319923    1.0000        1
    2        -1.2761772008       -17.3634117587    1.0000        1
    3        -0.9488355075       -12.9096661473    0.0000        1
    4        -0.4085306059        -5.5583857171    0.0000        1
    5         1.2176246639        16.5667576518    0.0000        1
    6         1.2176253410        16.5667668639    0.0000        1
    7         1.7028704112        23.1689142401    0.0000        1
    8         1.7028705117        23.1689156079    0.0000        1
    9         1.7087027075        23.2482672983    0.0000        1
   10         2.4122564533        32.8206788521    0.0000        1
 

 Max and min values of charge density [e/bohr^3]:  0.6229E+00  0.2856E-05   up

 Max and min values of charge density [e/bohr^3]:  0.5011E+00  0.2747E-14   dn

 Average exchange-correlation potential [Ry]:           -0.52914654  up

 Average exchange-correlation potential [Ry]:           -0.47858053  dn
 Average Hartree potential [Ry]:            0.00000000
 Attention: Average potentials reset to zero.
 
 Hartree potential time [sec]:       0.00
 
 
   Eigenvalue Energy             =          -6.96915998 [Ry]
   Hartree Energy                =           7.62795722 [Ry]
   Integral_{Vxc*rho}            =          -6.21622325 [Ry]
   Exc = Integral{eps_xc*rho}    =          -6.66507062 [Ry]
   Electron-Ion energy           =           7.38658065 [Ry]
   Ion-Ion Energy                =         -15.93359654 [Ry]
   LDA+U Energy                  =           0.16837300 [Ry]
   Alpha Energy                  =           6.32111233 [Ry]
   (E(new)-E(old))/atom  =            -0.00019584 [eV]
 
   Total Energy =           -24.48803413 [Ry]
   Energy/atom  =          -333.17929476 [eV]
 
 
  0- 11 up SRE of pot. & charge weighted pot =   0.0034844014    0.0011582038

 
  0- 11 dn SRE of pot. & charge weighted pot =   0.0017778019    0.0001705572

 ----------------------------------
  LDA+U energy term (first contribution) =   8.792170515138566E-002  Ry
  LDA+U energy term =   0.168322367175639       Ry
 ----------------------------------
  SPIN UP
 Number of converged eigen-pairs per representation:          15
 Number of matrix-vector multiplications:          185
 Cumulated number of matrix-vector mult. =         6070
  SPIN DOWN
 Number of converged eigen-pairs per representation:          15
 Number of matrix-vector multiplications:          185
 Cumulated number of matrix-vector mult. =         6255
 
 Diagonalization time [sec] :       0.01,      tdiag_sum =        0.22
 
 
 Electrons in up, down spins:    3.00    2.00
 Net magnetic moment (in Bohr magnetons):    1.00
 
 Fermi level at    -1.0396 [Ry]
 
up State   Eigenvalue [Ry]      Eigenvalue [eV]    Occup.     Repr.
 
    1        -1.8362623788       -24.9838186734    1.0000        1
    2        -1.2894549577       -17.5440662630    1.0000        1
    3        -1.2894547069       -17.5440628515    1.0000        1
    4        -0.3846687366        -5.2337258966    0.0000        1
    5         1.2425573596        16.9059869232    0.0000        1
    6         1.2425578921        16.9059941686    0.0000        1
    7         1.7277340743        23.5072042686    0.0000        1
    8         1.7277342221        23.5072062790    0.0000        1
    9         1.7521548571        23.8394685542    0.0000        1
   10         2.3339039862        31.7546308549    0.0000        1
 
 
dn State   Eigenvalue [Ry]      Eigenvalue [eV]    Occup.     Repr.
 
    1        -1.2761115586       -17.3625186440    1.0000        1
    2        -1.2761105071       -17.3625043381    1.0000        1
    3        -0.9494800335       -12.9184354401    0.0000        1
    4        -0.4085250077        -5.5583095497    0.0000        1
    5         1.2176158836        16.5666381891    0.0000        1
    6         1.2176163682        16.5666447825    0.0000        1
    7         1.7028988765        23.1693015338    0.0000        1
    8         1.7028989575        23.1693026353    0.0000        1
    9         1.7086972300        23.2481927723    0.0000        1
   10         2.4123730148        32.8222647649    0.0000        1
 

 Max and min values of charge density [e/bohr^3]:  0.6227E+00  0.2843E-05   up

 Max and min values of charge density [e/bohr^3]:  0.5011E+00  0.1358E-14   dn

 Average exchange-correlation potential [Ry]:           -0.52914761  up

 Average exchange-correlation potential [Ry]:           -0.47857097  dn
 Average Hartree potential [Ry]:            0.00000000
 Attention: Average potentials reset to zero.
 
 Hartree potential time [sec]:       0.00
 
 
   Eigenvalue Energy             =          -6.96739411 [Ry]
   Hartree Energy                =           7.62778167 [Ry]
   Integral_{Vxc*rho}            =          -6.21606956 [Ry]
   Exc = Integral{eps_xc*rho}    =          -6.66494444 [Ry]
   Electron-Ion energy           =           7.38643080 [Ry]
   Ion-Ion Energy                =         -15.93359654 [Ry]
   LDA+U Energy                  =           0.16832237 [Ry]
   Alpha Energy                  =           6.32111233 [Ry]
   (E(new)-E(old))/atom  =            -0.00000107 [eV]
 
   Total Energy =           -24.48803421 [Ry]
   Energy/atom  =          -333.17929583 [eV]
 
 
  0- 12 up SRE of pot. & charge weighted pot =   0.0025223325    0.0008527208

 
  0- 12 dn SRE of pot. & charge weighted pot =   0.0016800346    0.0001194339

 ----------------------------------
  LDA+U energy term (first contribution) =   8.792362491111715E-002  Ry
  LDA+U energy term =   0.168329415717334       Ry
 ----------------------------------
  SPIN UP
 Number of converged eigen-pairs per representation:          15
 Number of matrix-vector multiplications:          170
 Cumulated number of matrix-vector mult. =         6425
  SPIN DOWN
 Number of converged eigen-pairs per representation:          15
 Number of matrix-vector multiplications:          170
 Cumulated number of matrix-vector mult. =         6595
 
 Diagonalization time [sec] :       0.01,      tdiag_sum =        0.24
 
 
 Electrons in up, down spins:    3.00    2.00
 Net magnetic moment (in Bohr magnetons):    1.00
 
 Fermi level at    -1.0402 [Ry]
 
up State   Eigenvalue [Ry]      Eigenvalue [eV]    Occup.     Repr.
 
    1        -1.8369351676       -24.9929725027    1.0000        1
    2        -1.2890032738       -17.5379207421    1.0000        1
    3        -1.2890016799       -17.5378990570    1.0000        1
    4        -0.3846623031        -5.2336383633    0.0000        1
    5         1.2424874529        16.9050357864    0.0000        1
    6         1.2424875435        16.9050370193    0.0000        1
    7         1.7277296797        23.5071444767    0.0000        1
    8         1.7277297889        23.5071459614    0.0000        1
    9         1.7521819406        23.8398370479    0.0000        1
   10         2.3337556033        31.7526119874    0.0000        1
 
 
dn State   Eigenvalue [Ry]      Eigenvalue [eV]    Occup.     Repr.
 
    1        -1.2762005801       -17.3637298532    1.0000        1
    2        -1.2761997259       -17.3637182302    1.0000        1
    3        -0.9488097520       -12.9093157238    0.0000        1
    4        -0.4085241565        -5.5582979692    0.0000        1
    5         1.2174791113        16.5647772920    0.0000        1
    6         1.2174791657        16.5647780326    0.0000        1
    7         1.7028867246        23.1691361977    0.0000        1
    8         1.7028868272        23.1691375936    0.0000        1
    9         1.7087049832        23.2482982604    0.0000        1
   10         2.4123476513        32.8219196735    0.0000        1
 

 Max and min values of charge density [e/bohr^3]:  0.6228E+00  0.2849E-05   up

 Max and min values of charge density [e/bohr^3]:  0.5011E+00  0.1445E-15   dn

 Average exchange-correlation potential [Ry]:           -0.52916370  up

 Average exchange-correlation potential [Ry]:           -0.47857341  dn
 Average Hartree potential [Ry]:           -0.00000000
 Attention: Average potentials reset to zero.
 
 Hartree potential time [sec]:       0.00
 
 
   Eigenvalue Energy             =          -6.96734043 [Ry]
   Hartree Energy                =           7.62761774 [Ry]
   Integral_{Vxc*rho}            =          -6.21597146 [Ry]
   Exc = Integral{eps_xc*rho}    =          -6.66490958 [Ry]
   Electron-Ion energy           =           7.38637227 [Ry]
   Ion-Ion Energy                =         -15.93359654 [Ry]
   LDA+U Energy                  =           0.16832942 [Ry]
   Alpha Energy                  =           6.32111233 [Ry]
   (E(new)-E(old))/atom  =            -0.00000151 [eV]
 
   Total Energy =           -24.48803432 [Ry]
   Energy/atom  =          -333.17929734 [eV]
 
 
  0- 13 up SRE of pot. & charge weighted pot =   0.0002060565    0.0000479432

 
  0- 13 dn SRE of pot. & charge weighted pot =   0.0002233955    0.0000231223

 
Time for self-consistent field [sec] :       0.56,    tdiag_sum =        0.24
 
 
Time for local forces [sec] :       0.00,    tforce_sum =        0.00
 
 
 
 Reporting force components from U potential
 ===========================================
-atom-  ----x----   ----y----   ----z-----   ----Fx----  ----Fy----   ----Fz---
                       [bohr]                             [Ry/bohr]            

   1     0.000000    0.000000    0.000000      0.000000    0.000000    0.000000
 
 Coordinates and local force components
 ======================================
 (Ewald forces included)
-atom-  ----x----   ----y----   ----z-----   ----Fx----  ----Fy----   ----Fz---
                       [bohr]                             [Ry/bohr]            

   1     0.000000    0.000000    0.000000      0.000000    0.000000    0.000000
 
 
 Reporting non-local force components
 ====================================
-atom-  ----x----   ----y----   ----z-----   ----Fx----  ----Fy----   ----Fz---
                       [bohr]                             [Ry/bohr]            

   1     0.000000    0.000000    0.000000     -0.000000   -0.000000   -0.000000
 
 Coordinates, forces, torque
 ============================
 
  symmetrizing forces according to symmetry operations 
 coordinates and symmetrized tot. forces
-atom-  ----x----   ----y----   ----z-----   ----Fx----  ----Fy----   ----Fz---
                       [bohr]                             [Ry/bohr]            

   1     0.000000    0.000000    0.000000      0.000000    0.000000    0.000000
 
             tot.  (net) force [Ry/bohr]:      0.000000    0.000000    0.000000
 
 coordinates and tot. forces (after setting net force to zero)
-atom-  ----x----   ----y----   ----z-----   ----Fx----  ----Fy----   ----Fz---
                       [bohr]                             [Ry/bohr]            

   1     0.000000    0.000000    0.000000      0.000000    0.000000    0.000000
 
Time for non-local forces [sec] :       0.00,    tforce_sum =        0.00
 
 
Time for movement    0 is [sec]:       0.61
 
 =================================================================
 
 
 =================================================================
 Setup time [sec] :        0.27
 Time spent on Hartree potential [sec] :        0.00
 Time spent on diagonalization [sec] :        0.24
 Time spent on force calc. [sec] :        0.00
 
 CPU time [sec] :       0.88
 Wall-clock time [sec] :       0.82
 Current date/time: 08-APR-2015 10:20:18 -0700 UTC
 
 =================================================================
 
